Element, Pseudopot., Valence 
Li, PAW_PBE Li 17Jan2003, 1
Na, PAW_PBE Na 08Apr2002, 1
K, PAW_PBE K_sv 06Sep2000, 9
Rb, PAW_PBE Rb_sv 06Sep2000, 9
Cs, PAW_PBE Cs_sv 08Apr2002, 9
Ca, PAW_PBE Ca_sv 06Sep2000, 10
Sr, PAW_PBE Sr_sv 07Sep2000, 10
Ba, PAW_PBE Ba_sv 06Sep2000, 10
Al, PAW_PBE Al 04Jan2001, 3
Cu, PAW_PBE Cu 22Jun2005, 11
Rh, PAW_PBE Rh 04Feb2005, 9
Pd, PAW_PBE Pd 04Jan2005, 10
Ag, PAW_PBE Ag 02Apr2005, 11
C, PAW_PBE C 08Apr2002, 4
Si, PAW_PBE Si 05Jan2001, 4
Ge, PAW_PBE Ge 05Jan2001, 4
Ga, PAW_PBE Ga 08Apr2002, 3
As, PAW_PBE As 22Sep2009, 5
F, PAW_PBE F 08Apr2002, 7
Cl, PAW_PBE Cl 06Sep2000, 7
Mg, PAW_PBE Mg 13Apr2007, 2
O, PAW_PBE O 08Apr2002, 6
