SCF iter., E[n] (hartree), E[n_i]/E[n_(i-1)]-1, T, V_ext, U_H, Ex, Ec, Virial Theorem 
0,-2.7930587505175026,-1.0,5.234552035124119,-548.2770489782047,267.636833637387,-9.375350333105745,-2.9111084996146324,-1.5335812370907647
1,-6.316525319336563,1.261508218603073,5.002136739624552,-563.3136291342846,279.468465091891,-9.445110349539476,-2.9274510549245267,-2.2627654236838595
2,-7.242409059742897,0.14658118088626315,4.884588690094695,-570.5045117209517,285.87538893440063,-9.464106972790443,-2.932831378392549,-2.4827060207606735
3,-7.373454216464836,0.018094139069050552,4.817592416042242,-571.3018766359377,286.5678797443201,-9.429063646606057,-2.927049482179872,-2.530526781782477
4,-7.4217128511211286,0.006544915481882407,4.764492253659376,-570.6244066875992,285.84435648112486,-9.385757170004682,-2.919461116197936,-2.5577132789796977
5,-7.44567582376726,0.003228765802022693,4.724408923105117,-570.0327352740544,285.2299549009228,-9.35275890343289,-2.9136088582042596,-2.5760015580686826
6,-7.458220117216285,0.0016847756665665514,4.693913690580553,-569.6061699214258,284.7926827444717,-9.328447322292217,-2.9092626964469046,-2.5889129218935025
7,-7.465248513859251,0.0009423691621466279,4.670288478432875,-569.3024903598623,284.48417794202913,-9.31029095974667,-2.905997002608725,-2.5984555447342004
8,-7.469478042333321,0.000566562314197272,4.651701408209961,-569.0854030423517,284.2651645636356,-9.296499915868928,-2.903504443854722,-2.605751828599786
9,-7.47218446169353,0.00036233045265943176,4.6368846651942865,-568.9282677917818,284.1075448725713,-9.285839308596044,-2.901570286977759,-2.611466534369896
10,-7.4739970978701535,0.00024258450603253934,4.62494110314433,-568.8125904224755,283.99209459089377,-9.277460123461493,-2.900045633867717,-2.6160199516462725
11,-7.475249385770269,0.00016755263398104958,4.615223281172075,-568.7258558313599,283.9059222568622,-9.270775578413385,-2.8988269019276682,-2.619693984528503
12,-7.476132324146988,0.00011811490575830419,4.607254777602432,-568.6595698565063,283.8403338138089,-9.265373524685225,-2.8978409222631645,-2.622686976307719
13,-7.476763431951383,8.441635019718063e-05,4.6006791376677,-568.6080291976075,283.78951975462235,-9.260961101856218,-2.8970354126741835,-2.62514342083454
14,-7.477218914756747,6.0919782939539147e-05,4.595225824847445,-568.5673516909274,283.7495421255064,-9.257326265059792,-2.8963722970199344,-2.6271711554034596
15,-7.477550200159612,4.430596544535703e-05,4.590684915951139,-568.5348217112142,283.71765772543375,-9.254311410974882,-2.895823107251745,-2.6288528481180506
16,-7.477792768640825,3.2439565729402986e-05,4.586891322328583,-568.5085083718668,283.69192373980377,-9.25179675478632,-2.895366092016475,-2.6302528756763053
17,-7.477971491203164,2.3900443335111987e-05,4.583714957239874,-568.4870723818776,283.6709987605093,-9.24969155581921,-2.8949846591519197,-2.631421578558651
18,-7.478103994140497,1.771910169612312e-05,4.581050220368901,-568.4694886595255,283.65385997304713,-9.247923402230919,-2.8946655136965163,-2.632399479248285
19,-7.4782028527248485,1.321973917844943e-05,4.578811161299816,-568.4549795054677,283.63973449158715,-9.246434408767938,-2.8943979792725902,-2.6332193203184957
20,-7.4782770816073025,9.926032218610104e-06,4.576928117092453,-568.4429769497197,283.6280605524897,-9.24517864530028,-2.894173544066049,-2.633907479053441
21,-7.478333184531323,7.502118924973544e-06,4.57534291879552,-568.4330036554796,283.6183669500496,-9.24411770759698,-2.8939850781963035,-2.634485833577706
22,-7.478375872860738,5.708267920345733e-06,4.574008018140919,-568.4247129160883,283.6103132630737,-9.243220785195183,-2.893826840688278,-2.6349721826461234
23,-7.478408585172758,4.374253524508376e-06,4.57288307366733,-568.4178091255194,283.6036096692545,-9.242461650995951,-2.893693939475658,-2.6353815447931908
24,-7.478433822519889,3.374694875768469e-06,4.5719351701060384,-568.4120567312093,283.5980257115041,-9.24181896995526,-2.8935823908618583,-2.6357261300243735
25,-7.478453426423471,2.6213915971240453e-06,4.5711365206361245,-568.4072658398067,283.59337611748003,-9.241274775875013,-2.8934888367544276,-2.6360162057428127
26,-7.47846875835711,2.0501476394318985e-06,4.570463343748543,-568.4032586015629,283.5894868672019,-9.240813398769948,-2.8934103568711107,-2.6362605267551515
27,-7.478480826743294,1.6137509661895422e-06,4.569896657449014,-568.3999340718435,283.58626081282273,-9.240422900824928,-2.8933447122430414,-2.6364660707487175
28,-7.478490394139328,1.2793234691610422e-06,4.569418830129242,-568.3971489207756,283.5835573984864,-9.240091386974168,-2.8932897029016402,-2.636639290937538
29,-7.478498021604196,1.0199203936966938e-06,4.569016974702472,-568.3948373203035,283.5813135493259,-9.239810800840353,-2.8932438123850917,-2.6367849064712985
30,-7.478504138799451,8.179711001865542e-07,4.568678890440054,-568.3929069550886,283.57943899925795,-9.239572937215566,-2.893205524089735,-2.636907368221536
