SCF iter., E[n] (hartree), E[n_i]/E[n_(i-1)]-1, T, V_ext, U_H, Ex, Ec, Virial Theorem 
0,0.01828130656089222,-1.0,1.2094850510373294,-16.660891282247476,7.4460995495648605,-1.2801914112950858,-0.2962206004987343,-0.9848850495959312
1,-0.07263217976049141,-4.973030019411621,1.3452912768578493,-17.238416166587584,7.876274080247013,-1.3515266954467315,-0.3042546748310398,-1.0539899284340386
2,-0.09658779098979231,0.32982090456731217,1.4285724181207697,-17.546209589504272,8.123336794957318,-1.3933948448858582,-0.3088925696777494,-1.067611406859478
3,-0.1015637497440558,0.051517471341583576,1.4678530475599192,-17.682448690392217,8.236708233624281,-1.4126799622474184,-0.3109963782886203,-1.0691920420187095
4,-0.10261752061775375,0.010375462469173202,1.4862342871061422,-17.744296719214717,8.289036704230014,-1.4216231708643816,-0.31196862187481134,-1.0690453191048102
5,-0.10284753694760695,0.002241491788814498,1.4948947058655946,-17.772964383810393,8.313479879701458,-1.4258299170411777,-0.3124278216630876,-1.0687991846810734
6,-0.10290026709684597,0.0005127021103663587,1.499019964555586,-17.786468832199255,8.325038041628822,-1.4278398977244904,-0.3126495433575095,-1.0686450277714306
7,-0.10291357177688809,0.00012929684652429607,1.5010156588970192,-17.792935871937587,8.33058535260471,-1.4288192444143009,-0.3127594669267265,-1.0685626236920873
8,-0.10291754537916908,3.861106181024532e-05,1.5020019623841032,-17.796095769648822,8.333300951750413,-1.4293088662092166,-0.3128158236556457,-1.068520246948153
9,-0.10291902485286641,1.4375330191551683e-05,1.5025039350129687,-17.79768219056314,8.33466738352145,-1.4295621832154486,-0.31284596960869454,-1.0684983396412715
10,-0.10291969424013914,6.504018801978262e-06,1.5027693892544214,-17.798507922023934,8.335380803085755,-1.4296990383913466,-0.31286292616503536,-1.0684866852998658
11,-0.10292003598955013,3.320544367246825e-06,1.5029163470449256,-17.798957358657315,8.335770727167214,-1.429776759439582,-0.31287299210479275,-1.0684802159427678
12,-0.10292022132222911,1.8007444051448829e-06,1.503001240099766,-17.799212803810413,8.33599358118404,-1.4298229789709949,-0.31287925982462794,-1.0684764713270614
13,-0.10292032447942923,1.002302548513967e-06,1.5030531716964939,-17.79936705276821,8.33612898080392,-1.4298520578537632,-0.3128833663578671,-1.0684741740461927
14,-0.10292038257982838,5.645182274971461e-07,1.5030863495962283,-17.79946476732575,8.336215323775477,-1.4298711329690676,-0.3128861556567169,-1.0684727012572992
