 n_up = x*n,gn_up = x*gn,lap_up = x*lap,<d/dn> up,<d/dn> dn,<d/dgn> up,<d/dgn> dn,<d/dgn>,<d/dlap> up,<d/dlap> dn
  0.25000000000000000      ,  0.25000000000000000      ,  0.25000000000000000      ,   3.2124296893022871E-004 ,   1.8773623359670684E-004 ,   2.1333485936361881E-003 ,   4.8279814061098936E-005 ,   1.3717421124828537      ,   1.1855890512928616E-004 ,   5.7082957897626150E-006
  0.25000000000000000      ,  0.25000000000000000      ,  0.50000000000000000      ,   3.1671997003884545E-004 ,   1.9162007730771314E-004 ,   8.5089504156901175E-005 ,   2.9816021995794031E-005 ,   1.3717421124828537      ,   1.3096674677061951E-006 ,   4.3634445675946942E-006
  0.25000000000000000      ,  0.25000000000000000      ,  0.75000000000000000      ,   3.8452574191652196E-004 ,   1.9374942907914863E-004 ,   8.3565307693204185E-005 ,   2.1489333124818702E-003 ,   1.3717421124828537      ,   1.9286718604659141E-006 ,   1.7153792214817822E-004
  0.25000000000000000      ,  0.50000000000000000      ,  0.25000000000000000      ,   7.1425085982527198E-005 ,   1.2673787706478550E-005 ,   2.5566761108226735E-006 ,   8.3158608055137036E-005 ,   1.3307006350114743      ,   1.1485245830054164E-006 ,   2.4375437797569311E-006
  0.25000000000000000      ,  0.50000000000000000      ,  0.50000000000000000      ,   8.3046901236562691E-005 ,   1.2614923212848046E-005 ,   4.5447047886097838E-004 ,   9.4283711542432117E-005 ,   1.3307006350114743      ,   7.9619292781538860E-007 ,   5.6777008302633406E-006
  0.25000000000000000      ,  0.50000000000000000      ,  0.75000000000000000      ,   7.3541079534186521E-005 ,   1.3079561725150557E-005 ,   2.6286601148718506E-004 ,   8.3995275797126034E-005 ,   1.3307006350114743      ,   1.1542806652502108E-004 ,   9.3139753914858559E-006
  0.25000000000000000      ,  0.75000000000000000      ,  0.25000000000000000      ,   6.0584297395135090E-005 ,   1.2138415111278846E-004 ,   5.7197005524187578E-006 ,   2.4848071220556745E-004 ,   1.3305993851258231      ,   5.3177251810204331E-007 ,   1.5670726978771142E-006
  0.25000000000000000      ,  0.75000000000000000      ,  0.50000000000000000      ,   6.1186261271153306E-005 ,   1.9292018345421234E-004 ,   5.9247563024291489E-006 ,   2.4720850811459219E-004 ,   1.3305993851258231      ,   4.5530289513016808E-007 ,   3.2111474950533970E-006
  0.25000000000000000      ,  0.75000000000000000      ,  0.75000000000000000      ,   6.0820794860825438E-005 ,   1.6886868381494957E-005 ,   5.6738293809304988E-006 ,   2.4384784220074924E-004 ,   1.3305993851258231      ,   3.6923856760988080E-007 ,   1.8433552054661434E-006
  0.50000000000000000      ,  0.25000000000000000      ,  0.25000000000000000      ,   2.9858147985308806E-005 ,   5.5513033853258191E-005 ,   1.2739768832979053E-003 ,   8.5697414983923259E-005 ,   1.3321431707403539      ,   1.9545569091952928E-005 ,   2.5656121021844394E-005
  0.50000000000000000      ,  0.25000000000000000      ,  0.50000000000000000      ,   3.2890752583337893E-004 ,   2.1655634739297159E-005 ,   1.1229022883011864E-003 ,   1.2968588174255203E-005 ,   1.3321431707403539      ,   1.2027758025939942E-005 ,   1.0692721892374664E-007
  0.50000000000000000      ,  0.25000000000000000      ,  0.75000000000000000      ,   1.7472376696695338E-004 ,   2.1588396482895571E-005 ,   1.0045093781704910E-003 ,   7.1949213698226060E-007 ,   1.3321431707403539      ,   1.4048587819582767E-004 ,   1.2983755871065009E-007
  0.50000000000000000      ,  0.50000000000000000      ,  0.25000000000000000      ,   2.7116543690321502E-004 ,   2.6786742200497201E-004 ,   2.2302842320738594E-005 ,   2.4935797886250225E-005 ,   1.3717421124828537      ,   1.7235512643882280E-005 ,   8.7522123384905606E-008
  0.50000000000000000      ,  0.50000000000000000      ,  0.50000000000000000      ,   2.6825843177342095E-004 ,   2.6825843177342095E-004 ,   5.2099261430304015E-004 ,   5.2099261430304015E-004 ,   1.3717421124828537      ,   2.0151283364956195E-005 ,   2.0151283364956195E-005
  0.50000000000000000      ,  0.50000000000000000      ,  0.75000000000000000      ,   2.6786742200493884E-004 ,   2.7116543690313327E-004 ,   2.4935879956678207E-005 ,   2.2302802411349155E-005 ,   1.3717421124828537      ,   8.7522198234276209E-008 ,   1.7235512707242412E-005
  0.50000000000000000      ,  0.75000000000000000      ,  0.25000000000000000      ,   2.1588396482914141E-005 ,   1.7472376696668152E-004 ,   7.1948549911946370E-007 ,   1.0045093859436121E-003 ,   1.3321431707403539      ,   1.2986140876364615E-007 ,   1.4048587803077545E-004
  0.50000000000000000      ,  0.75000000000000000      ,  0.50000000000000000      ,   2.1655634740148170E-005 ,   3.2890752583266569E-004 ,   1.2968588438932552E-005 ,   1.1229022886832753E-003 ,   1.3321431707403539      ,   1.0692736833286136E-007 ,   1.2027758056936761E-005
  0.50000000000000000      ,  0.75000000000000000      ,  0.75000000000000000      ,   5.5513033852865439E-005 ,   2.9858147984604213E-005 ,   8.5697423738593845E-005 ,   1.2739768850122976E-003 ,   1.3321431707403539      ,   2.5656122812019953E-005 ,   1.9545569124018044E-005
  0.75000000000000000      ,  0.25000000000000000      ,  0.25000000000000000      ,   1.6886868381737293E-005 ,   6.0820794860251353E-005 ,   2.4384784249831848E-004 ,   5.6738294530949234E-006 ,   1.3305993851258231      ,   1.8433552126629792E-006 ,   3.6923871131875943E-007
  0.75000000000000000      ,  0.25000000000000000      ,  0.50000000000000000      ,   1.9292018345397493E-004 ,   6.1186261271752937E-005 ,   2.4720850640534795E-004 ,   5.9247562920463563E-006 ,   1.3305993851258231      ,   3.2111475299727746E-006 ,   4.5530291629300897E-007
  0.75000000000000000      ,  0.25000000000000000      ,  0.75000000000000000      ,   1.2138415111163955E-004 ,   6.0584297395478342E-005 ,   2.4848071251090507E-004 ,   5.7197024079369959E-006 ,   1.3305993851258231      ,   1.5670727152750149E-006 ,   5.3177243146587403E-007
  0.75000000000000000      ,  0.50000000000000000      ,  0.25000000000000000      ,   1.3079561725172973E-005 ,   7.3541079533764251E-005 ,   8.3995285706796842E-005 ,   2.6286601263878921E-004 ,   1.3307006350114743      ,   9.3139754228437254E-006 ,   1.1542806616224735E-004
  0.75000000000000000      ,  0.50000000000000000      ,  0.50000000000000000      ,   1.2614923212848046E-005 ,   8.3046901236562691E-005 ,   9.4283711542432117E-005 ,   4.5447047886097838E-004 ,   1.3307006350114743      ,   5.6777008302633406E-006 ,   7.9619292781538860E-007
  0.75000000000000000      ,  0.50000000000000000      ,  0.75000000000000000      ,   1.2673787706285218E-005 ,   7.1425085982320373E-005 ,   8.3158595209938580E-005 ,   2.5566656567452924E-006 ,   1.3307006350114743      ,   2.4375436644976077E-006 ,   1.1485244994896923E-006
  0.75000000000000000      ,  0.75000000000000000      ,  0.25000000000000000      ,   1.9374942907994313E-004 ,   3.8452574191606893E-004 ,   2.1489332671776945E-003 ,   8.3565304574675814E-005 ,   1.3717421124828537      ,   1.7153792224549580E-004 ,   1.9286666938955265E-006
  0.75000000000000000      ,  0.75000000000000000      ,  0.50000000000000000      ,   1.9162007730902971E-004 ,   3.1671997003679349E-004 ,   2.9816035553360708E-005 ,   8.5089504586397118E-005 ,   1.3717421124828537      ,   4.3634445633810594E-006 ,   1.3096673604700577E-006
  0.75000000000000000      ,  0.75000000000000000      ,  0.75000000000000000      ,   1.8773623359679751E-004 ,   3.2124296892949356E-004 ,   4.8279818941224658E-005 ,   2.1333486231704369E-003 ,   1.3717421124828537      ,   5.7082957612392523E-006 ,   1.1855890540654799E-004
 ,,AVERAGES,   1.4130726345505773E-004 ,   1.4130726345481316E-004 ,   3.8282311176865788E-004 ,   3.8282310939372050E-004 ,   1.3446791910226517      ,   2.5244934649247541E-005 ,   2.5244933489695351E-005
