SCF iter., E[n] (hartree), E[n_i]/E[n_(i-1)]-1, T, V_ext, U_H, Ex, Ec, Virial Theorem 
0,-0.03396325735253025,-1.0,0.26185466278762676,-1.5636468924616131,0.6710640764347903,-0.2863739553617764,-0.0693017799324773,-1.1297027022202601
1,-0.034054869678411315,0.00269739515648193,0.2587144915964803,-1.5591020527656132,0.6678885509718332,-0.2848967476931604,-0.0690997429688708,-1.1316310867175048
2,-0.035966050722620935,0.056120638905900355,0.2691709430228651,-1.5787959256023494,0.6819223792474383,-0.29084285543180216,-0.06986122313969231,-1.1336178798450973
3,-0.03689779415916583,0.02590619258507787,0.27702910097583106,-1.5929345432165642,0.6921677971639013,-0.2951931337756291,-0.07040764648762445,-1.1331910403246224
4,-0.03730832033327891,0.011126035674170476,0.28233754410861606,-1.6022150180673822,0.6989840981834773,-0.2980884555880419,-0.07076712015086759,-1.132140840323121
5,-0.03748655299145398,0.004777289799779316,0.2858370585662747,-1.608223240674601,0.7034406995278498,-0.29998116081430515,-0.07100054077759181,-1.1311465811308095
6,-0.037564152749849034,0.0020700691902171275,0.2881261622046277,-1.6121094031011636,0.7063442985073061,-0.30121380097766265,-0.0711520405638763,-1.130373973895404
7,-0.037598222200245,0.000906967092345834,0.2896191053914253,-1.6146269257293433,0.7082359139094709,-0.3020163662230799,-0.07125058072963776,-1.1298195509216509
8,-0.03761335019594969,0.00040235933561216797,0.29059155368225703,-1.6162606761788942,0.7094692331028764,-0.3025392559144065,-0.0713148360687018,-1.129437176405606
9,-0.037620161192147394,0.00018107922219701145,0.29122456184289464,-1.6173224433259006,0.7102741490001688,-0.30288022304779366,-0.0713568368424361,-1.1291792181060676
10,-0.03762327850529179,8.286283326852661e-05,0.2916364466864413,-1.6180132529663342,0.7108000050935237,-0.30310275500647776,-0.07138435349336453,-1.1290074643713628
11,-0.03762473268786859,3.8651139256717926e-05,0.2919043612802765,-1.618463087579103,0.7111438955557877,-0.30324811256718487,-0.07140242055856455,-1.1288940409209665
12,-0.037625425698330495,1.8419013569026532e-05,0.29207856751120626,-1.618756190993154,0.7113690133178852,-0.3033431376051151,-0.07141430911007235,-1.1288195365340754
13,-0.03762576368262138,8.982869551976691e-06,0.29219179391870553,-1.6189472612374423,0.7115165310529651,-0.3034053089712292,-0.07142214962654016,-1.128770774764091
14,-0.03762593251399837,4.487121601393085e-06,0.2922653472482945,-1.6190718607507293,0.7116133013217678,-0.3034460188315091,-0.07142733268274194,-1.1287389451683207
15,-0.03762601887410466,2.2952283309507493e-06,0.29231309669082656,-1.6191531343405459,0.7116768537172827,-0.3034726984367554,-0.07143076768583223,-1.1287182110553902
16,-0.03762606405248614,1.20072180975761e-06,0.2923440690486663,-1.6192061567659588,0.7117186419809095,-0.3034901990319562,-0.07143305046506652,-1.128704728558124
17,-0.0376260881737126,6.410775899023946e-07,0.292364138554549,-1.6192407523645438,0.7117461564689773,-0.30350168991009946,-0.0714345721035152,-1.1286959760514281
