Solid (struc), a0, a0 error
Li (bcc), 3.448160981020253, -0.002839018979746921
Na (bcc), 4.140152264473139, -0.06684773552686085
Ca (fcc), 5.492994242586443, -0.06200575741355685
Sr (fcc), 6.012594419235142, -0.029405580764858108
Ba (bcc), 4.982848795234249, -0.02115120476575072
Al (fcc), 3.9871868330925726, -0.031813166907427526
Cu (fcc), 3.565429853701106, -0.029570146298893984
Rh (fcc), 3.7867036198171293, -0.00629638018287082
Pd (fcc), 3.882086520549843, 0.006086520549843044
Ag (fcc), 4.064945840399357, 0.0019458403993573015
C (ds), 3.5752981080633828, 0.020298108063382614
SiC (zb), 4.368090335342187, 0.020090335342187515
Si (ds), 5.427527909550676, 0.005527909550676391
Ge (ds), 5.653791333565134, 0.00979133356513362
GaAs (zb), 5.640449913000057, -0.0005500869999428559
LiF (rs), 3.975032475964647, 0.0010324759646467285
LiCl (rs), 5.051886723144141, -0.020113276855859397
NaF (rs), 4.580514850122914, 0.010514850122913977
NaCl (rs), 5.540744284956496, -0.024255715043504544
MgO (rs), 4.188925970499352, 0.000925970499352502
====
ME (metals), -0.024189662989076544
MAE (metals), 0.025796135178916612
====
ME (insulators), 0.002326190420898655
MAE (insulators), 0.011310006200760014
====
ME (total), -0.010931736284088944
MAE (total), 0.018553070689838313