Solid (struc), a0, a0 error
Li (bcc), 3.4655904596164215, 0.01459045961642147
Na (bcc), 4.212973890930364, 0.005973890930364156
Ca (fcc), 5.575268240262741, 0.02026824026274099
Sr (fcc), 6.101419580587736, 0.05941958058773622
Ba (bcc), 5.076045883959258, 0.07204588395925882
Al (fcc), 3.9879229333545387, -0.031077066645461393
Cu (fcc), 3.5810194150468515, -0.01398058495314869
Rh (fcc), 3.805286543157494, 0.012286543157493668
Pd (fcc), 3.9134975020126403, 0.03749750201264046
Ag (fcc), 4.107157347037985, 0.04415734703798524
C (ds), 3.5614698579409363, 0.00646985794093613
SiC (zb), 4.354384848494612, 0.006384848494612072
Si (ds), 5.439624327623595, 0.017624327623595448
Ge (ds), 5.677241688560417, 0.03324168856041698
GaAs (zb), 5.6694426009291, 0.028442600929100337
LiF (rs), 3.9817858039129024, 0.007785803912902178
LiCl (rs), 5.089196815797883, 0.017196815797882792
NaF (rs), 4.579293479634222, 0.009293479634221669
NaCl (rs), 5.597833476883084, 0.03283347688308336
MgO (rs), 4.194628315502492, 0.006628315502492654
====
ME (metals), 0.022118179596603095
MAE (metals), 0.03112970991632511
====
ME (insulators), 0.016590121527924363
MAE (insulators), 0.016590121527924363
====
ME (total), 0.01935415056226373
MAE (total), 0.023859915722124737