Solid (struc), a0, a0 error
Li (bcc), 3.3964803224314273, -0.05451967756857279
Na (bcc), 4.163558605933187, -0.04344139406681258
Ca (fcc), 5.495211303791895, -0.059788696208104675
Sr (fcc), 6.031623807951137, -0.010376192048862976
Ba (bcc), 5.012799445055399, 0.008799445055399424
Al (fcc), 3.97023463107858, -0.04876536892142003
Cu (fcc), 3.6085814983908717, 0.013581498390871527
Rh (fcc), 3.829641176736193, 0.036641176736192715
Pd (fcc), 3.938528626235767, 0.06252862623576716
Ag (fcc), 4.139259960334219, 0.07625996033421956
C (ds), 3.5683818995283243, 0.013381899528324137
SiC (zb), 4.354349147103404, 0.0063491471034042846
Si (ds), 5.4239969843282525, 0.0019969843282527933
Ge (ds), 5.699091293596479, 0.055091293596478685
GaAs (zb), 5.678627990241773, 0.03762799024177266
LiF (rs), 3.9807033745882183, 0.006703374588218125
LiCl (rs), 5.075113599561079, 0.003113599561078928
NaF (rs), 4.582119024238942, 0.012119024238941734
NaCl (rs), 5.563340283033224, -0.001659716966776692
MgO (rs), 4.192094963389464, 0.004094963389464468
====
ME (metals), -0.001908062206132266
MAE (metals), 0.04147020355662234
====
ME (insulators), 0.013881855960915911
MAE (insulators), 0.01421379935427125
====
ME (total), 0.005986896877391823
MAE (total), 0.027842001455446796