r,Weight,n up,n down,|grad n up|,|grad n down|,|grad n|,tau up,tau down,lap n up,lap n down (all a.u.)
0.0005725464531185498,6.052469800255108e-09,1880.72003091952,1880.72003091952,67695.86632849764,67695.86632849764,135391.73265699527,317363.1502764282,317363.1502764282,-234020472.35470432,-234020472.35470432
0.0030160987208083245,3.908164160362945e-07,1722.4127411630343,1722.4127411630343,61959.91253905951,61959.91253905951,123919.82507811901,291017.85279428045,291017.85279428045,-38840801.72355392,-38840801.72355392
0.0074097305337503805,3.7035236681259844e-06,1470.7526900477126,1470.7526900477126,52838.1925352237,52838.1925352237,105676.3850704474,249076.27248007324,249076.27248007324,-12346264.665217606,-12346264.665217606
0.013750125925112489,1.737219872991348e-05,1171.4583271570505,1171.4583271570505,41985.24629408131,41985.24629408131,83970.49258816263,199089.20207077908,199089.20207077908,-4584086.051419912,-4584086.051419912
0.022031209514016492,5.6412667363793806e-05,871.1392162634532,871.1392162634532,31089.82957489268,31089.82957489268,62179.65914978536,148778.04676821543,148778.04676821543,-1694073.3424591331,-1694073.3424591331
0.032244918587885696,0.00014603336393746047,605.8163038378265,605.8163038378265,21456.817574973004,21456.817574973004,42913.63514994601,104117.0874010033,104117.0874010033,-551375.3714231752,-551375.3714231752
0.044381283026162954,0.0003240995943277802,395.25642073724276,395.25642073724276,13800.867361504454,13800.867361504454,27601.734723008907,68384.96596895142,68384.96596895142,-119526.48893822853,-119526.48893822853
0.0584284484725881,0.000643422381649957,243.52737909598557,243.52737909598557,8268.842996852474,8268.842996852474,16537.68599370495,42273.677479912796,42273.677479912796,19062.299309127207,19062.299309127207
0.07437269148836911,0.0011738388275273205,143.64278445316458,143.64278445316458,4611.300536423836,4611.300536423836,9222.601072847672,24682.05967308857,24682.05967308857,45321.418117902234,45321.418117902234
0.0921984341490174,0.002004053070625618,83.35065843454264,83.35065843454264,2392.671136692621,2392.671136692621,4785.342273385242,13675.748743438773,13675.748743438773,36307.698605385674,36307.698605385674
0.11188825972748928,0.0032432093968435194,49.84886870803131,49.84886870803131,1159.187767164631,1159.187767164631,2318.375534329262,7241.619735423094,7241.619735423094,21737.626869868156,21737.626869868156
0.13342292991384186,0.005022171828730581,32.525870768088666,32.525870768088666,534.159935482376,534.159935482376,1068.319870964752,3706.7748346690796,3706.7748346690796,10671.049184104138,10671.049184104138
0.15678140370933225,0.007494487569376416,23.88776156309863,23.88776156309863,248.9262271766665,248.9262271766665,497.852454353333,1869.543274422061,1869.543274422061,4199.458891700403,4199.458891700403
0.18194085803493998,0.0108370149695726,19.321677244052484,19.321677244052484,133.97271612335462,133.97271612335462,267.94543224670923,957.5966660704111,957.5966660704111,1077.7499776251182,1077.7499776251182
0.20887671005854624,0.015250200195446187,16.359877302545783,16.359877302545783,93.73940737402847,93.73940737402847,187.47881474805695,518.3422179003253,518.3422179003253,-118.98343357482202,-118.98343357482202
0.23756264122996296,0.02095799046403952,13.895769233947174,13.895769233947174,80.3619589914086,80.3619589914086,160.7239179828172,307.0811331863064,307.0811331863064,-394.92253959836387,-394.92253959836387
0.26797062300567065,0.028207375551579622,11.565224884174302,11.565224884174302,73.17012692505709,73.17012692505709,146.34025385011418,200.77745930008547,200.77745930008547,-319.0861297308675,-319.0861297308675
0.30007094424081826,0.03726755322717321,9.340337156071817,9.340337156071817,65.20295025187505,65.20295025187505,130.4059005037501,141.58075899737062,141.58075899737062,-162.9609652538716,-162.9609652538716
0.3338322402231997,0.04842871828608907,7.301064579760585,7.301064579760585,55.438152627184074,55.438152627184074,110.87630525436815,103.93823818856745,103.93823818856745,-31.479473318311154,-31.479473318311154
0.36922152332164915,0.06200047891328281,5.527592234160832,5.527592234160832,44.83612808053943,44.83612808053943,89.67225616107886,77.16124337264394,77.16124337264394,49.96397049480332,49.96397049480332
0.406204215219371,0.07830990816094346,4.0627522953492425,4.0627522953492425,34.599814610592105,34.599814610592105,69.19962922118421,56.904200293234894,56.904200293234894,87.34697331970945,87.34697331970945
0.44474418070100885,0.09769924233492507,2.9091246055619906,2.9091246055619906,25.574719334031197,25.574719334031197,51.149438668062395,41.308444088956485,41.308444088956485,94.94781489079189,94.94781489079189
0.4848037629605866,0.12052324201513674,2.039667967312983,2.039667967312983,18.161356853856443,18.161356853856443,36.322713707712886,29.397835601810556,29.397835601810556,86.01965496180823,86.01965496180823
0.526343820395959,0.14714623524712828,1.4109070824195094,1.4109070824195094,12.413851395583091,12.413851395583091,24.827702791166182,20.481309898445076,20.481309898445076,70.0778853745724,70.0778853745724
0.5693237648538862,0.17793886609888354,0.9739407143375821,0.9739407143375821,8.174571031867158,8.174571031867158,16.349142063734316,13.968107106916005,13.968107106916005,52.93114964479774,52.93114964479774
0.6137016012883958,0.21327457524270205,0.6819138232628399,0.6819138232628399,5.187012136558756,5.187012136558756,10.374024273117511,9.33182386334238,9.33182386334238,37.58440244429575,37.58440244429575
0.6594339687937172,0.2535258424630932,0.4941785394561749,0.4941785394561749,3.1726518172726434,3.1726518172726434,6.345303634545287,6.115655032391579,6.115655032391579,25.217189666722984,25.217189666722984
0.7064761829717416,0.29906022397670146,0.37794401696606206,0.37794401696606206,1.8751777910659853,1.8751777910659853,3.7503555821319705,3.9403943335211458,3.9403943335211458,15.96315837284015,15.96315837284015
0.7547822795925847,0.3502362201471105,0.30828626449430063,0.30828626449430063,1.0807792473180808,1.0807792473180808,2.1615584946361617,2.5051187995981947,2.5051187995981947,9.444862084932852,9.444862084932852
0.8043050595056416,0.40739901156274055,0.26724650393337446,0.26724650393337446,0.6231515014938982,0.6231515014938982,1.2463030029877964,1.5807238065717615,1.5807238065717615,5.101892882246709,5.101892882246709
0.8549961347572377,0.47087610349097464,0.24254390472758144,0.24254390472758144,0.38001421887418346,0.38001421887418346,0.7600284377483669,0.9992029874017173,0.9992029874017173,2.3701208977304296,2.3701208977304296
0.9068059758698115,0.540972920407968,0.22623817217054945,0.22623817217054945,0.2658186898637544,0.2658186898637544,0.5316373797275088,0.6414998317497317,0.6414998317497317,0.7644841470164243,0.7644841470164243
0.959683960236474,0.6179683936118613,0.21352727446437103,0.21352727446437103,0.2235187965822092,0.2235187965822092,0.4470375931644184,0.425888231613397,0.425888231613397,-0.09490496670525596,-0.09490496670525596
1.013578421583618,0.7021105858415834,0.20176046009706258,0.20176046009706258,0.21695718564973918,0.21695718564973918,0.43391437129947835,0.2979420695254868,0.2979420695254868,-0.4862789972427769,-0.4862789972427769
1.0684367004532835,0.7936123973332515,0.18968094578013717,0.18968094578013717,0.22454225179862253,0.22454225179862253,0.44908450359724505,0.2224773477561424,0.2224773477561424,-0.6025342483993852,-0.6025342483993852
1.1242051956559371,0.8926473978459792,0.17687682705884877,0.17687682705884877,0.2343684335572888,0.2343684335572888,0.4687368671145776,0.17742637687410145,0.17742637687410145,-0.5708399361868423,-0.5708399361868423
1.1808294166433977,0.9993458288675884,0.16340335778538997,0.16340335778538997,0.24065864009090693,0.24065864009090693,0.48131728018181386,0.14938554813695318,0.14938554813695318,-0.47080992827340007,-0.47080992827340007
1.2382540367507402,1.1137908194779746,0.14953681530159454,0.14953681530159454,0.24129415943946741,0.24129415943946741,0.48258831887893483,0.13050131778116114,0.13050131778116114,-0.349372215944763,-0.349372215944763
1.2964229472551563,1.236014858197797,0.1356238667422664,0.1356238667422664,0.23617659316070908,0.23617659316070908,0.47235318632141815,0.11636524156170529,0.11636524156170529,-0.2320191127317382,-0.2320191127317382
1.3552793121989417,1.3659965615959724,0.12199681117026089,0.12199681117026089,0.2261920187939243,0.2261920187939243,0.4523840375878486,0.10463539736743131,0.10463539736743131,-0.13084286113268903,-0.13084286113268903
1.4147656239230568,1.50365777847778,0.10893200610611861,0.10893200610611861,0.21259104729520673,0.21259104729520673,0.42518209459041345,0.09416089878861184,0.09416089878861184,-0.050009491804208224,-0.050009491804208224
1.474823759256994,1.6488610661468381,0.0966350267406259,0.0966350267406259,0.19664383661951926,0.19664383661951926,0.3932876732390385,0.08444328310338302,0.08444328310338302,0.010670241186002702,0.010670241186002702
1.535395036310053,1.8014075725374594,0.0852411925456796,0.0852411925456796,0.1794689453833844,0.1794689453833844,0.3589378907667688,0.07531659634880754,0.07531659634880754,0.0535115182777756,0.0535115182777756
1.5964202718085274,1.9610353549801922,0.07482397167871548,0.07482397167871548,0.1619666247568498,0.1619666247568498,0.3239332495136996,0.06676524985230353,0.06676524985230353,0.08163199752895153,0.08163199752895153
1.657839838922794,2.1274181630103417,0.06540657606971521,0.06540657606971521,0.14481081541769067,0.14481081541769067,0.28962163083538134,0.05882599759707015,0.05882599759707015,0.09821638789054792,0.09821638789054792
1.7195937255277713,2.300164708986994,0.056973997058756554,0.056973997058756554,0.12847093350413033,0.12847093350413033,0.25694186700826066,0.05153950120104444,0.05153950120104444,0.10614774450153565,0.10614774450153565
1.7816215928398775,2.4788184463902843,0.04948401354383382,0.04948401354383382,0.11324599891469113,0.11324599891469113,0.22649199782938226,0.044929884468124216,0.044929884468124216,0.10785726494058075,0.10785726494058075
1.8438628343731267,2.66285787153279,0.04287651481434406,0.04287651481434406,0.09930119383833842,0.09930119383833842,0.19860238767667684,0.03899917121128252,0.03899917121128252,0.10529678969674519,0.10529678969674519
1.9062566351568169,2.8516973601089757,0.03708096432529778,0.03708096432529778,0.08670170507878344,0.08670170507878344,0.17340341015756688,0.03372892322465475,0.03372892322465475,0.0999742991655168,0.0999742991655168
1.9687420311569137,3.0446885455215633,0.03202209804395084,0.03202209804395084,0.07544159222555122,0.07544159222555122,0.15088318445110244,0.029084766358798378,0.029084766358798378,0.09301669990532108,0.09301669990532108
2.0312579688430867,3.2411222413439784,0.027624080240661816,0.027624080240661816,0.06546708217634696,0.06546708217634696,0.13093416435269392,0.025021528624926632,0.025021528624926632,0.08523965127931028,0.08523965127931028
2.093743364843183,3.440230905600908,0.02381338500012298,0.02381338500012298,0.05669457029774012,0.05669457029774012,0.11338914059548023,0.021487903283086057,0.021487903283086057,0.07721381836970152,0.07721381836970152
2.156137165626874,3.6411916398498243,0.020520669508606114,0.020520669508606114,0.04902401410590768,0.04902401410590768,0.09804802821181537,0.018430214981809762,0.018430214981809762,0.06932272093759466,0.06932272093759466
2.2183784071601225,3.843129711345404,0.017681878590301618,0.017681878590301618,0.04234853592604265,0.04234853592604265,0.0846970718520853,0.015795216771211387,0.015795216771211387,0.061810657781065356,0.061810657781065356
2.280406274472229,4.045122581912011,0.015238783331344945,0.015238783331344945,0.03656103280902509,0.03656103280902509,0.07312206561805018,0.013532011805092418,0.013532011805092418,0.0548209523316647,0.0548209523316647
2.342160161077207,4.246204422587664,0.013139118262276844,0.013139118262276844,0.031558502310146265,0.031558502310146265,0.06311700462029253,0.011593256900327928,0.011593256900327928,0.04842560187690127,0.04842560187690127
2.403579728191473,4.445371088655779,0.011336445910553645,0.011336445910553645,0.027244676804010413,0.027244676804010413,0.054489353608020825,0.009935814559003843,0.009935814559003843,0.042647712813771395,0.042647712813771395
2.4646049636899487,4.641585525416129,0.00978984661395339,0.00978984661395339,0.02353144171721971,0.02353144171721971,0.04706288343443942,0.008521003944766792,0.008521003944766792,0.037478113452452895,0.037478113452452895
2.5251762407430074,4.833783570970134,0.008463505903773276,0.008463505903773276,0.020339406792256882,0.020339406792256882,0.040678813584513765,0.007314575481178221,0.007314575481178221,0.03288740269911612,0.03288740269911612
2.585234376076944,5.020880118477781,0.0073262513352367175,0.0073262513352367175,0.017597909250289215,0.017597909250289215,0.03519581850057843,0.006286506534198364,0.006286506534198364,0.028834503832427298,0.028834503832427298
2.6447206878010583,5.201775596789927,0.006351074786787255,0.006351074786787255,0.015244654367596188,0.015244654367596188,0.030489308735192375,0.005410691007207616,0.005410691007207616,0.02527259502442832,0.02527259502442832
2.7035770527448437,5.375362725121524,0.00551466425101659,0.00551466425101659,0.013225141276555294,0.013225141276555294,0.026450282553110587,0.004664575124430732,0.004664575124430732,0.022153106093027626,0.022153106093027626
2.7617459632492602,5.5405334945329185,0.004796960271879133,0.004796960271879133,0.011491977589732492,0.011491977589732492,0.022983955179464985,0.004028775428848316,0.004028775428848316,0.019428314234789624,0.019428314234789624
2.8191705833566036,5.696186326451521,0.004180745783163189,0.004180745783163189,0.010004153331193406,0.010004153331193406,0.020008306662386812,0.003486702681475875,0.003486702681475875,0.017052942509789327,0.017052942509789327
2.8757948043440633,5.841233356329137,0.0036512736030915017,0.0036512736030915017,0.008726320369696646,0.008726320369696646,0.01745264073939329,0.0030242062914780346,0.0030242062914780346,0.014985062024013961,0.014985062024013961
2.931563299546716,5.974607788793749,0.0031959327707628635,0.0031959327707628635,0.0076281060937635654,0.0076281060937635654,0.015256212187527131,0.0026292474647272046,0.0026292474647272046,0.013186518722027358,0.013186518722027358
2.9864215784163815,6.0952712693651065,0.0028039528975352486,0.0028039528975352486,0.006683477792903992,0.006683477792903992,0.013366955585807984,0.002291604823837634,0.002291604823837634,0.01162304459666344,0.01162304459666344
3.040316039763526,6.202221216938,0.002466144458541167,0.002466144458541167,0.005870165783260231,0.005870165783260231,0.011740331566520462,0.002002613312337019,0.002002613312337019,0.010264167213617812,0.010264167213617812
3.093194024130188,6.294498060843284,0.0021746722434607185,0.0021746722434607185,0.005169147701043253,0.005169147701043253,0.010338295402086506,0.0017549353380755977,0.0017549353380755977,0.009082997441711536,0.009082997441711536
3.1450038652427623,6.371192326352183,0.0019228588543628937,0.0019228588543628937,0.004564192789371911,0.004564192789371911,0.009128385578743821,0.001542362018104233,0.001542362018104233,0.008055950413390741,0.008055950413390741
3.195694940494358,6.431451513012207,0.0017050150587056834,0.0017050150587056834,0.00404146282754295,0.00404146282754295,0.0080829256550859,0.0013596418200169723,0.0013596418200169723,0.007162436783046354,0.007162436783046354
3.2452177204074157,6.474486711185004,0.00151629388820781,0.00151629388820781,0.0035891651563238047,0.0035891651563238047,0.007178330312647609,0.0012023336777810922,0.0012023336777810922,0.006384548545662221,0.006384548545662221
3.293523817028259,6.499578903597812,0.0013525655557237509,0.0013525655557237509,0.0031972527186022604,0.0031972527186022604,0.006394505437204521,0.0010666816675282875,0.0010666816675282875,0.005706754668837634,0.005706754668837634
3.340566031206282,6.506084900605731,0.0012103104981081665,0.0012103104981081665,0.0028571659324571367,0.0028571659324571367,0.0057143318649142735,0.0009495084722864119,0.0009495084722864119,0.005115615547315422,0.005115615547315422
3.386298398711604,6.493442860175955,0.0010865281130941701,0.0010865281130941701,0.002561611381818951,0.002561611381818951,0.005123222763637902,0.0008481250835458572,0.0008481250835458572,0.004599521038880326,0.004599521038880326
3.4306762351461133,6.46117734635059,0.0009786590224109186,0.0009786590224109186,0.002304372636357251,0.002304372636357251,0.004608745272714502,0.0007602544413397756,0.0007602544413397756,0.004148454012067535,0.004148454012067535
3.473656179604042,6.408903883065659,0.0008845189490130984,0.0008845189490130984,0.002080148920974821,0.002080148920974821,0.004160297841949642,0.0006839669769494822,0.0006839669769494822,0.003753779510276322,0.003753779510276322
3.5151962370394143,6.336332963715232,0.0008022425358069034,0.0008022425358069034,0.0018844177959103454,0.0018844177959103454,0.003768835591820691,0.0006176262772098979,0.0006176262772098979,0.0034080585091207103,0.0034080585091207103
3.555255819298991,6.2432734806949615,0.0007302356525921716,0.0007302356525921716,0.0017133184486687893,0.0017133184486687893,0.0034266368973375786,0.0005598433273253193,0.0005598433273253193,0.0031048845950224736,0.0031048845950224736
3.593795784780629,6.129635543319241,0.0006671349354425108,0.0006671349354425108,0.001563552619127052,0.001563552619127052,0.003127105238254104,0.0005094380053479775,0.0005094380053479775,0.0028387415668919024,0.0028387415668919024
3.6307784766783526,5.995432656959567,0.0006117734783161455,0.0006117734783161455,0.0014323005681198327,0.0014323005681198327,0.0028646011362396654,0.0004654066942470173,0.0004654066942470173,0.0026048798488805614,0.0026048798488805614
3.6661677597768016,5.840783240934902,0.000563151751206324,0.000563151751206324,0.0013171498522770953,0.0013171498522770953,0.0026342997045541907,0.00042689504690720517,0.00042689504690720517,0.00239920962350783,0.00239920962350783
3.6999290557591826,5.665911467586534,0.0005204129540456822,0.0005204129540456822,0.001216034982291184,0.001216034982291184,0.002432069964582368,0.00039317508666179536,0.00039317508666179536,0.002218208697728412,0.002218208697728412
3.7320293769943294,5.471147410049974,0.00048282213260987175,0.00048282213260987175,0.0011271863189250943,0.0011271863189250943,0.0022543726378501886,0.0003636259529016368,0.0003636259529016368,0.0020588432635266097,0.0020588432635266097
3.762437358770037,5.256926491423128,0.0004497484836639638,0.0004497484836639638,0.001049086803113623,0.001049086803113623,0.002098173606227246,0.00033771770999821264,0.00033771770999821264,0.0019184998852468827,0.0019184998852468827
3.7911232899414538,5.023788233337744,0.0004206503633903608,0.0004206503633903608,0.0009804353263837102,0.0009804353263837102,0.0019608706527674204,0.00031499773037179366,0.00031499773037179366,0.001794927222396765,0.001794927222396765
3.818059141965059,4.772374307272917,0.00039506258747261055,0.00039506258747261055,0.0009201157287759385,0.0009201157287759385,0.001840231457551877,0.00029507924109250426,0.00029507924109250426,0.0016861861692441015,0.0016861861692441015
3.8432185962906678,4.503425897323844,0.0003725856747018682,0.0003725856747018682,0.0008671705667789571,0.0008671705667789571,0.0017343411335579142,0.000277631689840674,0.000277631689840674,0.001590607255349841,0.001590607255349841
3.866577070086159,4.217780388492285,0.0003528767400900288,0.0003528767400900288,0.0008207789266642829,0.0008207789266642829,0.0016415578533285659,0.0002623726421101833,0.0002623726421101833,0.00150675430111552,0.00150675430111552
3.888111740272512,3.9163673999353645,0.00033564178953050566,0.00033564178953050566,0.0007802376719852848,0.0007802376719852848,0.0015604753439705697,0.00024906096875826057,0.00024906096875826057,0.0014333934581626032,0.0014333934581626032
3.9078015658509835,3.600204188057259,0.00032062920720791495,0.00032062920720791495,0.0007449456105714778,0.0007449456105714778,0.0014898912211429556,0.00023749112274053954,0.00023749112274053954,0.0013694668857366337,0.0013694668857366337
3.925627308511631,3.270390450148192,0.00030762426024274174,0.00030762426024274174,0.0007143901485163792,0.0007143901485163792,0.0014287802970327584,0.00022748833729551628,0.00022748833729551628,0.0013140704218962344,0.0013140704218962344
3.941571551527413,2.928102566337664,0.0002964444733553292,0.0002964444733553292,0.0006881360685527333,0.0006881360685527333,0.0013762721371054665,0.00021890460596837538,0.00021890460596837538,0.0012664347029706432,0.0012664347029706432
3.9556187169738366,2.5745873287834193,0.0002869357504119145,0.0002869357504119145,0.0006658161296891534,0.0006658161296891534,0.0013316322593783067,0.00021161532855269586,0.00021161532855269586,0.00122590926781304,0.00122590926781304
3.967755081412114,2.2111552324411363,0.00027896914021942435,0.00027896914021942435,0.0006471232356247771,0.0006471232356247771,0.0012942464712495541,0.00020551652700243867,0.00020551652700243867,0.0011919492559197744,0.0011919492559197744
3.9779687904859835,1.839173483549114,0.0002724381613539893,0.0002724381613539893,0.0006318039624729291,0.0006318039624729291,0.0012636079249458581,0.00020052255218903068,0.00020052255218903068,0.0011641043714321563,0.0011641043714321563
3.986249874074887,1.4600592327274482,0.00026725661524266156,0.00026725661524266156,0.0006196532720109998,0.0006196532720109998,0.0012393065440219997,0.00019656421628446908,0.00019656421628446908,0.0011420098379356213,0.0011420098379356213
3.99259026946625,1.075275581443171,0.00026335682635620007,0.00026335682635620007,0.0006105102608400477,0.0006105102608400477,0.0012210205216800954,0.00019358729528927006,0.00019358729528927006,0.0011253791034203284,0.0011253791034203284
3.996983901279192,0.6863513479351319,0.00026068823510685165,0.00026068823510685165,0.0006042547660983911,0.0006042547660983911,0.0012085095321967823,0.00019155133809546987,0.00019155133809546987,0.0011139979930324055,0.0011139979930324055
3.9994274535468826,0.29532949367838873,0.0002592159273265967,0.0002592159273265967,0.0006008038486359394,0.0006008038486359394,0.0012016076972718788,0.00019042845958146465,0.00019042845958146465,0.0011077185457100118,0.0011077185457100118
4.00001431571043,0.00738751897993723,0.00025886358065840316,0.00025886358065840316,0.0005999780259716375,0.0005999780259716375,0.001199956051943275,0.00019015977865752658,0.00019015977865752658,0.001106215743318394,0.001106215743318394
4.000075459366244,0.017211283345965063,0.00025882689843693897,0.00025882689843693897,0.000599892051775282,0.000599892051775282,0.001199784103550564,0.00019013180766540584,0.00019013180766540584,0.0011060592883961324,0.0011060592883961324
4.000185587050853,0.02708451606911893,0.0002587608422395761,0.0002587608422395761,0.0005997372325201266,0.0005997372325201266,0.0011994744650402531,0.00019008143881938495,0.00019008143881938495,0.0011057775489400257,0.0011057775489400257
4.000344938886409,0.037014106828070346,0.0002586652908550889,0.0002586652908550889,0.0005995132847870036,0.0005995132847870036,0.0011990265695740073,0.00019000858045445035,0.00019000858045445035,0.0011053700074083062,0.0011053700074083062
4.0005538306274975,0.04701943857854893,0.0002585400881324794,0.0002585400881324794,0.0005992198435720996,0.0005992198435720996,0.001198439687144199,0.00018991311461023262,0.00018991311461023262,0.0011048359969820108,0.0011048359969820108
4.000812674117386,0.05712105669184244,0.0002583850310148426,0.0002583850310148426,0.0005988564342496367,0.0005988564342496367,0.0011977128684992734,0.00018979488791601322,0.00018979488791601322,0.001104174650521374,0.001104174650521374
4.001121980812653,0.06734006163565677,0.00025819986783267895,0.00025819986783267895,0.000598422468582966,0.000598422468582966,0.001196844937165932,0.00018965371030190098,0.00018965371030190098,0.0011033848932781565,0.0011033848932781565
4.00148236427295,0.07769810591986785,0.00025798429732328036,0.00025798429732328036,0.0005979172424402626,0.0005979172424402626,0.0011958344848805253,0.00018948935426687,0.00018948935426687,0.001102465438702654,0.001102465438702654
4.001894542849931,0.08821747290177945,0.0002577379676417238,0.0002577379676417238,0.0005973399334935497,0.0005973399334935497,0.0011946798669870994,0.00018930155414377395,0.00018930155414377395,0.0011014147842126874,0.0011014147842126874
4.002359342781238,0.09892117587753343,0.00025746047524725197,0.00025746047524725197,0.000596689598628841,0.000596689598628841,0.001193379197257682,0.00018909000527291486,0.00018909000527291486,0.0011002312064287622,0.0011002312064287622
4.002877701753491,0.10983306690345841,0.00025715136363542527,0.00025715136363542527,0.00059596517099821,0.00059596517099821,0.00119193034199642,0.0001888543630618277,0.0001888543630618277,0.0010989127557489453,0.0010989127557489453
4.0034506729723836,0.12097795354203275,0.00025681012190353886,0.00025681012190353886,0.0005951654566847224,0.0005951654566847224,0.0011903309133694448,0.00018859424192202356,0.00018859424192202356,0.0010974572502099615,0.0010974572502099615
4.004079429774321,0.1323817237590272,0.0002564361831407547,0.0002564361831407547,0.0005942891309604892,0.0005942891309604892,0.0011885782619209784,0.00018830921407650056,0.00018830921407650056,0.0010958622685978423,0.0010958622685978423
4.004765270816137,0.1440714798275862,0.0002560289226350661,0.0002560289226350661,0.0005933347341197101,0.0005933347341197101,0.0011866694682394201,0.0001879988082323923,0.0001879988082323923,0.0010941251427743198,0.0010941251427743198
4.005509625883514,0.15607568237628344,0.0002555876558889598,0.0002555876558889598,0.0005923006668680272,0.0005923006668680272,0.0011846013337360544,0.00018766250811298277,0.00018766250811298277,0.001092242949183997,0.001092242949183997
4.006314062363755,0.16842430590891175,0.000255111636435041,0.000255111636435041,0.0005911851852481684,0.0005911851852481684,0.0011823703704963368,0.0001872997508429253,0.0001872997508429253,0.001090212499504796,0.001090212499504796
4.007180292434394,0.18114900729862377,0.0002546000534421608,0.0002546000534421608,0.0005899863950802152,0.0005899863950802152,0.0011799727901604304,0.00018690992518001538,0.00018690992518001538,0.00108803033040101,0.00108803033040101
4.008110181025599,0.19428330894367132,0.000254052029101789,0.000254052029101789,0.0005887022458930284,0.0005887022458930284,0.0011774044917860567,0.0001864923695863358,0.0001864923695863358,0.0010856926923348668,0.0010856926923348668
4.009105754621647,0.20786279847833092,0.00025346661578353765,0.00025346661578353765,0.0005873305243214993,0.0005873305243214993,0.0011746610486429985,0.00018604637013104413,0.00018604637013104413,0.0010831955373889184,0.0010831955373889184
4.010169210974817,0.22192534716712772,0.0002528427929478997,0.0002528427929478997,0.0005858688469423757,0.0005858688469423757,0.0011717376938847515,0.00018557115821651914,0.00018557115821651914,0.0010805345060478893,0.0010805345060478893
4.011302929814199,0.236511349380278,0.00025217946380338567,0.00025217946380338567,0.0005843146525194849,0.0005843146525194849,0.0011686293050389698,0.0001850659081190268,0.0001850659081190268,0.0010777049128848665,0.0010777049128848665
4.012509484642056,0.25166398585812416,0.00025147545169439253,0.00025147545169439253,0.0005826651936272635,0.0005826651936272635,0.001165330387254527,0.00018452973433453554,0.00018452973433453554,0.0010747017310930075,0.0010747017310930075
4.013791655721869,0.2674295138309918,0.00025072949620527185,0.00025072949620527185,0.0005809175276196189,0.0005809175276196189,0.0011618350552392378,0.0001839616887197868,0.0001839616887197868,0.001071519575800177,0.001071519575800177
4.015152444375078,0.28385758747428175,0.0002499402489652531,0.0002499402489652531,0.0005790685069093723,0.0005790685069093723,0.0011581370138187446,0.00018336075741826334,0.00018336075741826334,0.0010681526861004375,0.0010681526861004375
4.016595088718118,0.3010016126581342,0.0002491062691380795,0.0002491062691380795,0.0005771147685218388,0.0005771147685218388,0.0011542295370436776,0.0001827258575602654,0.0001827258575602654,0.0010645949057328044,0.0010645949057328044
4.018123080987839,0.3189191405067237,0.0002482260185795217,0.0002482260185795217,0.0005750527228846416,0.0005750527228846416,0.0011501054457692833,0.00018205583372596997,0.00018205583372596997,0.001060839662334678,0.001060839662334678
4.019740186622074,0.3376723049273002,0.00024729785664531724,0.00024729785664531724,0.0005728785418146288,0.0005728785418146288,0.0011457570836292577,0.00018134945416010484,0.00018134945416010484,0.0010568799451946321,0.0010568799451946321
4.021450465283388,0.35732831002044824,0.00024632003463162804,0.00024632003463162804,0.0005705881456619256,0.0005705881456619256,0.0011411762913238511,0.00018060540672677503,0.00018060540672677503,0.0010527082814272223,0.0010527082814272223
4.0232582940382144,0.3779599741585028,0.0002452906898298179,0.0002452906898298179,0.0005681771895707327,0.0005681771895707327,0.0011363543791414654,0.00017982229459303912,0.00017982229459303912,0.001048316710491125,0.001048316710491125
4.025168392931186,0.39964633854174625,0.0002442078391773637,0.0002442078391773637,0.0005656410488168227,0.0005656410488168227,0.0011312820976336455,0.00017899863163017634,0.00017899863163017634,0.0010436967569718953,0.0010436967569718953
4.02718585322601,0.4224733492399373,0.00024306937248698573,0.00024306937248698573,0.0005629748031826558,0.0005629748031826558,0.0011259496063653117,0.00017813283752215241,0.00017813283752215241,0.0010388394015516565,0.0010388394015516565
4.029316168620389,0.446534623131168,0.00024187304523686247,0.00024187304523686247,0.0005601732203332594,0.0005601732203332594,0.0011203464406665188,0.00017722323257180983,0.00017722323257180983,0.0010337350500912706,0.0010337350500912706
4.031565269783964,0.47193230980301204,0.00024061647090605889,0.00024061647090605889,0.0005572307381594261,0.0005572307381594261,0.0011144614763188522,0.0001762680321967455,0.0001762680321967455,0.0010283735007558046,0.0010283735007558046
4.033939562615975,0.49877806342865516,0.00023929711284129842,0.00023929711284129842,0.0005541414460599672,0.0005541414460599672,0.0011082828921199345,0.0001752653411088996,0.0001752653411088996,0.0010227439091225242,0.0010227439091225242
4.036445970674366,0.5271941409328899,0.0002379122756440678,0.0002379122756440678,0.0005508990651420461,0.0005508990651420461,0.0011017981302840923,0.00017421314717467132,0.00017421314717467132,0.0010168347512227397,0.0010168347512227397
4.039091982291565,0.5573146454910108,0.00023645909607103644,0.00023645909607103644,0.0005474969273286193,0.0005474969273286193,0.0010949938546572387,0.00017310931495610694,0.00017310931495610694,0.0010106337844857328,0.0010106337844857328
4.04188570296578,0.5892869376447101,0.00023493453344613165,0.00023493453344613165,0.0005439279533753118,0.0005439279533753118,0.0010878559067506236,0.00017195157893857587,0.00017195157893857587,0.001004128006575771,0.001004128006575771
4.044835913701994,0.6232732401808315,0.00023333535958971834,0.00023333535958971834,0.0005401846298165549,0.0005401846298165549,0.0010803692596331098,0.0001707375364566434,0.0001707375364566434,0.0009973036121434433,0.0009973036121434433
4.047952136076127,0.6594524675326873,0.0002316581482796135,0.0002316581482796135,0.0005362589848835179,0.0005362589848835179,0.0010725179697670358,0.00016946464033792334,0.00016946464033792334,0.0009901459475521101,0.0009901459475521101
4.051244704911571,0.698022315994394,0.00022989926427061666,0.00022989926427061666,0.000532142563465442,0.000532142563465442,0.001064285126930884,0.00016813019129491378,0.00016813019129491378,0.0009826394636912007,0.0009826394636912007
4.054724849592552,0.7392016576856644,0.00022805485191454124,0.00022805485191454124,0.0005278264012230727,0.0005278264012230727,0.0010556528024461454,0.00016673133010774145,0.00016673133010774145,0.0009747676670534843,0.0009747676670534843
4.0584047851972125,0.7832332892234115,0.00022612082344215621,0.00022612082344215621,0.0005233009980097631,0.0005233009980097631,0.0010466019960195263,0.00016526502965693996,0.00016526502965693996,0.0009665130693363795,0.0009665130693363795
4.062297814819431,0.8303870957577623,0.00022409284699299018,0.00022409284699299018,0.0005185562908148708,0.0005185562908148708,0.0010371125816297415,0.00016372808688564888,0.00016372808688564888,0.0009578571359323882,0.0009578571359323882
4.066418444667518,0.8809637028112557,0.00022196633450978146,0.00022196633450978146,0.000513581626518019,0.000513581626518019,0.001027163253036038,0.00016211711479583428,0.00016211711479583428,0.0009487802338056288,0.0009487802338056288
4.0707825137867735,0.9352987027154814,0.00021973642965298495,0.00021973642965298495,0.0005083657348352085,0.0005083657348352085,0.001016731469670417,0.0001604285346144487,0.0001604285346144487,0.0009392615794169082,0.0009392615794169082
4.075407340559337,0.993767559998281,0.00021739799593893194,0.00021739799593893194,0.0005028967019527413,0.0005028967019527413,0.0010057934039054827,0.00015865856830421084,0.00015865856830421084,0.0009292791875662167,0.0009292791875662167
4.080311888498799,1.0567913216341538,0.00021494560536521992,0.00021494560536521992,0.0004971619454877324,0.0004971619454877324,0.0009943238909754647,0.00015680323164156746,0.00015680323164156746,0.0009188098222787082,0.0009188098222787082
4.085516954290663,1.12484328464632,0.00021237352786135293,0.00021237352786135293,0.0004911481915908395,0.0004911481915908395,0.000982296383181679,0.00015485832814341496,0.00015485832814341496,0.0009078289511796044,0.0009078289511796044
4.091045381547971,1.198456806450011,0.00020967572199487723,0.00020967572199487723,0.0004848414552254659,0.0004848414552254659,0.0009696829104509318,0.00015281944419676013,0.00015281944419676013,0.0008963107051992775,0.0008963107051992775
4.096922304372705,1.2782344842259232,0.00020684582747722833,0.00020684582747722833,0.0004782270249273382,0.0004782270249273382,0.0009564540498546764,0.00015068194583461975,0.00015068194583461975,0.0008842278459392372,0.0008842278459392372
4.1031754255609325,1.364858980694942,0.0002038771601541118,0.0002038771601541118,0.000471289453680339,0.000471289453680339,0.000942578907360678,0.00014844097771067702,0.00014844097771067702,0.0008715517436338596,0.0008715517436338596
4.109835335191945,1.4591058377529726,0.0002007627103383451,0.0002007627103383451,0.0004640125579523499,0.0004640125579523499,0.0009280251159046998,0.0001460914649587721,0.0001460914649587721,0.0008582523693868069,0.0008582523693868069
4.116935876434644,1.5618587002344146,0.00019749514555576856,0.00019749514555576856,0.00045637942743500203,0.00045637942743500203,0.0009127588548700041,0.00014362811878629124,0.00014362811878629124,0.0008442983062757766,0.0008442983062757766
4.124514566733785,1.6741274744779084,0.00019406681903557342,0.00019406681903557342,0.00044837244864304166,0.00044837244864304166,0.0008967448972860833,0.00014104544684893013,0.00014104544684893013,0.0008296567850410441,0.0008296567850410441
4.132613084161629,1.7970700768358305,0.00019046978559524301,0.00019046978559524301,0.00043997334627558803,0.00043997334627558803,0.0008799466925511761,0.00013833776969517688,0.00013833776969517688,0.0008142937514457533,0.0008142937514457533
4.141277830710056,1.9320185944190624,0.00018669582695914267,0.00018669582695914267,0.00043116324714990073,0.00043116324714990073,0.0008623264942998015,0.0001354992448603361,0.0001354992448603361,0.0007981739740703386,0.0007981739740703386
4.150560586747533,2.0805108957456566,0.00018273648902235795,0.00018273648902235795,0.0004219227726194413,0.0004219227726194413,0.0008438455452388825,0.0001325239005412193,0.0001325239005412193,0.0007812612033392085,0.0007812612033392085
4.160519273894034,2.244329008200807,0.00017858313414337792,0.00017858313414337792,0.00041223216671732826,0.00041223216671732826,0.0008244643334346565,0.0001294056812040271,0.0001294056812040271,0.0007635183950428243,0.0007635183950428243
4.171218847329607,2.425545943526481,0.00017422701223810915,0.00017422701223810915,0.0004020714688624464,0.0004020714688624464,0.0008041429377248928,0.00012613850798038793,0.00012613850798038793,0.0007449080145879238,0.0007449080145879238
4.1827323432490715,2.626583131081955,0.00016965935527216142,0.00016965935527216142,0.00039142074186932684,0.00039142074186932684,0.0007828414837386537,0.000122716357301052,0.000122716357301052,0.0007253924417636387,0.0007253924417636387
4.195142113068191,2.8502812515479223,0.0001648715007271296,0.0001648715007271296,0.00038026036825437133,0.00038026036825437133,0.0007605207365087427,0.00011913336191335687,0.00011913336191335687,0.0007049345000323637,0.0007049345000323637
4.20854128341904,3.0999881071173734,0.00015985505076655685,0.00015985505076655685,0.0003685714304640323,0.0003685714304640323,0.0007371428609280646,0.00011538393923436,0.00011538393923436,0.0006834981393139945,0.0006834981393139945
4.223035490398744,3.379668296729868,0.00015460207515974848,0.00015460207515974848,0.00035633619368438733,0.00035633619368438733,0.0007126723873687747,0.00011146295290747607,0.00011146295290747607,0.0006610493069785325,0.0006610493069785325
4.238744948560845,3.694040998156886,0.00014910536753662238,0.00014910536753662238,0.00034353871331633195,0.00034353871331633195,0.0006870774266326639,0.0001073659144465457,0.0001073659144465457,0.0006375570482934877,0.0006375570482934877
4.255806930572504,4.048754252495632,0.0001433587662239026,0.0001433587662239026,0.000330165592955496,0.000330165592955496,0.000660331185910992,0.00010308923293895797,0.00010308923293895797,0.0006129948847975096,0.0006129948847975096
4.274378753397651,4.450607031864893,0.0001373575526966647,0.0001373575526966647,0.0003162069226540948,0.0003162069226540948,0.0006324138453081896,9.863052188001697e-05,9.863052188001697e-05,0.0005873425267450322,0.0005873425267450322
4.294641392794293,4.907834385474485,0.00013109894245709076,0.00013109894245709076,0.0003016574310785073,0.0003016574310785073,0.0006033148621570146,9.39889732182182e-05,9.39889732182182e-05,0.000560587983393651,0.000560587983393651
4.316803881875275,5.43047660178412,0.00012458268472194612,0.00012458268472194612,0.0002865178884112275,0.0002865178884112275,0.000573035776822455,8.916580942727018e-05,8.916580942727018e-05,0.0005327301415978173,0.0005327301415978173
4.341108694300695,6.03086134169961,0.00011781178832096822,0.00011781178832096822,0.00027079679865002503,0.00027079679865002503,0.0005415935973000501,8.41648245992036e-05,8.41648245992036e-05,0.000503781887434441,0.000503781887434441
4.36783837229109,6.724239220515314,0.00011079339113153707,0.00011079339113153707,0.00025451241901277405,0.00025451241901277405,0.0005090248380255481,7.899302472954772e-05,7.899302472954772e-05,0.00047377384501456053,0.00047377384501456053
4.397323739634134,7.529630080945181,0.0001035397883470164,0.0001035397883470164,0.00023769513843394777,0.00023769513843394777,0.00047539027686789554,7.366137487081501e-05,7.366137487081501e-05,0.00044275879749377123,0.00044275879749377123
4.429954148123233,8.47096191022932,9.60696296075024e-05,9.60696296075024e-05,0.00022039023360237122,0.00022039023360237122,0.00044078046720474244,6.818565568321039e-05,6.818565568321039e-05,0.0004108168319460432,0.0004108168319460432
4.466190353816923,9.578621287378871,8.840928461999562e-05,8.840928461999562e-05,0.00020266099522837976,0.00020266099522837976,0.0004053219904567595,6.258742271542416e-05,6.258742271542416e-05,0.0003780612039548766,0.0003780612039548766
4.506580823750569,10.89159027535704,8.059435867128357e-05,8.059435867128357e-05,0.0001845921730423383,0.0001845921730423383,0.0003691843460846766,5.68950465865327e-05,5.68950465865327e-05,0.00034464483780460625,0.00034464483780460625
4.55178255875534,12.460431038605451,7.267130971893971e-05,7.267130971893971e-05,0.00016629361705935053,0.00016629361705935053,0.00033258723411870106,5.1144788600694854e-05,5.1144788600694854e-05,0.0003107672481171135,0.0003107672481171135
4.602587920429877,14.351514900015834,6.469907278942236e-05,6.469907278942236e-05,0.00014790388428892882,0.00014790388428892882,0.00029580776857785764,4.538183114228429e-05,4.538183114228429e-05,0.0002766814682705378,0.0002766814682705378
4.659959525503856,16.65310889743658,5.675052960032612e-05,5.675052960032612e-05,0.00012959342210474767,0.00012959342210474767,0.00025918684420949534,3.9661132155600474e-05,3.9661132155600474e-05,0.00024270027610821996,0.00024270027610821996
4.725076104107136,19.48428547843621,4.891356603594232e-05,4.891356603594232e-05,0.00011156672036762931,0.00011156672036762931,0.00022313344073525863,3.404790541372007e-05,3.404790541372007e-05,0.00020920059511994826,0.00020920059511994826
4.799393443146389,23.00820815982069,4.12913339391653e-05,4.12913339391653e-05,9.406253872305286e-05,9.406253872305286e-05,0.0001881250774461057,2.861744295128983e-05,2.861744295128983e-05,0.00017662440714895318,0.00017662440714895318
4.884726364259858,27.45234720659827,3.4001180154596294e-05,3.4001180154596294e-05,7.735097526176865e-05,7.735097526176865e-05,0.0001547019505235373,2.3453898991650237e-05,2.3453898991650237e-05,0.00014547386049458774,0.00014547386049458774
4.983360461766845,33.13993106893316,2.7171544094668545e-05,2.7171544094668545e-05,6.172579769590303e-05,6.172579769590303e-05,0.00012345159539180607,1.8647564465763904e-05,1.8647564465763904e-05,0.00011629758573255868,0.00011629758573255868
5.098206619386314,40.540091459719605,2.093600487182439e-05,2.093600487182439e-05,4.749022873456059e-05,4.749022873456059e-05,9.498045746912118e-05,1.4290118422016153e-05,1.4290118422016153e-05,8.96647654355254e-05,8.96647654355254e-05
5.233018100142961,50.350010561890635,1.5423680974238656e-05,1.5423680974238656e-05,3.4934498991366674e-05,3.4934498991366674e-05,6.986899798273335e-05,1.0467421807527901e-05,1.0467421807527901e-05,6.612368822342861e-05,6.612368822342861e-05
5.392700936817001,63.63361570389971,1.0745523153520309e-05,1.0745523153520309e-05,2.4304345701844165e-05,2.4304345701844165e-05,4.860869140368833e-05,7.249736974051799e-06,7.249736974051799e-06,4.6143097627108344e-05,4.6143097627108344e-05
5.583766428631327,82.06378345774617,6.9769434549320915e-06,6.9769434549320915e-06,1.5761781507304048e-05,1.5761781507304048e-05,3.1523563014608096e-05,4.679959969906305e-06,4.679959969906305e-06,3.003864590672682e-05,3.003864590672682e-05
5.815005267403357,108.36166945972974,4.138946687830369e-06,4.138946687830369e-06,9.34338983177217e-06,9.34338983177217e-06,1.868677966354434e-05,2.7616541649676893e-06,2.7616541649676893e-06,1.7894138701422504e-05,1.7894138701422504e-05
6.098516618643098,147.12861060663545,2.182508748730001e-06,2.182508748730001e-06,4.927055948635113e-06,4.927055948635113e-06,9.854111897270225e-06,1.4502805626776947e-06,1.4502805626776947e-06,9.49786394749735e-06,9.49786394749735e-06
6.4513229919894535,206.50059750595486,9.836928609087126e-07,9.836928609087126e-07,2.2237061568687846e-06,2.2237061568687846e-06,4.447412313737569e-06,6.524379281823476e-07,6.524379281823476e-07,4.324885726805029e-06,4.324885726805029e-06
6.897985430677477,301.6297756075256,3.578175886792619e-07,3.578175886792619e-07,8.116268668033758e-07,8.116268668033758e-07,1.6232537336067517e-06,2.3776467000066993e-07,2.3776467000066993e-07,1.5980585657896858e-06,1.5980585657896858e-06
7.474995276307135,462.50746842537944,9.627514979862992e-08,9.627514979862992e-08,2.1978030650072104e-07,2.1978030650072104e-07,4.395606130014421e-07,6.446000036732788e-08,6.446000036732788e-08,4.4016497794942557e-07,4.4016497794942557e-07
8.238468475001351,752.9532232411952,1.6700086383929312e-08,1.6700086383929312e-08,3.8523474404303985e-08,3.8523474404303985e-08,7.704694880860797e-08,1.1356345750610482e-08,1.1356345750610482e-08,7.895634651466853e-08,7.895634651466853e-08
9.278318197110758,1321.1526273435522,1.4893279534309562e-09,1.4893279534309562e-09,3.488384143170233e-09,3.488384143170233e-09,6.976768286340466e-09,1.0387201968435458e-09,1.0387201968435458e-09,7.36797423607257e-09,7.36797423607257e-09
10.745980176722668,2550.0624080128855,4.6192733918965806e-11,4.6192733918965806e-11,1.1039340763956476e-10,1.1039340763956476e-10,2.207868152791295e-10,3.337870259782863e-11,3.337870259782863e-11,2.4187826323506755e-10,2.4187826323506755e-10
12.912808389613215,5571.607052172975,2.439286010337855e-13,2.439286010337855e-13,5.970179060951742e-13,5.970179060951742e-13,1.1940358121903483e-12,1.8411462678374714e-13,1.8411462678374714e-13,1.3631116510860031e-12,1.3631116510860031e-12
