r,Weight,n up,n down,|grad n up|,|grad n down|,|grad n|,tau up,tau down,lap n up,lap n down (all a.u.)
0.0005725464531174396,6.052469800233899e-09,1880.9072950187983,1880.9072950187983,67761.38645244324,67761.38645244324,135522.7729048865,317929.8050342491,317929.8050342491,-234237874.065029,-234237874.065029
0.0030160987208085466,3.9081641603627463e-07,1722.470676292148,1722.470676292148,62001.57123572839,62001.57123572839,124003.14247145678,291390.34268129786,291390.34268129786,-38860213.70833716,-38860213.70833716
0.007409730533749936,3.703523668125945e-06,1470.6924736398357,1470.6924736398357,52853.19161674855,52853.19161674855,105706.3832334971,249227.15916177686,249227.15916177686,-12346042.825953996,-12346042.825953996
0.013750125925112933,1.7372198729916464e-05,1171.3650409843174,1171.3650409843174,41983.746316737845,41983.746316737845,83967.49263347569,199095.72624795744,199095.72624795744,-4582529.19439132,-4582529.19439132
0.022031209514016048,5.641266736377902e-05,871.0833652420581,871.0833652420581,31084.137402328935,31084.137402328935,62168.27480465787,148739.4063983648,148739.4063983648,-1693587.6212387714,-1693587.6212387714
0.03224491858788592,0.00014603336393746207,605.8088171896634,605.8088171896634,21453.45545554123,21453.45545554123,42906.91091108246,104090.40388861335,104090.40388861335,-551462.3380396579,-551462.3380396579
0.0443812830261634,0.0003240995943278098,395.2707013647168,395.2707013647168,13800.341879410578,13800.341879410578,27600.683758821157,68379.41391514278,68379.41391514278,-119657.3788143936,-119657.3788143936
0.058428448472587435,0.0006434223816500626,243.53913374900958,243.53913374900958,8269.412556154884,8269.412556154884,16538.82511230977,42277.692920345544,42277.692920345544,19022.75321748384,19022.75321748384
0.07437269148836911,0.0011738388275273498,143.64552706939241,143.64552706939241,4611.758245468908,4611.758245468908,9223.516490937816,24685.870312211544,24685.870312211544,45329.41253504131,45329.41253504131
0.0921984341490163,0.0020040530706256134,83.34836511271507,83.34836511271507,2392.8014615159295,2392.8014615159295,4785.602923031859,13676.867670902488,13676.867670902488,36318.277683591405,36318.277683591405
0.11188825972748795,0.0032432093968436495,49.84580682726504,49.84580682726504,1159.170414135406,1159.170414135406,2318.340828270812,7241.248152007942,7241.248152007942,21740.807250376387,21740.807250376387
0.13342292991384075,0.00502217182873029,32.52347146033733,32.52347146033733,534.1267737045988,534.1267737045988,1068.2535474091976,3706.227345301253,3706.227345301253,10671.226515200042,10671.226515200042
0.1567814037093318,0.007494487569376431,23.886052735469008,23.886052735469008,248.89875646054037,248.89875646054037,497.79751292108074,1869.260728502429,1869.260728502429,4199.811160817462,4199.811160817462
0.18194085803494064,0.0108370149695732,19.320703054176228,19.320703054176228,133.9409350492009,133.9409350492009,267.8818700984018,957.5181339661482,957.5181339661482,1078.3040866729239,1078.3040866729239
0.2088767100585458,0.01525020019544639,16.359791978360864,16.359791978360864,93.70714245068794,93.70714245068794,187.41428490137588,518.3374991208236,518.3374991208236,-118.88997440703797,-118.88997440703797
0.23756264122996318,0.02095799046404032,13.896457457410932,13.896457457410932,80.3421097795475,80.3421097795475,160.684219559095,307.0919421025123,307.0919421025123,-395.34631925680515,-395.34631925680515
0.2679706230056704,0.028207375551579015,11.566231863218897,11.566231863218897,73.16886065805797,73.16886065805797,146.33772131611593,200.79490268794947,200.79490268794947,-319.64192841847444,-319.64192841847444
0.30007094424081715,0.037267553227172893,9.34113952373845,9.34113952373845,65.21533287623228,65.21533287623228,130.43066575246456,141.60411287683917,141.60411287683917,-163.3089657921477,-163.3089657921477
0.33383224022319835,0.048428718286090744,7.3013610686433745,7.3013610686433745,55.454004799337575,55.454004799337575,110.90800959867515,103.96112212830472,103.96112212830472,-31.53424314680314,-31.53424314680314
0.36922152332164737,0.06200047891327841,5.527394870110037,5.527394870110037,44.84727360330588,44.84727360330588,89.69454720661176,77.17594193439513,77.17594193439513,50.09894096859248,50.09894096859248
0.4062042152193712,0.07830990816094162,4.062283629842591,4.062283629842591,34.603349307443935,34.603349307443935,69.20669861488787,56.90767507914333,56.90767507914333,87.52519815603229,87.52519815603229
0.4447441807010091,0.09769924233492722,2.9086474290224147,2.9086474290224147,25.572152108775036,25.572152108775036,51.14430421755007,41.303263945503964,41.303263945503964,95.07449703996994,95.07449703996994
0.4848037629605857,0.12052324201513345,2.039361248620824,2.039361248620824,18.15599912934566,18.15599912934566,36.31199825869132,29.389247941620546,29.389247941620546,86.06981782905115,86.06981782905115
0.5263438203959585,0.1471462352471239,1.4108282830670302,1.4108282830670302,12.408618820706248,12.408618820706248,24.817237641412497,20.47388723526335,20.47388723526335,70.07044585488002,70.07044585488002
0.5693237648538869,0.17793886609889198,0.9740531043332246,0.9740531043332246,8.171044079719096,8.171044079719096,16.34208815943819,13.964061687160365,13.964061687160365,52.89678171372427,52.89678171372427
0.613701601288396,0.21327457524269522,0.6821366814686824,0.6821366814686824,5.185528879642259,5.185528879642259,10.371057759284518,9.33113220148692,9.33113220148692,37.54649034833029,37.54649034833029
0.6594339687937176,0.2535258424630956,0.4944288620958822,0.4944288620958822,3.1728311858113907,3.1728311858113907,6.345662371622781,6.117096428320227,6.117096428320227,25.187233833460155,25.187233833460155
0.706476182971741,0.29906022397668985,0.37815864907205443,0.37815864907205443,1.8764076617366043,1.8764076617366043,3.7528153234732087,3.942587437217844,3.942587437217844,15.944009511202953,15.944009511202953
0.7547822795925843,0.3502362201470953,0.30842774593385,0.30842774593385,1.082491718179298,1.082491718179298,2.164983436358596,2.507103213381646,2.507103213381646,9.435378929408214,9.435378929408214
0.8043050595056425,0.4073990115627531,0.2673004657930863,0.2673004657930863,0.624912766699328,0.624912766699328,1.249825533398656,1.5820767632665538,1.5820767632665538,5.099948039775894,5.099948039775894
0.8549961347572375,0.4708761034909793,0.2425139813043364,0.2425139813043364,0.3815233473159689,0.3815233473159689,0.7630466946319377,0.9998918613036442,0.9998918613036442,2.3736857448203237,2.3736857448203237
0.9068059758698117,0.5409729204079702,0.2261409195321702,0.2261409195321702,0.2668874270398852,0.2668874270398852,0.5337748540797704,0.6416750827887674,0.6416750827887674,0.7716865761151308,0.7716865761151308
0.959683960236474,0.6179683936118797,0.21338734657476555,0.21338734657476555,0.22405924986315573,0.22405924986315573,0.44811849972631146,0.425731975816278,0.425731975816278,-0.08590823909878435,-0.08590823909878435
1.013578421583618,0.7021105858415579,0.20160576756739038,0.20160576756739038,0.21697424455647396,0.21697424455647396,0.4339484891129479,0.2975984941763423,0.2975984941763423,-0.477250277057825,-0.477250277057825
1.068436700453284,0.7936123973332412,0.18953793506484826,0.18953793506484826,0.22412005490732997,0.22412005490732997,0.44824010981465995,0.22204217565070014,0.22204217565070014,-0.5949408313196234,-0.5949408313196234
1.1242051956559367,0.892647397845992,0.17676648307515327,0.17676648307515327,0.23364603563123132,0.23364603563123132,0.46729207126246264,0.17696184657160616,0.17696184657160616,-0.5656371682736288,-0.5656371682736288
1.1808294166433968,0.9993458288675958,0.16333860690071317,0.16333860690071317,0.23979821035141846,0.23979821035141846,0.4795964207028369,0.14893714595286373,0.14893714595286373,-0.46834579770799245,-0.46834579770799245
1.2382540367507402,1.113790819477952,0.1495216979178233,0.1495216979178233,0.24044936938904274,0.24044936938904274,0.4808987387780855,0.13010652555814972,0.13010652555814972,-0.3494444320388139,-0.3494444320388139
1.2964229472551563,1.2360148581978192,0.13565439075380886,0.13565439075380886,0.2354683957877732,0.2354683957877732,0.4709367915755464,0.11605440524911051,0.11605440524911051,-0.23404210994079586,-0.23404210994079586
1.3552793121989417,1.365996561595953,0.1220630204503713,0.1220630204503713,0.22569569910005244,0.22569569910005244,0.4513913982001049,0.10442880598537109,0.10442880598537109,-0.13405429003466282,-0.13405429003466282
1.414765623923056,1.5036577784777387,0.10902062234358657,0.10902062234358657,0.21233461695746825,0.21233461695746825,0.4246692339149365,0.0940660397123545,0.0940660397123545,-0.05365485269545198,-0.05365485269545198
1.4748237592569926,1.6488610661468364,0.09673205176224246,0.09673205176224246,0.19661511296713427,0.19661511296713427,0.39323022593426854,0.08445440495216051,0.08445440495216051,0.007209965372039698,0.007209965372039698
1.5353950363100524,1.8014075725374363,0.08533402402772702,0.08533402402772702,0.17962749730290462,0.17962749730290462,0.35925499460580923,0.07541685818808695,0.07541685818808695,0.0506577097080897,0.0506577097080897
1.5964202718085276,1.961035354980188,0.07490280172823915,0.07490280172823915,0.16225694256593096,0.16225694256593096,0.3245138851318619,0.0669306050013744,0.0669306050013744,0.0796017628796805,0.0796017628796805
1.657839838922793,2.127418163010288,0.06546504026480987,0.06546504026480987,0.14517401526688076,0.14517401526688076,0.2903480305337615,0.05902961254150711,0.05902961254150711,0.0970529957867705,0.0970529957867705
1.719593725527772,2.300164708986961,0.05700918249380174,0.05700918249380174,0.12885349885532107,0.12885349885532107,0.25770699771064215,0.05175569250646415,0.05175569250646415,0.10576909547516977,0.10576909547516977
1.7816215928398775,2.478818446390242,0.04949600820711049,0.04949600820711049,0.11360511935306361,0.11360511935306361,0.22721023870612722,0.04513696786559928,0.04513696786559928,0.10810724558631994,0.10810724558631994
1.8438628343731263,2.662857871532807,0.04286769651837847,0.04286769651837847,0.09960700601102143,0.09960700601102143,0.19921401202204286,0.03918103445506928,0.03918103445506928,0.1059898237582958,0.1059898237582958
1.9062566351568169,2.8516973601089646,0.037055203639893966,0.037055203639893966,0.08693714383623248,0.08693714383623248,0.17387428767246496,0.03387544215570468,0.03387544215570468,0.10092850269880875,0.10092850269880875
1.9687420311569137,3.0446885455216095,0.03198400543429561,0.03198400543429561,0.07560068187913,0.07560068187913,0.15120136375826,0.029191351610637368,0.029191351610637368,0.09407485275959393,0.09407485275959393
2.031257968843086,3.2411222413439855,0.027578378426828472,0.027578378426828472,0.06555243120801275,0.06555243120801275,0.1311048624160255,0.025088138549516352,0.025088138549516352,0.08627952020492115,0.08627952020492115
2.093743364843183,3.4402309056008296,0.023764443634496493,0.023764443634496493,0.05671466805511624,0.05671466805511624,0.11342933611023248,0.021517826615928756,0.021517826615928756,0.0781504254116771,0.0781504254116771
2.1561371656268737,3.6411916398498407,0.02047220573270895,0.02047220573270895,0.04899073450225737,0.04899073450225737,0.09798146900451474,0.018428854254987102,0.018428854254987102,0.07010531839363619,0.07010531839363619
2.2183784071601225,3.843129711345337,0.017636805119495422,0.017636805119495422,0.0422750752014643,0.0422750752014643,0.0845501504029286,0.015769020961327464,0.015769020961327464,0.06241682012136914,0.06241682012136914
2.280406274472228,4.045122581911938,0.015199174223790484,0.015199174223790484,0.03646036803206216,0.03646036803206216,0.07292073606412432,0.013487633002360765,0.013487633002360765,0.05524962039876342,0.05524962039876342
2.342160161077207,4.246204422587589,0.013106259080633589,0.013106259080633589,0.03144236043833635,0.03144236043833635,0.0628847208766727,0.01153694967476503,0.01153694967476503,0.048690311618572193,0.048690311618572193
2.403579728191472,4.445371088655861,0.011310936939958487,0.011310936939958487,0.027122946954535307,0.027122946954535307,0.054245893909070614,0.00987305987422929,0.00987305987422929,0.042770718452541136,0.042770718452541136
2.464604963689948,4.641585525416193,0.009771732798711656,0.009771732798711656,0.023411937403043235,0.023411937403043235,0.04682387480608647,0.008456319542898244,0.008456319542898244,0.03748571732750082,0.03748571732750082
2.5251762407430074,4.8337835709701915,0.008452413381649962,0.008452413381649962,0.020227880762204383,0.020227880762204383,0.040455761524408766,0.007251467510213575,0.007251467510213575,0.032806534042245955,0.032806534042245955
2.5852343760769436,5.020880118477853,0.007321516637116307,0.007321516637116307,0.017498232698952697,0.017498232698952697,0.034996465397905394,0.006227518485367759,0.006227518485367759,0.028690427954427777,0.028690427954427777
2.6447206878010583,5.2017755967899255,0.006351858199438148,0.006351858199438148,0.015159087972608455,0.015159087972608455,0.03031817594521691,0.00535751207003165,0.00535751207003165,0.025087556312571466,0.025087556312571466
2.7035770527448437,5.375362725121585,0.0055200431769875545,0.0055200431769875545,0.013154643112696865,0.013154643112696865,0.02630928622539373,0.004618178084789072,0.004618178084789072,0.021945686535461043,0.021945686535461043
2.7617459632492602,5.540533494532905,0.004806001600660864,0.004806001600660864,0.011436509575620112,0.011436509575620112,0.022873019151240223,0.003989562401510271,0.003989562401510271,0.01921330176159774,0.01921330176159774
2.8191705833566036,5.6961863264515555,0.004192558413171495,0.004192558413171495,0.009962961976386594,0.009962961976386594,0.01992592395277319,0.003454644236837768,0.003454644236837768,0.01684153365275779,0.01684153365275779
2.8757948043440633,5.84123335632903,0.0036650435073174834,0.0036650435073174834,0.008698178658884238,0.008698178658884238,0.017396357317768476,0.002998965435609031,0.002998965435609031,0.014785259920757817,0.014785259920757817
2.9315632995467165,5.974607788793714,0.003210943586652976,0.003210943586652976,0.007611511420518659,0.007611511420518659,0.015223022841037317,0.00261028436913898,0.00261028436913898,0.013003623363688797,0.013003623363688797
2.9864215784163823,6.095271269365134,0.002819595139489062,0.002819595139489062,0.0066768063125530125,0.0066768063125530125,0.013353612625106025,0.0022782613015202794,0.0022782613015202794,0.011460163722256753,0.011460163722256753
3.0403160397635265,6.202221216938054,0.0024819162660527686,0.0024819162660527686,0.005871786900142709,0.005871786900142709,0.011743573800285418,0.001994178026808786,0.001994178026808786,0.010122701869873048,0.010122701869873048
3.0931940241301885,6.294498060843381,0.002190174220544595,0.002190174220544595,0.005177504160828588,0.005177504160828588,0.010355008321657175,0.0017506918669918858,0.0017506918669918858,0.008963075797661597,0.008963075797661597
3.1450038652427628,6.371192326352242,0.0019377851226695733,0.0019377851226695733,0.004577852480558754,0.004577852480558754,0.009155704961117507,0.0015416224107662596,0.0015416224107662596,0.007956797532065903,0.007956797532065903
3.1956949404943575,6.431451513012174,0.0017191422031879657,0.0017191422031879657,0.0040591482943200695,0.0040591482943200695,0.008118296588640139,0.001361768390351695,0.001361768390351695,0.007082677626327098,0.007082677626327098
3.2452177204074157,6.474486711184816,0.0015294690611716765,0.0015294690611716765,0.0036097662860620117,0.0036097662860620117,0.007219532572124023,0.0012067516190990876,0.0012067516190990876,0.006322447512489591,0.006322447512489591
3.2935238170282584,6.4995789035978335,0.001364694644766015,0.001364694644766015,0.0032198273085001223,0.0032198273085001223,0.006439654617000245,0.0010728847791934724,0.0010728847791934724,0.005660398360003493,0.005660398360003493
3.3405660312062824,6.5060849006057415,0.0012213469647838699,0.0012213469647838699,0.002880932009896353,0.002880932009896353,0.005761864019792706,0.0009570599323873392,0.0009570599323873392,0.005083046991882421,0.005083046991882421
3.386298398711604,6.493442860176056,0.0010964628724482442,0.0010964628724482442,0.0025859343464275674,0.0025859343464275674,0.005171868692855135,0.0008566548384993295,0.0008566548384993295,0.004578833929806234,0.004578833929806234
3.430676235146113,6.4611773463505475,0.0009875115537986247,0.0009875115537986247,0.0023287495630327348,0.0023287495630327348,0.0046574991260654695,0.000769454444635173,0.000769454444635173,0.0041378550528822725,0.0041378550528822725
3.4736561796040415,6.408903883065489,0.0008923296982717327,0.0008923296982717327,0.0021041917381894497,0.0021041917381894497,0.0042083834763788994,0.0006935852114396141,0.0006935852114396141,0.0037516261110903397,0.0037516261110903397
3.5151962370394148,6.3363329637153285,0.0008090665792103679,0.0008090665792103679,0.0019078365395984534,0.0019078365395984534,0.0038156730791969067,0.0006274602448158943,0.0006274602448158943,0.003412878023231011,0.003412878023231011
3.555255819298991,6.243273480695021,0.0007361375356451633,0.0007361375356451633,0.0017359053842649675,0.0017359053842649675,0.003471810768529935,0.0005697334866998263,0.0005697334866998263,0.003115380209574132,0.003115380209574132
3.593795784780629,6.129635543319255,0.0006721845667590749,0.0006721845667590749,0.0015851677117782387,0.0015851677117782387,0.0031703354235564775,0.0005192614781941177,0.0005192614781941177,0.002853788944756879,0.002853788944756879
3.6307784766783526,5.9954326569599,0.0006160429439772732,0.0006160429439772732,0.0014528585497153533,0.0014528585497153533,0.0029057170994307067,0.00047507143905515717,0.00047507143905515717,0.002623517713766075,0.002623517713766075
3.666167759776801,5.840783240935032,0.0005667129126858551,0.0005667129126858551,0.001336608969129234,0.001336608969129234,0.002673217938258468,0.0004363346086736732,0.0004363346086736732,0.0024206267071056075,0.0024206267071056075
3.699929055759182,5.665911467586504,0.0005233356987551482,0.0005233356987551482,0.0012343873952723678,0.0012343873952723678,0.0024687747905447355,0.0004023439666561596,0.0004023439666561596,0.00224172882883115,0.00224172882883115
3.732029376994329,5.471147410049779,0.0004851731570823432,0.0004851731570823432,0.0011444500564053422,0.0011444500564053422,0.0022889001128106844,0.00037249559826542784,0.00037249559826542784,0.0020839098659092806,0.0020839098659092806
3.762437358770037,5.256926491423048,0.0004515905029821994,0.0004515905029821994,0.0010652991257915309,0.0010652991257915309,0.0021305982515830617,0.0003462730941447056,0.0003462730941447056,0.0019446607494663206,0.0019446607494663206
3.791123289941454,5.023788233337713,0.0004220416549791835,0.0004220416549791835,0.000995647343610199,0.000995647343610199,0.001991294687220398,0.00032323447786388186,0.00032323447786388186,0.0018218201099799733,0.0018218201099799733
3.818059141965059,4.772374307272952,0.00039605679168855075,0.00039605679168855075,0.0009343881015393645,0.0009343881015393645,0.001868776203078729,0.00030300124171445315,0.00030300124171445315,0.00171352557941369,0.00171352557941369
3.843218596290668,4.503425897323858,0.000373231788056084,0.000373231788056084,0.0008805701380063065,0.0008805701380063065,0.001761140276012613,0.000285249143442284,0.000285249143442284,0.001618172519057751,0.001618172519057751
3.866577070086159,4.217780388492052,0.00035321924903531846,0.00035321924903531846,0.0008333761310492734,0.0008333761310492734,0.0016667522620985467,0.00026970047656573625,0.00026970047656573625,0.0015343790511286907,0.0015343790511286907
3.888111740272512,3.9163673999354534,0.00033572090335184544,0.00033572090335184544,0.0007921045923897956,0.0007921045923897956,0.0015842091847795912,0.00025611757660844495,0.00025611757660844495,0.0014609564457228673,0.0014609564457228673
3.907801565850984,3.6002041880571753,0.00032048115764975963,0.00032048115764975963,0.0007561545642045127,0.0007561545642045127,0.0015123091284090255,0.0002442973667233543,0.0002442973667233543,0.0013968840643886686,0.0013968840643886686
3.9256273085116318,3.2703904501481555,0.0003072816431519408,0.0003072816431519408,0.0007250127022563434,0.0007250127022563434,0.0014500254045126868,0.00023406678027681864,0.00023406678027681864,0.0013412881897941157,0.0013412881897941157
3.941571551527413,2.9281025663378872,0.0002959366139387695,0.0002959366139387695,0.0006982423981037755,0.0006982423981037755,0.001396484796207551,0.00022527892624298813,0.00022527892624298813,0.0012934241803222704,0.0012934241803222704
3.955618716973837,2.574587328783495,0.00028628907885319514,0.00028628907885319514,0.0006754746512561863,0.0006754746512561863,0.0013509493025123725,0.00021780988676598306,0.00021780988676598306,0.0012526614814667683,0.0012526614814667683
3.967755081412114,2.211155232441051,0.00027820756852761907,0.00027820756852761907,0.0006564004512027188,0.0006564004512027188,0.0013128009024054375,0.00021155605583028216,0.00021155605583028216,0.0012184711049332162,0.0012184711049332162
3.977968790485984,1.839173483549079,0.00027158345558298854,0.00027158345558298854,0.0006407644705815382,0.0006407644705815382,0.0012815289411630764,0.00020643194428992108,0.00020643194428992108,0.0011904152531835909,0.0011904152531835909
3.986249874074887,1.4600592327274946,0.0002663287597574799,0.0002663287597574799,0.0006283599047602886,0.0006283599047602886,0.0012567198095205772,0.00020236838983322375,0.00020236838983322375,0.0011681388220297158,0.0011681388220297158
3.99259026946625,1.075275581443025,0.000262374378721384,0.000262374378721384,0.0006190243155239993,0.0006190243155239993,0.0012380486310479986,0.0001993111195429084,0.0001993111195429084,0.0011513625488383233,0.0011513625488383233
3.996983901279192,0.6863513479351009,0.0002596686712465945,0.0002596686712465945,0.0006126363041347553,0.0006126363041347553,0.0012252726082695106,0.00019721960348881846,0.00019721960348881846,0.001139877510876788,0.001139877510876788
3.999427453546883,0.29532949367839156,0.00025817597242606716,0.00025817597242606716,0.0006091120203804982,0.0006091120203804982,0.0012182240407609963,0.00019606587094296793,0.00019606587094296793,0.0011335392015822082,0.0011335392015822082
16.30505535499401,14365.194046110439,6.85575791034837e-14,6.85575791034837e-14,1.2110996041990102e-13,1.2110996041990102e-13,2.4221992083980205e-13,2.700113090835376e-14,2.700113090835376e-14,1.9755485482892504e-13,1.9755485482892504e-13
12.912808389613124,5571.607052173184,2.3683969549779238e-11,2.3683969549779238e-11,3.963872258172861e-11,3.963872258172861e-11,7.927744516345722e-11,8.434719262796517e-12,8.434719262796517e-12,5.943410304411582e-11,5.943410304411582e-11
10.745980176722746,2550.0624080134576,8.237101095704504e-10,8.237101095704504e-10,1.3208270651227054e-09,1.3208270651227054e-09,2.6416541302454107e-09,2.7187848011352464e-10,2.7187848011352464e-10,1.8494214508137417e-09,1.8494214508137417e-09
9.278318197110758,1321.152627343585,8.497082399421575e-09,8.497082399421575e-09,1.3481886766766796e-08,1.3481886766766796e-08,2.6963773533533592e-08,2.77267349841726e-09,2.77267349841726e-09,1.860844030575102e-08,1.860844030575102e-08
8.238468475001405,752.9532232412392,4.512932879521414e-08,4.512932879521414e-08,7.395936200984579e-08,7.395936200984579e-08,1.4791872401969158e-07,1.5819254968065292e-08,1.5819254968065292e-08,1.0751520527432752e-07,1.0751520527432752e-07
7.474995276307178,462.50746842542526,1.634131105631955e-07,1.634131105631955e-07,2.848139804911588e-07,2.848139804911588e-07,5.696279609823176e-07,6.50187204664156e-08,6.50187204664156e-08,4.496168121963918e-07,4.496168121963918e-07
6.897985430677502,301.62977560752023,4.61944042250787e-07,4.61944042250787e-07,8.613743798491949e-07,8.613743798491949e-07,1.7227487596983899e-06,2.1074596987460847e-07,2.1074596987460847e-07,1.4667163386316194e-06,1.4667163386316194e-06
6.451322991989461,206.50059750595804,1.0891357501325803e-06,1.0891357501325803e-06,2.15383394716893e-06,2.15383394716893e-06,4.30766789433786e-06,5.59581485691324e-07,5.59581485691324e-07,3.877311537110183e-06,3.877311537110183e-06
6.098516618643089,147.12861060664108,2.2243274344579075e-06,2.2243274344579075e-06,4.604831180699032e-06,4.604831180699032e-06,9.209662361398064e-06,1.2541241023276139e-06,1.2541241023276139e-06,8.59987128892939e-06,8.59987128892939e-06
5.815005267403362,108.36166945973228,4.041511441729519e-06,4.041511441729519e-06,8.655240037988124e-06,8.655240037988124e-06,1.7310480075976248e-05,2.44232846031456e-06,2.44232846031456e-06,1.653646309184122e-05,1.653646309184122e-05
5.583766428631326,82.06378345774895,6.673260658310083e-06,6.673260658310083e-06,1.4647286623536409e-05,1.4647286623536409e-05,2.9294573247072818e-05,4.243412710973632e-06,4.243412710973632e-06,2.835939072822199e-05,2.835939072822199e-05
5.392700936817002,63.63361570389854,1.0189127323595921e-05,1.0189127323595921e-05,2.2765741558314913e-05,2.2765741558314913e-05,4.5531483116629826e-05,6.725979190595145e-06,6.725979190595145e-06,4.439423305420814e-05,4.439423305420814e-05
5.233018100142966,50.35001056189105,1.4591996056355524e-05,1.4591996056355524e-05,3.302719897255936e-05,3.302719897255936e-05,6.605439794511873e-05,9.902833951339203e-06,9.902833951339203e-06,6.461326221994835e-05,6.461326221994835e-05
5.098206619386319,40.54009145972174,1.9827815586349594e-05,1.9827815586349594e-05,4.530481143138412e-05,4.530481143138412e-05,9.060962286276824e-05,1.3738408153676665e-05,1.3738408153676665e-05,8.87024168030228e-05,8.87024168030228e-05
4.983360461766851,33.13993106893152,2.5801758661829487e-05,2.5801758661829487e-05,5.936961809519957e-05,5.936961809519957e-05,0.00011873923619039914,1.816221852631578e-05,1.816221852631578e-05,0.00011615657621180763,0.00011615657621180763
4.8847263642598575,27.45234720659756,3.239516922346925e-05,3.239516922346925e-05,7.493354359875962e-05,7.493354359875962e-05,0.00014986708719751923,2.308313413599538e-05,2.308313413599538e-05,0.0001463713269859853,0.0001463713269859853
4.799393443146388,23.008208159821145,3.948004715836397e-05,3.948004715836397e-05,9.168575546587623e-05,9.168575546587623e-05,0.00018337151093175246,2.8401532444701903e-05,2.8401532444701903e-05,0.00017871592437695643,0.00017871592437695643
4.725076104107137,19.484285478435826,4.692984270930855e-05,4.692984270930855e-05,0.00010931943630147971,0.00010931943630147971,0.00021863887260295943,3.401829966831192e-05,3.401829966831192e-05,0.00021258383741177569,0.00021258383741177569
4.659959525503857,16.65310889743615,5.462658350540021e-05,5.462658350540021e-05,0.00012754922333430498,0.00012754922333430498,0.00025509844666860997,3.9840735664798236e-05,3.9840735664798236e-05,0.0002474233429817195,0.0002474233429817195
4.602587920429876,14.351514900016443,6.246494571582444e-05,6.246494571582444e-05,0.00014612099644531687,0.00014612099644531687,0.00029224199289063375,4.578591415494207e-05,4.578591415494207e-05,0.000282752801924867,0.000282752801924867
4.55178255875534,12.460431038605035,7.035404575430669e-05,7.035404575430669e-05,0.00016481604089625356,0.00016481604089625356,0.0003296320817925071,5.1782168164205034e-05,5.1782168164205034e-05,0.0003181653172124278,0.0003181653172124278
4.506580823750569,10.891590275357114,7.821767532748534e-05,7.821767532748534e-05,0.00018345142256328856,0.00018345142256328856,0.0003669028451265771,5.776930899741966e-05,5.776930899741966e-05,0.00035332667216087335,0.00035332667216087335
4.466190353816924,9.578621287378539,8.59935635447031e-05,8.59935635447031e-05,0.00020187803256572812,0.00020187803256572812,0.00040375606513145623,6.369806104755377e-05,6.369806104755377e-05,0.0003879694445910464,0.0003879694445910464
4.429954148123233,8.470961910228972,9.36320973435909e-05,9.36320973435909e-05,0.00021997736125716212,0.00021997736125716212,0.00043995472251432424,6.952906357004448e-05,6.952906357004448e-05,0.000421885289379748,0.000421885289379748
4.397323739634133,7.529630080945375,0.0001010947978486068,0.0001010947978486068,0.00023765772291479688,0.00023765772291479688,0.00047531544582959375,7.523167882277014e-05,7.523167882277014e-05,0.00045491667278663834,0.00045491667278663834
4.36783837229109,6.724239220515387,0.00010835274552008932,0.00010835274552008932,0.0002548503919982814,0.0002548503919982814,0.0005097007839965628,8.078276010759758e-05,8.078276010759758e-05,0.0004869488291010817,0.0004869488291010817
4.3411086943006945,6.030861341699628,0.00011538507048381138,0.00011538507048381138,0.0002715059246049259,0.0002715059246049259,0.0005430118492098518,8.616547151582865e-05,8.616547151582865e-05,0.0005179023602647288,0.0005179023602647288
4.316803881875275,5.430476601784282,0.00012217757154692514,0.00012217757154692514,0.00028759081098007764,0.00028759081098007764,0.0005751816219601553,9.136820900004681e-05,9.136820900004681e-05,0.0005477266719505501,0.0005477266719505501
4.294641392794293,4.907834385474308,0.00012872149253738047,0.00012872149253738047,0.000303084521779695,0.000303084521779695,0.00060616904355939,9.638364486369379e-05,9.638364486369379e-05,0.0005763942993239952,0.0005763942993239952
4.274378753397651,4.450607031864826,0.00013501246273050493,0.00013501246273050493,0.0003179769593294267,0.0003179769593294267,0.0006359539186588534,0.00010120790064197226,0.00010120790064197226,0.0006038960943185276,0.0006038960943185276
4.255806930572504,4.048754252495695,0.00014104959522965888,0.00014104959522965888,0.0003322662952986631,0.0003322662952986631,0.0006645325905973262,0.00010583984334053077,0.00010583984334053077,0.000630237203233305,0.000630237203233305
4.238744948560845,3.694040998156924,0.00014683473024365928,0.00014683473024365928,0.0003459571606017599,0.0003459571606017599,0.0006919143212035198,0.00011028049467759231,0.00011028049467759231,0.0006554337445207021,0.0006554337445207021
4.223035490398744,3.3796682967297995,0.00015237180710790438,0.00015237180710790438,0.00035905914673771655,0.00035905914673771655,0.0007181182934754331,0.00011453254063398328,0.00011453254063398328,0.0006795100921612233,0.0006795100921612233
4.20854128341904,3.099988107117429,0.00015766634815155,0.00015766634815155,0.00037158557663384366,0.00037158557663384366,0.0007431711532676873,0.0001185999280904666,0.0001185999280904666,0.000702496673742799,0.000702496673742799
4.195142113068191,2.8502812515478815,0.00016272503813187514,0.00016272503813187514,0.00038355250502031913,0.00038355250502031913,0.0007671050100406383,0.00012248753585170527,0.00012248753585170527,0.0007244282002854702,0.0007244282002854702
4.1827323432490715,2.626583131081891,0.00016755538429762248,0.00016755538429762248,0.00039497791192250205,0.00039497791192250205,0.0007899558238450041,0.00012620090842392599,0.00012620090842392599,0.0007453422545339142,0.0007453422545339142
4.171218847329607,2.4255459435264872,0.00017216544380180794,0.00017216544380180794,0.0004058810570779222,0.0004058810570779222,0.0008117621141558444,0.00012974604221806805,0.00012974604221806805,0.0007652781744372794,0.0007652781744372794
4.160519273894034,2.2443290082007823,0.0001765636069169782,0.0001765636069169782,0.00041628196740504513,0.00041628196740504513,0.0008325639348100903,0.00013312921520502083,0.00013312921520502083,0.0007842761780493662,0.0007842761780493662
4.150560586747533,2.0805108957456517,0.00018075842617235684,0.00018075842617235684,0.00042620103375692355,0.00042620103375692355,0.0008524020675138471,0.00013635685234833145,0.00013635685234833145,0.0008023766847144896,0.0008023766847144896
4.141277830710056,1.9320185944190178,0.00018475848305959792,0.00018475848305959792,0.0004356586969253733,0.0004356586969253733,0.0008713173938507466,0.00013943542032747927,0.00013943542032747927,0.0008196197949989553,0.0008196197949989553
4.132613084161629,1.7970700768358017,0.0001885722853104904,0.0001885722853104904,0.0004446752061569825,0.0004446752061569825,0.000889350412313965,0.00014237134611832638,0.00014237134611832638,0.0008360448983701606,0.0008360448983701606
4.124514566733785,1.67412747447788,0.00019220818892912438,0.00019220818892912438,0.0004532704362935529,0.0004532704362935529,0.0009065408725871058,0.00014517095491219518,0.00014517095491219518,0.0008516903831754134,0.0008516903831754134
4.116935876434644,1.5618587002344262,0.00019567434017002988,0.00019567434017002988,0.00046146375208032343,0.00046146375208032343,0.0009229275041606469,0.00014784042363741458,0.00014784042363741458,0.0008665934281284075,0.0008665934281284075
4.109835335191945,1.4591058377529669,0.0001989786335072705,0.0001989786335072705,0.00046927391023503766,0.00046927391023503766,0.0009385478204700753,0.00015038574700876656,0.00015038574700876656,0.0008807898583840331,0.0008807898583840331
4.1031754255609325,1.3648589806949627,0.00020212868235494055,0.00020212868235494055,0.0004767189915847201,0.0004767189915847201,0.0009534379831694402,0.00015281271358483955,0.00015281271358483955,0.0008943140524821664,0.0008943140524821664
4.096922304372705,1.2782344842259283,0.00020513179989521706,0.00020513179989521706,0.00048381635700074746,0.00048381635700074746,0.0009676327140014949,0.0001551268897750881,0.0001551268897750881,0.0009071988890716792,0.0009071988890716792
4.091045381547971,1.1984568064499832,0.00020799498786340192,0.00020799498786340192,0.0004905826220394134,0.0004905826220394134,0.0009811652440788268,0.00015733361012089245,0.00015733361012089245,0.0009194757244795056,0.0009194757244795056
4.085516954290663,1.124843284646326,0.00021072493154605966,0.00021072493154605966,0.0004970336461635297,0.0004970336461635297,0.0009940672923270594,0.00015943797249036524,0.00015943797249036524,0.0009311743939466775,0.0009311743939466775
4.080311888498799,1.0567913216341356,0.00021332799958245888,0.00021332799958245888,0.0005031845332148886,0.0005031845332148886,0.0010063690664297773,0.00016144483708595208,0.00016144483708595208,0.0009423232307829601,0.0009423232307829601
4.075407340559337,0.9937675599982645,0.00021581024743314486,0.00021581024743314486,0.0005090496404569804,0.0005090496404569804,0.0010180992809139609,0.00016335882837634728,0.00016335882837634728,0.0009529490988520493,0.0009529490988520493
4.0707825137867735,0.9352987027154649,0.00021817742360303414,0.00021817742360303414,0.0005146425940374237,0.0005146425940374237,0.0010292851880748474,0.00016518433923799191,0.00016518433923799191,0.0009630774347392858,0.0009630774347392858
4.066418444667518,0.8809637028112731,0.0002204349778886402,0.0002204349778886402,0.0005199763091510367,0.0005199763091510367,0.0010399526183020734,0.0001669255367331272,0.0001669255367331272,0.000972732296713608,0.000972732296713608
4.062297814819431,0.8303870957577749,0.00022258807106726223,0.00022258807106726223,0.0005250630135350871,0.0005250630135350871,0.0010501260270701742,0.00016858636906677156,0.00016858636906677156,0.0009819364182085033,0.0009819364182085033
4.0584047851972125,0.783233289223421,0.0002246415855663241,0.0002246415855663241,0.0005299142732126005,0.0005299142732126005,0.001059828546425201,0.00017017057335876097,0.00017017057335876097,0.0009907112640405113,0.0009907112640405113
4.054724849592552,0.7392016576856755,0.0002266001367485559,0.0002266001367485559,0.0005345410196297604,0.0005345410196297604,0.0010690820392595208,0.00017168168394306464,0.00017168168394306464,0.0009990770879806119,0.0009990770879806119
4.051244704911571,0.6980223159943939,0.0002284680845275896,0.0002284680845275896,0.0005389535775193931,0.0005389535775193931,0.0010779071550387862,0.00017312304096818947,0.00017312304096818947,0.0010070529906121878,0.0010070529906121878
4.047952136076127,0.6594524675326948,0.00023024954509217444,0.00023024954509217444,0.0005431616929724173,0.0005431616929724173,0.0010863233859448346,0.00017449779912225634,0.00017449779912225634,0.00101465697666386,0.00101465697666386
4.044835913701994,0.6232732401808302,0.00023194840256847795,0.00023194840256847795,0.0005471745613197503,0.0005471745613197503,0.0010943491226395007,0.0001758089363464831,0.0001758089363464831,0.001021906011208775,0.001021906011208775
4.04188570296578,0.5892869376447137,0.00023356832049108245,0.00023356832049108245,0.0005510008545238663,0.0005510008545238663,0.0011020017090477327,0.00017705926243308668,0.00017705926243308668,0.001028816074283475,0.001028816074283475
4.039091982291565,0.5573146454910006,0.00023511275298624516,0.00023511275298624516,0.000554648747856574,0.000554648747856574,0.001109297495713148,0.000178251427429526,0.000178251427429526,0.0010354022136075873,0.0010354022136075873
4.036445970674366,0.5271941409328864,0.00023658495559728058,0.00023658495559728058,0.0005581259457012507,0.0005581259457012507,0.0011162518914025015,0.0001793879297917144,0.0001793879297917144,0.0010416785951865555,0.0010416785951865555
4.033939562615975,0.49877806342865677,0.00023798799570281387,0.00023798799570281387,0.0005614397063666781,0.0005614397063666781,0.0011228794127333562,0.00018047112424532445,0.00018047112424532445,0.0010476585516588288,0.0010476585516588288
4.031565269783964,0.471932309803016,0.00023932476249516446,0.00023932476249516446,0.0005645968658382511,0.0005645968658382511,0.0011291937316765023,0.00018150322932738297,0.00018150322932738297,0.0010533546283106392,0.0010533546283106392
4.029316168620389,0.44653462313117454,0.00024059797649908718,0.00024059797649908718,0.0005676038604226128,0.0005676038604226128,0.0011352077208452256,0.00018248633459065302,0.00018248633459065302,0.0010587786267290545,0.0010587786267290545
4.02718585322601,0.4224733492399411,0.00024181019862122918,0.00024181019862122918,0.0005704667482653771,0.0005704667482653771,0.0011409334965307542,0.00018342240746137826,0.00018342240746137826,0.0010639416461004502,0.0010639416461004502
4.025168392931186,0.39964633854174425,0.00024296383872844733,0.00024296383872844733,0.0005731912297397171,0.0005731912297397171,0.0011463824594794341,0.00018431329974720643,0.00018431329974720643,0.001068854122188801,0.001068854122188801
4.0232582940382144,0.3779599741584918,0.00024406116375910727,0.00024406116375910727,0.0005757826667174526,0.0005757826667174526,0.0011515653334349051,0.00018516075379691925,0.00018516075379691925,0.0010735258640484353,0.0010735258640484353
4.021450465283388,0.3573283100204497,0.0002451043053759359,0.0002451043053759359,0.0005782461007445702,0.0005782461007445702,0.0011564922014891403,0.00018596640831721573,0.00018596640831721573,0.001077966088540336,0.001077966088540336
4.019740186622074,0.33767230492730066,0.00024609526717228814,0.00024609526717228814,0.0005805862701506685,0.0005805862701506685,0.001161172540301337,0.00018673180385448968,0.00018673180385448968,0.001082183452731077,0.001082183452731077
4.018123080987839,0.3189191405067287,0.00024703593144601,0.00024703593144601,0.0005828076261271299,0.0005828076261271299,0.0011656152522542599,0.00018745838795147367,0.00018745838795147367,0.0010861860842598806,0.0010861860842598806
4.016595088718118,0.30100161265813247,0.0002479280655566517,0.0002479280655566517,0.0005849143478123825,0.0005849143478123825,0.001169828695624765,0.00018814751998995902,0.00018814751998995902,0.0010899816097629195,0.0010899816097629195
4.015152444375078,0.2838575874742744,0.00024877332788276904,0.00024877332788276904,0.0005869103564247965,0.0005869103564247965,0.001173820712849593,0.00018880047573167178,0.00018880047573167178,0.001093577181445511,0.001093577181445511
4.013791655721869,0.2674295138309957,0.0002495732733965568,0.0002495732733965568,0.0005887993284848428,0.0005887993284848428,0.0011775986569696857,0.0001894184515698693,0.0001894184515698693,0.0010969795018926588,0.0010969795018926588
4.012509484642056,0.2516639858581266,0.0002503293588732016,0.0002503293588732016,0.0005905847081683546,0.0005905847081683546,0.0011811694163367092,0.000190002568504416,0.000190002568504416,0.0011001948472069228,0.0011001948472069228
4.011302929814199,0.23651134938027857,0.00025104294775221713,0.00025104294775221713,0.0005922697188323766,0.0005922697188323766,0.0011845394376647533,0.00019055387585308528,0.00019055387585308528,0.0011032290885603366,0.0011032290885603366
4.010169210974817,0.22192534716714005,0.00025171531466766075,0.00025171531466766075,0.000593857373754108,0.000593857373754108,0.001187714747508216,0.0001910733547116055,0.0001910733547116055,0.001106087712243884,0.001106087712243884
4.009105754621647,0.20786279847833566,0.0002523476496636274,0.0002523476496636274,0.0005953504861222177,0.0005953504861222177,0.0011907009722444354,0.00019156192117465614,0.00019156192117465614,0.0011087758382945865,0.0011087758382945865
4.008110181025599,0.1942833089436703,0.00025294106211079455,0.00025294106211079455,0.0005967516783182484,0.0005967516783182484,0.0011935033566364969,0.00019202042932957376,0.00019202042932957376,0.0011112982377763305,0.0011112982377763305
4.007180292434394,0.18114900729861744,0.00025349658433906257,0.00025349658433906257,0.0005980633905240736,0.0005980633905240736,0.0011961267810481472,0.0001924496740340277,0.0001924496740340277,0.0011136593487864348,0.0011136593487864348
4.006314062363755,0.16842430590890925,0.00025401517500057893,0.00025401517500057893,0.0005992878886895129,0.0005992878886895129,0.0011985757773790259,0.0001928503934883711,0.0001928503934883711,0.0011158632912557725,0.0011158632912557725
4.005509625883514,0.15607568237628242,0.0002544977221766132,0.0002544977221766132,0.0006004272718922419,0.0006004272718922419,0.0012008545437844837,0.00019322327161277892,0.00019322327161277892,0.001117913880605933,0.001117913880605933
4.004765270816137,0.14407147982758722,0.0002549450462409492,0.0002549450462409492,0.0006014834791201994,0.0006014834791201994,0.001202966958240399,0.00019356894023870254,0.00019356894023870254,0.0011198146403227837,0.0011198146403227837
4.004079429774321,0.13238172375902757,0.0002553579024915836,0.0002553579024915836,0.0006024582955045882,0.0006024582955045882,0.0012049165910091764,0.00019388798112351548,0.00019388798112351548,0.0011215688135014022,0.0011215688135014022
4.0034506729723836,0.12097795354202606,0.0002557369835617438,0.0002557369835617438,0.0006033533580296986,0.0006033533580296986,0.0012067067160593972,0.00019418092779665804,0.00019418092779665804,0.001123179373413465,0.001123179373413465
4.002877701753491,0.10983306690346091,0.0002560829216203885,0.0002560829216203885,0.0006041701607437597,0.0006041701607437597,0.0012083403214875194,0.00019444826724494975,0.00019444826724494975,0.0011246490331440666,0.0011246490331440666
4.002359342781238,0.0989211758775311,0.0002563962903715923,0.0002563962903715923,0.0006049100594931868,0.0006049100594931868,0.0012098201189863736,0.00019469044144417673,0.00019469044144417673,0.0011259802543412318,0.0011259802543412318
4.001894542849931,0.0882174729017784,0.00025667760686150985,0.00025667760686150985,0.00060557427620092,0.00060557427620092,0.00121114855240184,0.00019490784874352947,0.00019490784874352947,0.0011271752551179973,0.0011271752551179973
4.00148236427295,0.07769810591987378,0.0002569273331010065,0.0002569273331010065,0.0006061639027080757,0.0006061639027080757,0.0012123278054161513,0.00019510084510901817,0.00019510084510901817,0.001128236017143953,0.001128236017143953
4.001121980812653,0.06734006163565873,0.0002571458775118392,0.0002571458775118392,0.0006066799041976514,0.0006066799041976514,0.0012133598083953027,0.0001952697452318467,0.0001952697452318467,0.0011291642919619652,0.0011291642919619652
4.000812674117386,0.05712105669184024,0.00025733359620493275,0.00025733359620493275,0.0006071231222205595,0.0006071231222205595,0.001214246244441119,0.00019541482350825845,0.00019541482350825845,0.0011299616065683137,0.0011299616065683137
4.0005538306274975,0.04701943857854801,0.00025749079410335147,0.00025749079410335147,0.0006074942773538246,0.0006074942773538246,0.0012149885547076491,0.0001955363149005048,0.0001955363149005048,0.0011306292683113883,0.0011306292683113883
4.000344938886409,0.037014106828071526,0.00025761772593990907,0.00025761772593990907,0.0006077939715617186,0.0006077939715617186,0.0012155879431234372,0.00019563441570201296,0.00019563441570201296,0.0011311683692375439,0.0011311683692375439
4.000185587050853,0.027084516069115255,0.00025771459724717303,0.00025771459724717303,0.0006080226905379346,0.0006080226905379346,0.0012160453810758692,0.00019570928429770551,0.00019570928429770551,0.0011315797903853966,0.0011315797903853966
4.000075459366244,0.01721128334596429,0.0002577815660844394,0.0002577815660844394,0.0006081808077868104,0.0006081808077868104,0.0012163616155736207,0.00019576104249487966,0.00019576104249487966,0.0011318642091917037,0.0011318642091917037
4.00001431571043,0.007387518979937298,0.0002578187551667325,0.0002578187551667325,0.0006082686132633926,0.0006082686132633926,0.0012165372265267851,0.00019578978489448063,0.00019578978489448063,0.0011320221510568622,0.0011320221510568622
