r,Weight,n up,n down,|grad n up|,|grad n down|,|grad n|,tau up,tau down,lap n up,lap n down (all a.u.)
0.0005725464531185498,6.052469800255108e-09,1.7938380377151772,1.7938380377151772,7.174417225029357,7.174417225029357,14.348834450058714,3.586741210507951,3.586741210507951,-25031.286859899057,-25031.286859899057
0.0030160987208083245,3.908164160362945e-07,1.7763966601993335,1.7763966601993335,7.101139146228039,7.101139146228039,14.202278292456079,3.5483472177065627,3.5483472177065627,-4678.992795232457,-4678.992795232457
0.0074097305337503805,3.7035236681259844e-06,1.7454829981393962,1.7454829981393962,6.971300552753235,6.971300552753235,13.94260110550647,3.480342650760696,3.480342650760696,-1852.3875334304942,-1852.3875334304942
0.013750125925112489,1.737219872991348e-05,1.7018652928283275,1.7018652928283275,6.788201795304264,6.788201795304264,13.576403590608528,3.384498453546245,3.384498453546245,-958.879535781411,-958.879535781411
0.022031209514016492,5.6412667363793806e-05,1.646616868664193,1.646616868664193,6.556458564342167,6.556458564342167,13.112917128684334,3.2632931895086794,3.2632931895086794,-567.7085118235019,-567.7085118235019
0.032244918587885696,0.00014603336393746047,1.5810641255697517,1.5810641255697517,6.281782797216728,6.281782797216728,12.563565594433456,3.1197971727734277,3.1197971727734277,-363.3239699216098,-363.3239699216098
0.044381283026162954,0.0003240995943277802,1.5067300379687458,1.5067300379687458,5.970742135873106,5.970742135873106,11.941484271746212,2.957543882674458,2.957543882674458,-244.1020102570173,-244.1020102570173
0.0584284484725881,0.000643422381649957,1.4252719635245135,1.4252719635245135,5.6304919731905345,5.6304919731905345,11.260983946381069,2.780385136266118,2.780385136266118,-169.23633773533973,-169.23633773533973
0.07437269148836911,0.0011738388275273205,1.3384170534231055,1.3384170534231055,5.268493603319754,5.268493603319754,10.536987206639507,2.592337042593565,2.592337042593565,-119.74715834981522,-119.74715834981522
0.0921984341490174,0.002004053070625618,1.2478988444077017,1.2478988444077017,4.8922339734195734,4.8922339734195734,9.784467946839147,2.3974252157874827,2.3974252157874827,-85.81885776459852,-85.81885776459852
0.11188825972748928,0.0032432093968435194,1.1553983744170788,1.1553983744170788,4.508962275511298,4.508962275511298,9.017924551022595,2.1995379745364105,2.1995379745364105,-61.948194697709084,-61.948194697709084
0.13342292991384186,0.005022171828730581,1.0624926512899562,1.0624926512899562,4.125457009665938,4.125457009665938,8.250914019331876,2.0022956768146623,2.0022956768146623,-44.846258303908066,-44.846258303908066
0.15678140370933225,0.007494487569376416,0.9706126001649498,0.9706126001649498,3.747834422548427,3.747834422548427,7.495668845096854,1.8089429882287515,1.8089429882287515,-32.44308711110723,-32.44308711110723
0.18194085803493998,0.0108370149695726,0.8810117988135524,0.8810117988135524,3.381405668705823,3.381405668705823,6.762811337411646,1.6222688946609136,1.6222688946609136,-23.379347227132303,-23.379347227132303
0.20887671005854624,0.015250200195446187,0.79474646532603,0.79474646532603,3.0305860480922577,3.0305860480922577,6.0611720961845155,1.4445568800239483,1.4445568800239483,-16.730629686266973,-16.730629686266973
0.23756264122996296,0.02095799046403952,0.7126663705471631,0.7126663705471631,2.6988556853583683,2.6988556853583683,5.397711370716737,1.2775651958992567,1.2775651958992567,-11.850143939706767,-11.850143939706767
0.26797062300567065,0.028207375551579622,0.6354156768321712,0.6354156768321712,2.38876745731313,2.38876745731313,4.77753491462626,1.122534856545841,1.122534856545841,-8.274938104067244,-8.274938104067244
0.30007094424081826,0.03726755322717321,0.5634422028539385,0.5634422028539385,2.1019951811982223,2.1019951811982223,4.2039903623964445,0.9802211565358042,0.9802211565358042,-5.667761344541002,-5.667761344541002
0.3338322402231997,0.04842871828608907,0.4970133044912487,0.4970133044912487,1.839413252847295,1.839413252847295,3.67882650569459,0.850943295726664,0.850943295726664,-3.7797115911754022,-3.7797115911754022
0.36922152332164915,0.06200047891328281,0.4362364429629603,0.4362364429629603,1.6011981271228792,1.6011981271228792,3.2023962542457585,0.7346461659897084,0.7346461659897084,-2.4254305039311497,-2.4254305039311497
0.406204215219371,0.07830990816094346,0.3810825614529086,0.3810825614529086,1.3869421837160436,1.3869421837160436,2.773884367432087,0.6309684618069085,0.6309684618069085,-1.4661193929651952,-1.4661193929651952
0.44474418070100885,0.09769924233492507,0.331410574331167,0.331410574331167,1.1957714373598294,1.1957714373598294,2.3915428747196588,0.5393118993303355,0.5393118993303355,-0.7975828863232122,-0.7975828863232122
0.4848037629605866,0.12052324201513674,0.28699154554659007,0.28699154554659007,1.0264599929059903,1.0264599929059903,2.0529199858119807,0.4589072977001345,0.4589072977001345,-0.34160457157784196,-0.34160457157784196
0.526343820395959,0.14714623524712828,0.24753145146409683,0.24753145146409683,0.8775358602551239,0.8775358602551239,1.7550717205102477,0.3888744144829384,0.3888744144829384,-0.03959814687828712,-0.03959814687828712
0.5693237648538862,0.17793886609888354,0.21269175008642738,0.21269175008642738,0.7473745043618888,0.7473745043618888,1.4947490087237776,0.32827357522283074,0.32827357522283074,0.15214170884625403,0.15214170884625403
0.6137016012883958,0.21327457524270205,0.18210728342484403,0.18210728342484403,0.6342781333272192,0.6342781333272192,1.2685562666544383,0.2761481740673315,0.2761481740673315,0.26603337287504286,0.26603337287504286
0.6594339687937172,0.2535258424630932,0.1554013027373881,0.1554013027373881,0.5365401048203416,0.5365401048203416,1.0730802096406833,0.23155797201319342,0.23155797201319342,0.32594872063522107,0.32594872063522107
0.7064761829717416,0.29906022397670146,0.1321976168464524,0.1321976168464524,0.4524948984993957,0.4524948984993957,0.9049897969987915,0.19360374836200495,0.19360374836200495,0.34931092004903047,0.34931092004903047
0.7547822795925847,0.3502362201471105,0.11213001914733228,0.11213001914733228,0.3805548499959758,0.3805548499959758,0.7611096999919515,0.16144427129854047,0.16144427129854047,0.34870174868279386,0.34870174868279386
0.8043050595056416,0.40739901156274055,0.094849252494665,0.094849252494665,0.3192352966503074,0.3192352966503074,0.6384705933006148,0.1343067709378389,0.1343067709378389,0.3330912582091829,0.3330912582091829
0.8549961347572377,0.47087610349097464,0.08002782991800038,0.08002782991800038,0.2671699945101565,0.2671699945101565,0.534339989020313,0.11149216160130726,0.11149216160130726,0.30877533258370743,0.30877533258370743
0.9068059758698115,0.540972920407968,0.06736305191147385,0.06736305191147385,0.2231186873112404,0.2231186873112404,0.4462373746224808,0.09237621220924036,0.09237621220924036,0.2800870721229089,0.2800870721229089
0.959683960236474,0.6179683936118613,0.05657855703611288,0.05657855703611288,0.18596859809693186,0.18596859809693186,0.37193719619386373,0.07640774458083062,0.07640774458083062,0.24993334519506524,0.24993334519506524
1.013578421583618,0.7021105858415834,0.04742472024524801,0.04742472024524801,0.1547314231869585,0.1547314231869585,0.309462846373917,0.06310478268941563,0.06310478268941563,0.22019668885449972,0.22019668885449972
1.0684367004532835,0.7936123973332515,0.03967817989641591,0.03967817989641591,0.1285371771115567,0.1285371771115567,0.2570743542231134,0.05204940707631883,0.05204940707631883,0.19203403117031304,0.19203403117031304
1.1242051956559371,0.8926473978459792,0.03314073554073278,0.03314073554073278,0.10662599617276698,0.10662599617276698,0.21325199234553396,0.04288190528338351,0.04288190528338351,0.166096831003168,0.166096831003168
1.1808294166433977,0.9993458288675884,0.02763781848142709,0.02763781848142709,0.08833877802295463,0.08833877802295463,0.17667755604590926,0.03529466203995556,0.03529466203995556,0.1426917724542161,0.1426917724542161
1.2382540367507402,1.1137908194779746,0.02301669863454307,0.02301669863454307,0.07310732743779208,0.07310732743779208,0.14621465487558416,0.029026107359915534,0.029026107359915534,0.12189681860821762,0.12189681860821762
1.2964229472551563,1.236014858197797,0.019144556179190943,0.019144556179190943,0.06044450038873897,0.06044450038873897,0.12088900077747794,0.023854938141733048,0.023854938141733048,0.10364400234222548,0.10364400234222548
1.3552793121989417,1.3659965615959724,0.015906515781769968,0.015906515781769968,0.049934691198825765,0.049934691198825765,0.09986938239765153,0.01959474830418071,0.01959474830418071,0.08777763692335809,0.08777763692335809
1.4147656239230568,1.50365777847778,0.013203715139326416,0.013203715139326416,0.04122488970135659,0.04122488970135659,0.08244977940271318,0.01608914151202785,0.01608914151202785,0.07409452420398933,0.07409452420398933
1.474823759256994,1.6488610661468381,0.010951458122294594,0.010951458122294594,0.03401644394797895,0.03401644394797895,0.0680328878959579,0.013207356111219256,0.013207356111219256,0.06237110647115523,0.06237110647115523
1.535395036310053,1.8014075725374594,0.009077485563484755,0.009077485563484755,0.028057595388708858,0.028057595388708858,0.056115190777417716,0.010840400867218339,0.010840400867218339,0.05238125269130261,0.05238125269130261
1.5964202718085274,1.9610353549801922,0.007520383258962103,0.007520383258962103,0.023136803658056038,0.023136803658056038,0.046273607316112075,0.008897679564294483,0.008897679564294483,0.04390741147910228,0.04390741147910228
1.657839838922794,2.1274181630103417,0.006228136483906998,0.006228136483906998,0.01907684343349533,0.01907684343349533,0.03815368686699066,0.00730406993180162,0.00730406993180162,0.03674713683202486,0.03674713683202486
1.7195937255277713,2.300164708986994,0.005156832749685669,0.005156832749685669,0.015729632970055644,0.015729632970055644,0.03145926594011129,0.005997415598453888,0.005997415598453888,0.03071644632343989,0.03071644632343989
1.7816215928398775,2.4788184463902843,0.004269509138297158,0.004269509138297158,0.012971740026307698,0.012971740026307698,0.025943480052615396,0.004926387140174389,0.004926387140174389,0.025651063454454507,0.025651063454454507
1.8438628343731267,2.66285787153279,0.003535136900605372,0.003535136900605372,0.010700503644796328,0.010700503644796328,0.021401007289592655,0.004048668462906341,0.004048668462906341,0.02140629344362134,0.02140629344362134
1.9062566351568169,2.8516973601089757,0.00292773370897654,0.00292773370897654,0.008830707756933114,0.008830707756933114,0.017661415513866227,0.0033294267529038264,0.0033294267529038264,0.01785605928349401,0.01785605928349401
1.9687420311569137,3.0446885455215633,0.0024255926878683624,0.0024255926878683624,0.0072917433780350155,0.0072917433780350155,0.014583486756070031,0.002740027301216194,0.002740027301216194,0.01489146259844341,0.01489146259844341
2.0312579688430867,3.2411222413439784,0.002010616840023231,0.002010616840023231,0.006025199116611513,0.006025199116611513,0.012050398233223026,0.002256958142904835,0.002256958142904835,0.012419116483488476,0.012419116483488476
2.093743364843183,3.440230905600908,0.0016677475257614908,0.0016677475257614908,0.00498282400067582,0.00498282400067582,0.00996564800135164,0.0018609332826302872,0.0018609332826302872,0.010359413490964444,0.010359413490964444
2.156137165626874,3.6411916398498243,0.0013844760683831513,0.0013844760683831513,0.004124811607640471,0.004124811607640471,0.008249623215280942,0.001536147065582299,0.001536147065582299,0.008644832480304775,0.008644832480304775
2.2183784071601225,3.843129711345404,0.0011504282182802684,0.0011504282182802684,0.003418359736609252,0.003418359736609252,0.006836719473218504,0.001269655844579661,0.001269655844579661,0.007218346552516969,0.007218346552516969
2.280406274472229,4.045122581912011,0.000957012012336297,0.000957012012336297,0.0028364650832593593,0.0028364650832593593,0.005672930166518719,0.001050866403038719,0.001050866403038719,0.006031965820601221,0.006031965820601221
2.342160161077207,4.246204422587664,0.0007971204397474116,0.0007971204397474116,0.0023569173722604547,0.0023569173722604547,0.004713834744520909,0.0008711135768616397,0.0008711135768616397,0.005045429656764458,0.005045429656764458
2.403579728191473,4.445371088655779,0.000664881217401643,0.000664881217401643,0.0019614620510367397,0.0019614620510367397,0.003922924102073479,0.0007233121640683124,0.0007233121640683124,0.004225050605096385,0.004225050605096385
2.4646049636899487,4.641585525416129,0.000555446850439698,0.000555446850439698,0.0016351048876273296,0.0016351048876273296,0.003270209775254659,0.0006016705269429369,0.0006016705269429369,0.0035427043758507275,0.0035427043758507275
2.5251762407430074,4.833783570970134,0.0004648189820958488,0.0004648189820958488,0.0013655356192269832,0.0013655356192269832,0.0027310712384539665,0.000501455297439076,0.000501455297439076,0.0029749558064659423,0.0029749558064659423
2.585234376076944,5.020880118477781,0.0003897018062911096,0.0003897018062911096,0.0011426511678582164,0.0011426511678582164,0.002285302335716433,0.00041879831910261137,0.00041879831910261137,0.002502308348183001,0.002502308348183001
2.6447206878010583,5.201775596789927,0.0003273800186005372,0.0003273800186005372,0.0009581618938003389,0.0009581618938003389,0.0019163237876006778,0.000350538427274661,0.000350538427274661,0.0021085637749521033,0.0021085637749521033
2.7035770527448437,5.375362725121524,0.00027561741305041134,0.00027561741305041134,0.0008052669244923911,0.0008052669244923911,0.0016105338489847821,0.0002940919137259069,0.0002940919137259069,0.0017802788897671347,0.0017802788897671347
2.7617459632492602,5.5405334945329185,0.00023257279415335913,0.00023257279415335913,0.0006783868107656942,0.0006783868107656942,0.0013567736215313883,0.0002473465709393052,0.0002473465709393052,0.001506306657181087,0.001506306657181087
2.8191705833566036,5.696186326451521,0.00019673036846627368,0.00019673036846627368,0.0005729436597453259,0.0005729436597453259,0.0011458873194906518,0.0002085750917623603,0.0002085750917623603,0.001277410168299463,0.001277410168299463
2.8757948043440633,5.841233356329137,0.00016684221206555647,0.00016684221206555647,0.000485180510799302,0.000485180510799302,0.000970361021598604,0.0001763643363579483,0.0001763643363579483,0.001085938976636923,0.001085938976636923
2.931563299546716,5.974607788793749,0.00014188078484214076,0.00014188078484214076,0.0004120130921842649,0.0004120130921842649,0.0008240261843685298,0.0001495575918896557,0.0001495575918896557,0.0009255585185942969,0.0009255585185942969
2.9864215784163815,6.0952712693651065,0.00012099978498098923,0.00012099978498098923,0.0003509082538103849,0.0003509082538103849,0.0007018165076207698,0.00012720746013267716,0.00012720746013267716,0.000791024480552648,0.000791024480552648
3.040316039763526,6.202221216938,0.00010350191302220343,0.00010350191302220343,0.0002997843452388616,0.0002997843452388616,0.0005995686904777232,0.00010853743064513904,0.00010853743064513904,0.0006779950536033967,0.0006779950536033967
3.093194024130188,6.294498060843284,8.881234995512836e-05,8.881234995512836e-05,0.00025692962401086537,0.00025692962401086537,0.0005138592480217307,9.291054640446547e-05,9.291054640446547e-05,0.0005828750040004052,0.0005828750040004052
3.1450038652427623,6.371192326352183,7.64569530142858e-05,7.64569530142858e-05,0.0002209354610411704,0.0002209354610411704,0.0004418709220823408,7.980385697615041e-05,7.980385697615041e-05,0.0005026863727288439,0.0005026863727288439
3.195694940494358,6.431451513012207,6.60443409714163e-05,6.60443409714163e-05,0.0001906416775550206,0.0001906416775550206,0.0003812833551100412,6.878759157563946e-05,6.878759157563946e-05,0.00043496139974244703,0.00043496139974244703
3.2452177204074157,6.474486711185004,5.725118205581046e-05,5.725118205581046e-05,0.00016509181967450218,0.00016509181967450218,0.00033018363934900436,5.950817944874241e-05,5.950817944874241e-05,0.0003776539512714445,0.0003776539512714445
3.293523817028259,6.499578903597812,4.981011603672204e-05,4.981011603672204e-05,0.00014349656759174675,0.00014349656759174675,0.0002869931351834935,5.1674405093314816e-05,5.1674405093314816e-05,0.00032906631904940564,0.00032906631904940564
3.340566031206282,6.506084900605731,4.3499840872828254e-05,4.3499840872828254e-05,0.00012520379942330845,0.00012520379942330845,0.0002504075988466169,4.5046117053223256e-05,4.5046117053223256e-05,0.0002877887668185236,0.0002877887668185236
3.386298398711604,6.493442860175955,3.8136976657101345e-05,3.8136976657101345e-05,0.00010967409650014336,0.00010967409650014336,0.00021934819300028672,3.9425016406233e-05,3.9425016406233e-05,0.0002526496311042304,0.0002526496311042304
3.4306762351461133,6.46117734635059,3.356938795086582e-05,3.356938795086582e-05,9.646069648260204e-05,9.646069648260204e-05,0.00019292139296520408,3.4647138858800234e-05,3.4647138858800234e-05,0.00022267414900488852,0.00022267414900488852
3.473656179604042,6.408903883065659,2.967070224027721e-05,2.967070224027721e-05,8.519308129050831e-05,8.519308129050831e-05,0.00017038616258101662,3.057671605223587e-05,3.057671605223587e-05,0.00019705049418354816,0.00019705049418354816
3.5151962370394143,6.336332963715232,2.63358090731396e-05,2.63358090731396e-05,7.556353511880484e-05,7.556353511880484e-05,0.00015112707023760968,2.710116017222743e-05,2.710116017222743e-05,0.0001751017612782202,0.0001751017612782202
3.555255819298991,6.2432734806949615,2.347716307072514e-05,2.347716307072514e-05,6.731612938972753e-05,6.731612938972753e-05,0.00013463225877945507,2.412696362824736e-05,2.412696362824736e-05,0.0001562628556981617,0.0001562628556981617
3.593795784780629,6.129635543319241,2.102174583573796e-05,2.102174583573796e-05,6.023769106211735e-05,6.023769106211735e-05,0.0001204753821242347,2.1576344400986528e-05,2.1576344400986528e-05,0.00014006142658037562,0.00014006142658037562
3.6307784766783526,5.995432656959567,1.8908567954993145e-05,1.8908567954993145e-05,5.4150392177397695e-05,5.4150392177397695e-05,0.00010830078435479539,1.9384499264734474e-05,1.9384499264734474e-05,0.00012610213109425314,0.00012610213109425314
3.6661677597768016,5.840783240934902,1.708661379839288e-05,1.708661379839288e-05,4.8905665104638736e-05,4.8905665104638736e-05,9.781133020927747e-05,1.7497352807494552e-05,1.7497352807494552e-05,0.00011405364311734409,0.00011405364311734409
3.6999290557591826,5.665911467586534,1.551314945938955e-05,1.551314945938955e-05,4.437920233008943e-05,4.437920233008943e-05,8.875840466017887e-05,1.5869711084544955e-05,1.5869711084544955e-05,0.00010363792270109132,0.00010363792270109132
3.7320293769943294,5.471147410049974,1.4152328645489304e-05,1.4152328645489304e-05,4.0466844028221976e-05,4.0466844028221976e-05,8.093368805644395e-05,1.4463745743058132e-05,1.4463745743058132e-05,9.462134823517252e-05,9.462134823517252e-05
3.762437358770037,5.256926491423128,1.2974043174752915e-05,1.2974043174752915e-05,3.708119287080787e-05,3.708119287080787e-05,7.416238574161575e-05,1.3247748275165578e-05,1.3247748275165578e-05,8.68073838003337e-05,8.68073838003337e-05
3.7911232899414538,5.023788233337744,1.1952974433236666e-05,1.1952974433236666e-05,3.414882507320564e-05,3.414882507320564e-05,6.829765014641128e-05,1.2195105289418607e-05,1.2195105289418607e-05,8.00305124019072e-05,8.00305124019072e-05
3.818059141965059,4.772374307272917,1.106781008533697e-05,1.106781008533697e-05,3.1607990770050926e-05,3.1607990770050926e-05,6.321598154010185e-05,1.128345482096794e-05,1.128345482096794e-05,7.415121372474973e-05,7.415121372474973e-05
3.8432185962906678,4.503425897323844,1.030059682283018e-05,1.030059682283018e-05,2.940671646151971e-05,2.940671646151971e-05,5.881343292303942e-05,1.0493991124033422e-05,1.0493991124033422e-05,6.905180452375599e-05,6.905180452375599e-05
3.866577070086159,4.217780388492285,9.636205251467448e-06,9.636205251467448e-06,2.75012382992333e-05,2.75012382992333e-05,5.50024765984666e-05,9.810891427878742e-06,9.810891427878742e-06,6.46329922459398e-05,6.46329922459398e-05
3.888111740272512,3.9163673999353645,9.061887362044026e-06,9.061887362044026e-06,2.585470806050889e-05,2.585470806050889e-05,5.170941612101778e-05,9.220843051057326e-06,9.220843051057326e-06,6.081101920439027e-05,6.081101920439027e-05
3.9078015658509835,3.600204188057259,8.566910593035303e-06,8.566910593035303e-06,2.4436124340607764e-05,2.4436124340607764e-05,4.887224868121553e-05,8.712653270758585e-06,8.712653270758585e-06,5.751529661525704e-05,5.751529661525704e-05
3.925627308511631,3.270390450148192,8.142255409462215e-06,8.142255409462215e-06,2.3219450223555783e-05,2.3219450223555783e-05,4.6438900447111566e-05,8.276927607454446e-06,8.276927607454446e-06,5.4686445914465994e-05,5.4686445914465994e-05
3.941571551527413,2.928102566337664,7.780365716678067e-06,7.780365716678067e-06,2.218288583910842e-05,2.218288583910842e-05,4.436577167821684e-05,7.905804850151332e-06,7.905804850151332e-06,5.2274679692433746e-05,5.2274679692433746e-05
3.9556187169738366,2.5745873287834193,7.4749433957065044e-06,7.4749433957065044e-06,2.130827007495753e-05,2.130827007495753e-05,4.261654014991506e-05,7.592739328436344e-06,7.592739328436344e-06,5.023846690126579e-05,5.023846690126579e-05
3.967755081412114,2.2111552324411363,7.220779867976238e-06,7.220779867976238e-06,2.0580590531592436e-05,2.0580590531592436e-05,4.116118106318487e-05,7.332322726447126e-06,7.332322726447126e-06,4.854343717431345e-05,4.854343717431345e-05
3.9779687904859835,1.839173483549114,7.0136189347972015e-06,7.0136189347972015e-06,1.998758477433942e-05,1.998758477433942e-05,3.997516954867884e-05,7.120139203908657e-06,7.120139203908657e-06,4.716148753047298e-05,4.716148753047298e-05
3.986249874074887,1.4600592327274482,6.850046232463485e-06,6.850046232463485e-06,1.9519419181594526e-05,1.9519419181594526e-05,3.903883836318905e-05,6.952648789820256e-06,6.952648789820256e-06,4.6070061661073414e-05,4.6070061661073414e-05
3.99259026946625,1.075275581443171,6.727401472044663e-06,6.727401472044663e-06,1.9168434144521277e-05,1.9168434144521277e-05,3.8336868289042554e-05,6.827094924386467e-06,6.827094924386467e-06,4.5251577220498366e-05,4.5251577220498366e-05
3.996983901279192,0.6863513479351319,6.643709652997579e-06,6.643709652997579e-06,1.8928944499807323e-05,1.8928944499807323e-05,3.7857888999614646e-05,6.74143209500286e-06,6.74143209500286e-06,4.469297643327357e-05,4.469297643327357e-05
3.9994274535468826,0.29532949367838873,6.597617116465876e-06,6.597617116465876e-06,1.879705459438756e-05,1.879705459438756e-05,3.759410918877512e-05,6.694258987509515e-06,6.694258987509515e-06,4.4385306223435534e-05,4.4385306223435534e-05
4.00001431571043,0.00738751897993723,6.58659509312986e-06,6.58659509312986e-06,1.8765516736457894e-05,1.8765516736457894e-05,3.753103347291579e-05,6.682979092520527e-06,6.682979092520527e-06,4.431173089030168e-05,4.431173089030168e-05
4.000075459366244,0.017211283345965063,6.5854478011970755e-06,6.5854478011970755e-06,1.8762233949850162e-05,1.8762233949850162e-05,3.7524467899700324e-05,6.681804970136597e-06,6.681804970136597e-06,4.430407230976387e-05,4.430407230976387e-05
4.000185587050853,0.02708451606911893,6.5833818853285105e-06,6.5833818853285105e-06,1.8756322680129224e-05,1.8756322680129224e-05,3.751264536025845e-05,6.679690746505574e-06,6.679690746505574e-06,4.429028155986415e-05,4.429028155986415e-05
4.000344938886409,0.037014106828070346,6.580393712173112e-06,6.580393712173112e-06,1.8747772544393148e-05,1.8747772544393148e-05,3.7495545088786295e-05,6.67663271283636e-06,6.67663271283636e-06,4.427033433709732e-05,4.427033433709732e-05
4.0005538306274975,0.04701943857854893,6.576478627475901e-06,6.576478627475901e-06,1.8736570244663838e-05,1.8736570244663838e-05,3.7473140489327676e-05,6.672626119898931e-06,6.672626119898931e-06,4.4244199500469786e-05,4.4244199500469786e-05
4.000812674117386,0.05712105669184244,6.5716305837730814e-06,6.5716305837730814e-06,1.872269850275738e-05,1.872269850275738e-05,3.744539700551476e-05,6.6676647971265855e-06,6.6676647971265855e-06,4.4211836585636046e-05,4.4211836585636046e-05
4.001121980812653,0.06734006163565677,6.565842089612174e-06,6.565842089612174e-06,1.8706135915197567e-05,1.8706135915197567e-05,3.7412271830395135e-05,6.661741100799786e-06,6.661741100799786e-06,4.417319546513161e-05,4.417319546513161e-05
4.00148236427295,0.07769810591986785,6.559104182146071e-06,6.559104182146071e-06,1.8686856875063946e-05,1.8686856875063946e-05,3.737371375012789e-05,6.654845886189112e-06,6.654845886189112e-06,4.412821616443298e-05,4.412821616443298e-05
4.001894542849931,0.08821747290177945,6.551406400162922e-06,6.551406400162922e-06,1.8664831495143453e-05,1.8664831495143453e-05,3.7329662990286905e-05,6.646968480184566e-06,6.646968480184566e-06,4.407682868071491e-05,4.407682868071491e-05
4.002359342781238,0.09892117587753343,6.542736753958011e-06,6.542736753958011e-06,1.8640025522105704e-05,1.8640025522105704e-05,3.728005104421141e-05,6.638096650735693e-06,6.638096650735693e-06,4.401895278030272e-05,4.401895278030272e-05
4.002877701753491,0.10983306690345841,6.5330816911715334e-06,6.5330816911715334e-06,1.8612400239198796e-05,1.8612400239198796e-05,3.722480047839759e-05,6.628216572208628e-06,6.628216572208628e-06,4.3954497768956865e-05,4.3954497768956865e-05
4.0034506729723836,0.12097795354203275,6.522426058258851e-06,6.522426058258851e-06,1.8581912356516207e-05,1.8581912356516207e-05,3.7163824713032413e-05,6.61731278632202e-06,6.61731278632202e-06,4.3883362232747554e-05,4.3883362232747554e-05
4.004079429774321,0.1323817237590272,6.510753057393647e-06,6.510753057393647e-06,1.854851388826887e-05,1.854851388826887e-05,3.709702777653774e-05,6.605368158461348e-06,6.605368158461348e-06,4.380543374816683e-05,4.380543374816683e-05
4.004765270816137,0.1440714798275862,6.498044198636127e-06,6.498044198636127e-06,1.851215201658789e-05,1.851215201658789e-05,3.702430403317578e-05,6.592363829203953e-06,6.592363829203953e-06,4.3720588560335303e-05,4.3720588560335303e-05
4.005509625883514,0.15607568237628344,6.484279247200703e-06,6.484279247200703e-06,1.847276894139147e-05,1.847276894139147e-05,3.694553788278294e-05,6.578279160890432e-06,6.578279160890432e-06,4.362869122817287e-05,4.362869122817287e-05
4.006314062363755,0.16842430590891175,6.469436165652995e-06,6.469436165652995e-06,1.8430301715836327e-05,1.8430301715836327e-05,3.6860603431672654e-05,6.563091679073593e-06,6.563091679073593e-06,4.3529594235367364e-05,4.3529594235367364e-05
4.007180292434394,0.18114900729862377,6.45349105085643e-06,6.45349105085643e-06,1.8384682066848438e-05,1.8384682066848438e-05,3.6769364133696875e-05,6.546777008667343e-06,6.546777008667343e-06,4.342313756590811e-05,4.342313756590811e-05
4.008110181025599,0.19428330894367132,6.436418065480114e-06,6.436418065480114e-06,1.8335836200204182e-05,1.8335836200204182e-05,3.6671672400408364e-05,6.529308804609937e-06,6.529308804609937e-06,4.330914824289009e-05,4.330914824289009e-05
4.009105754621647,0.20786279847833092,6.4181893638703275e-06,6.4181893638703275e-06,1.8283684589607443e-05,1.8283684589607443e-05,3.6567369179214886e-05,6.510658676847247e-06,6.510658676847247e-06,4.31874398292259e-05,4.31874398292259e-05
4.010169210974817,0.22192534716712772,6.398775012082813e-06,6.398775012082813e-06,1.8228141749194826e-05,1.8228141749194826e-05,3.645628349838965e-05,6.49079610943741e-06,6.49079610943741e-06,4.3057811888863476e-05,4.3057811888863476e-05
4.011302929814199,0.236511349380278,6.378142901866207e-06,6.378142901866207e-06,1.8169115988883572e-05,1.8169115988883572e-05,3.6338231977767145e-05,6.469688373572554e-06,6.469688373572554e-06,4.292004940705658e-05,4.292004940705658e-05
4.012509484642056,0.25166398585812416,6.3562586583861236e-06,6.3562586583861236e-06,1.8106509151975273e-05,1.8106509151975273e-05,3.6213018303950546e-05,6.447300434313303e-06,6.447300434313303e-06,4.277392216822056e-05,4.277392216822056e-05
4.013791655721869,0.2674295138309918,6.333085541480765e-06,6.333085541480765e-06,1.804021633443557e-05,1.804021633443557e-05,3.608043266887114e-05,6.423594850835171e-06,6.423594850835171e-06,4.2619184089910816e-05,4.2619184089910816e-05
4.015152444375078,0.28385758747428175,6.308584340244381e-06,6.308584340244381e-06,1.7970125585286473e-05,1.7970125585286473e-05,3.5940251170572945e-05,6.398531669992262e-06,6.398531669992262e-06,4.2455572511485064e-05,4.2455572511485064e-05
4.016595088718118,0.3010016126581342,6.282713260747071e-06,6.282713260747071e-06,1.7896117587586067e-05,1.7896117587586067e-05,3.5792235175172134e-05,6.3720683130186424e-06,6.3720683130186424e-06,4.2282807436085765e-05,4.2282807436085765e-05
4.018123080987839,0.3189191405067237,6.255427806717141e-06,6.255427806717141e-06,1.7818065319523896e-05,1.7818065319523896e-05,3.563613063904779e-05,6.3441594552075055e-06,6.3441594552075055e-06,4.210059072468544e-05,4.210059072468544e-05
4.019740186622074,0.3376723049273002,6.226680653039975e-06,6.226680653039975e-06,1.7735833695241615e-05,1.7735833695241615e-05,3.547166739048323e-05,6.314756898438617e-06,6.314756898438617e-06,4.1908605241109644e-05,4.1908605241109644e-05
4.021450465283388,0.35732831002044824,6.1964215119644295e-06,6.1964215119644295e-06,1.764927918509958e-05,1.764927918509958e-05,3.529855837019916e-05,6.283809436465297e-06,6.283809436465297e-06,4.1706513947188197e-05,4.1706513947188197e-05
4.0232582940382144,0.3779599741585028,6.1645969919581705e-06,6.1645969919581705e-06,1.755824941525658e-05,1.755824941525658e-05,3.511649883051316e-05,6.251262712926139e-06,6.251262712926139e-06,4.1493958947505845e-05,4.1493958947505845e-05
4.025168392931186,0.39964633854174625,6.131150449220102e-06,6.131150449220102e-06,1.7462582746626155e-05,1.7462582746626155e-05,3.492516549325231e-05,6.217059072118244e-06,6.217059072118244e-06,4.127056048365193e-05,4.127056048365193e-05
4.02718585322601,0.4224733492399373,6.096021831942792e-06,6.096021831942792e-06,1.7362107833519302e-05,1.7362107833519302e-05,3.4724215667038605e-05,6.1811374026584435e-06,6.1811374026584435e-06,4.103591587841534e-05,4.103591587841534e-05
4.029316168620389,0.446534623131168,6.0591475175278045e-06,6.0591475175278045e-06,1.7256643162604377e-05,1.7256643162604377e-05,3.4513286325208754e-05,6.143432974275945e-06,6.143432974275945e-06,4.078959843108613e-05,4.078959843108613e-05
4.031565269783964,0.47193230980301204,6.020460143093564e-06,6.020460143093564e-06,1.7145996573210893e-05,1.7145996573210893e-05,3.4291993146421785e-05,6.103877268123103e-06,6.103877268123103e-06,4.0531156265910885e-05,4.0531156265910885e-05
4.033939562615975,0.49877806342865516,5.979888429788849e-06,5.979888429788849e-06,1.7029964760507667e-05,1.7029964760507667e-05,3.4059929521015334e-05,6.062397801173811e-06,6.062397801173811e-06,4.026011113688407e-05,4.026011113688407e-05
4.036445970674366,0.5271941409328899,5.937357001638611e-06,5.937357001638611e-06,1.6908332763703553e-05,1.6908332763703553e-05,3.3816665527407106e-05,6.018917945502299e-06,6.018917945502299e-06,3.997595719345226e-05,3.997595719345226e-05
4.039091982291565,0.5573146454910108,5.8927861999155e-06,5.8927861999155e-06,1.6780873442189928e-05,1.6780873442189928e-05,3.3561746884379856e-05,5.973356743513644e-06,5.973356743513644e-06,3.96781597134562e-05,3.96781597134562e-05
4.04188570296578,0.5892869376447101,5.846091894357687e-06,5.846091894357687e-06,1.6647346943489175e-05,1.6647346943489175e-05,3.329469388697835e-05,5.925628720538337e-06,5.925628720538337e-06,3.936615381178513e-05,3.936615381178513e-05
4.044835913701994,0.6232732401808315,5.797185292955955e-06,5.797185292955955e-06,1.6507500168033462e-05,1.6507500168033462e-05,3.3015000336066923e-05,5.875643696621427e-06,5.875643696621427e-06,3.90393431358627e-05,3.90393431358627e-05
4.047952136076127,0.6594524675326873,5.745972752526385e-06,5.745972752526385e-06,1.636106623722066e-05,1.636106623722066e-05,3.272213247444132e-05,5.823306599849139e-06,5.823306599849139e-06,3.8697098562337104e-05,3.8697098562337104e-05
4.051244704911571,0.698022315994394,5.692355592886803e-06,5.692355592886803e-06,1.6207763972925817e-05,1.6207763972925817e-05,3.2415527945851635e-05,5.768517284178735e-06,5.768517284178735e-06,3.8338756913314826e-05,3.8338756913314826e-05
4.054724849592552,0.7392016576856644,5.636229918188793e-06,5.636229918188793e-06,1.6047297398758012e-05,1.6047297398758012e-05,3.2094594797516024e-05,5.711170355496657e-06,5.711170355496657e-06,3.796361971532856e-05,3.796361971532856e-05
4.0584047851972125,0.7832332892234115,5.577486449849783e-06,5.577486449849783e-06,1.5879355275917563e-05,1.5879355275917563e-05,3.1758710551835127e-05,5.651155010551439e-06,5.651155010551439e-06,3.757095203013276e-05,3.757095203013276e-05
4.062297814819431,0.8303870957577623,5.516010376612585e-06,5.516010376612585e-06,1.5703610689619068e-05,1.5703610689619068e-05,3.1407221379238135e-05,5.5883548945243005e-06,5.5883548945243005e-06,3.715998139359463e-05,3.715998139359463e-05
4.066418444667518,0.8809637028112557,5.451681228572858e-06,5.451681228572858e-06,1.5519720705813762e-05,1.5519720705813762e-05,3.1039441411627524e-05,5.522647984352098e-06,5.522647984352098e-06,3.6729896907655784e-05,3.6729896907655784e-05
4.0707825137867735,0.9352987027154814,5.384372783603154e-06,5.384372783603154e-06,1.5327326122499534e-05,1.5327326122499534e-05,3.065465224499907e-05,5.4539065065496465e-06,5.4539065065496465e-06,3.6279848540885746e-05,3.6279848540885746e-05
4.075407340559337,0.993767559998281,5.313953016520718e-06,5.313953016520718e-06,1.5126051345404139e-05,1.5126051345404139e-05,3.0252102690808278e-05,5.381996900247491e-06,5.381996900247491e-06,3.5808946705901e-05,3.5808946705901e-05
4.080311888498799,1.0567913216341538,5.240284103660318e-06,5.240284103660318e-06,1.4915504424454175e-05,1.4915504424454175e-05,2.983100884890835e-05,5.306779838532898e-06,5.306779838532898e-06,3.531626219732522e-05,3.531626219732522e-05
4.085516954290663,1.12484328464632,5.163222498298757e-06,5.163222498298757e-06,1.4695277295411541e-05,1.4695277295411541e-05,2.9390554590823082e-05,5.2281103240319456e-06,5.2281103240319456e-06,3.480082659252577e-05,3.480082659252577e-05
4.091045381547971,1.198456806450011,5.08261909572536e-06,5.08261909572536e-06,1.446494628063073e-05,1.446494628063073e-05,2.892989256126146e-05,5.145837878090885e-06,5.145837878090885e-06,3.426163323969375e-05,3.426163323969375e-05
4.096922304372705,1.2782344842259232,4.99831951076702e-06,4.99831951076702e-06,1.4224072914358151e-05,1.4224072914358151e-05,2.8448145828716303e-05,5.059806847009903e-06,5.059806847009903e-06,3.369763898464968e-05,3.369763898464968e-05
4.1031754255609325,1.364858980694942,4.9101644953782405e-06,4.9101644953782405e-06,1.397220517170112e-05,1.397220517170112e-05,2.794441034340224e-05,4.969856853672301e-06,4.969856853672301e-06,3.310776681987168e-05,3.310776681987168e-05
4.109835335191945,1.4591058377529726,4.817990529635784e-06,4.817990529635784e-06,1.3708879196733039e-05,1.3708879196733039e-05,2.7417758393466078e-05,4.875823428736241e-06,4.875823428736241e-06,3.249090967761545e-05,3.249090967761545e-05
4.116935876434644,1.5618587002344146,4.721630626288646e-06,4.721630626288646e-06,1.3433621644606862e-05,1.3433621644606862e-05,2.6867243289213725e-05,4.777538862466543e-06,4.777538862466543e-06,3.1845935634676206e-05,3.1845935634676206e-05
4.124514566733785,1.6741274744779084,4.620915397080329e-06,4.620915397080329e-06,1.314595277550739e-05,1.314595277550739e-05,2.629190555101478e-05,4.67483332645146e-06,4.67483332645146e-06,3.117169485053415e-05,3.117169485053415e-05
4.132613084161629,1.7970700768358305,4.515674438564222e-06,4.515674438564222e-06,1.284539046529112e-05,1.284539046529112e-05,2.569078093058224e-05,4.56753632404952e-06,4.56753632404952e-06,3.046702862457956e-05,3.046702862457956e-05
4.141277830710056,1.9320185944190624,4.405738106263863e-06,4.405738106263863e-06,1.2531455329267262e-05,1.2531455329267262e-05,2.5062910658534524e-05,4.455478539627468e-06,4.455478539627468e-06,2.9730781033169944e-05,2.9730781033169944e-05
4.150560586747533,2.0805108957456566,4.290939758962754e-06,4.290939758962754e-06,1.2203677192239135e-05,1.2203677192239135e-05,2.440735438447827e-05,4.3384941696425266e-06,4.3384941696425266e-06,2.8961813694667756e-05,2.8961813694667756e-05
4.160519273894034,2.244329008200807,4.1711185697887305e-06,4.1711185697887305e-06,1.1861603180041566e-05,1.1861603180041566e-05,2.372320636008313e-05,4.216423833520351e-06,4.216423833520351e-06,2.815902431143087e-05,2.815902431143087e-05
4.171218847329607,2.425545943526481,4.046123017653756e-06,4.046123017653756e-06,1.1504807755530917e-05,1.1504807755530917e-05,2.3009615511061833e-05,4.089118179125363e-06,4.089118179125363e-06,2.7321369752563323e-05,2.7321369752563323e-05
4.1827323432490715,2.626583131081955,3.91581519146434e-06,3.91581519146434e-06,1.1132905075101218e-05,1.1132905075101218e-05,2.2265810150202435e-05,3.956442316320918e-06,3.956442316320918e-06,2.6447894569883325e-05,2.6447894569883325e-05
4.195142113068191,2.8502812515479223,3.7800760600473055e-06,3.7800760600473055e-06,1.0745564099440718e-05,1.0745564099440718e-05,2.1491128198881437e-05,3.818281232340607e-06,3.818281232340607e-06,2.5537765980360076e-05,2.5537765980360076e-05
4.20854128341904,3.0999881071173734,3.6388118823124682e-06,3.6388118823124682e-06,1.0342526952539834e-05,1.0342526952539834e-05,2.068505390507967e-05,3.674546363744512e-06,3.674546363744512e-06,2.4590316497303134e-05,2.4590316497303134e-05
4.223035490398744,3.379668296729868,3.4919619536181042e-06,3.4919619536181042e-06,9.92363108245126e-06,9.92363108245126e-06,1.984726216490252e-05,3.525183520347239e-06,3.525183520347239e-06,2.360509554232912e-05,2.360509554232912e-05
4.238744948560845,3.694040998156886,3.3395079036171274e-06,3.3395079036171274e-06,9.488835830164805e-06,9.488835830164805e-06,1.897767166032961e-05,3.3701823745609494e-06,3.3701823745609494e-06,2.2581931507642593e-05,2.2581931507642593e-05
4.255806930572504,4.048754252495632,3.18148477482144e-06,3.18148477482144e-06,9.038254049873905e-06,9.038254049873905e-06,1.807650809974781e-05,3.209587741726929e-06,3.209587741726929e-06,2.1521005842435903e-05,2.1521005842435903e-05
4.274378753397651,4.450607031864893,3.0179941147349694e-06,3.0179941147349694e-06,8.572189430486915e-06,8.572189430486915e-06,1.714437886097383e-05,3.04351287803143e-06,3.04351287803143e-06,2.0422940775412805e-05,2.0422940775412805e-05
4.294641392794293,4.907834385474485,2.849219300157823e-06,2.849219300157823e-06,8.09118012289844e-06,8.09118012289844e-06,1.618236024579688e-05,2.872155004774487e-06,2.872155004774487e-06,1.928890220790808e-05,1.928890220790808e-05
4.316803881875275,5.43047660178412,2.6754432691133715e-06,2.6754432691133715e-06,7.596049148688215e-06,7.596049148688215e-06,1.519209829737643e-05,2.6958132197850914e-06,2.6958132197850914e-06,1.812071904547805e-05,1.812071904547805e-05
4.341108694300695,6.03086134169961,2.4970687479565213e-06,2.4970687479565213e-06,7.087961808371877e-06,7.087961808371877e-06,1.4175923616743754e-05,2.5149088625439154e-06,2.5149088625439154e-06,1.6921019674470016e-05,1.6921019674470016e-05
4.36783837229109,6.724239220515314,2.314640906403923e-06,2.314640906403923e-06,6.5684898580221035e-06,6.5684898580221035e-06,1.3136979716044207e-05,2.330008236675595e-06,2.330008236675595e-06,1.5693385285233686e-05,1.5693385285233686e-05
4.397323739634134,7.529630080945181,2.1288721212851495e-06,2.1288721212851495e-06,6.0396814964462735e-06,6.0396814964462735e-06,1.2079362992892547e-05,2.1418473316104315e-06,2.1418473316104315e-06,1.4442518091808468e-05,1.4442518091808468e-05
4.429954148123233,8.47096191022932,1.940668141059784e-06,1.940668141059784e-06,5.504135089169953e-06,5.504135089169953e-06,1.1008270178339906e-05,1.951357784907508e-06,1.951357784907508e-06,1.3174419930087983e-05,1.3174419930087983e-05
4.466190353816923,9.578621287378871,1.7511543679075924e-06,1.7511543679075924e-06,4.9650729108359244e-06,4.9650729108359244e-06,9.930145821671849e-06,1.7596927390939183e-06,1.7596927390939183e-06,1.1896572893394246e-05,1.1896572893394246e-05
4.506580823750569,10.89159027535704,1.5617001548610036e-06,1.5617001548610036e-06,4.4264088538536656e-06,4.4264088538536656e-06,8.852817707707331e-06,1.5682504161000388e-06,1.5682504161000388e-06,1.0618108188241786e-05,1.0618108188241786e-05
4.55178255875534,12.460431038605451,1.3739378938178374e-06,1.3739378938178374e-06,3.8928008685129915e-06,3.8928008685129915e-06,7.785601737025983e-06,1.3786921037408142e-06,1.3786921037408142e-06,9.349941853883491e-06,9.349941853883491e-06
4.602587920429877,14.351514900015834,1.1897722051919916e-06,1.1897722051919916e-06,3.3696747603514526e-06,3.3696747603514526e-06,6.739349520702905e-06,1.1929497870474003e-06,1.1929497870474003e-06,8.104846079337668e-06,8.104846079337668e-06
4.659959525503856,16.65310889743658,1.011372742909055e-06,1.011372742909055e-06,2.863200920191888e-06,2.863200920191888e-06,5.726401840383776e-06,1.0132168835457792e-06,1.0132168835457792e-06,6.897412600358267e-06,6.897412600358267e-06
4.725076104107136,19.48428547843621,8.411421283611124e-07,8.411421283611124e-07,2.380199984919952e-06,2.380199984919952e-06,4.760399969839904e-06,8.419135983670428e-07,8.419135983670428e-07,5.743850864791591e-06,5.743850864791591e-06
4.799393443146389,23.00820815982069,6.816486776566002e-07,6.816486776566002e-07,1.927948348108529e-06,1.927948348108529e-06,3.855896696217058e-06,6.816166734440105e-07,6.816166734440105e-07,4.661550609725526e-06,4.661550609725526e-06
4.884726364259858,27.45234720659827,5.355126265352735e-07,5.355126265352735e-07,1.5138519723081043e-06,1.5138519723081043e-06,3.0277039446162086e-06,5.349425206107121e-07,5.349425206107121e-07,3.668331071268317e-06,3.668331071268317e-06
4.983360461766845,33.13993106893316,4.0523580965694355e-07,4.0523580965694355e-07,1.1449608513186657e-06,1.1449608513186657e-06,2.2899217026373313e-06,4.043742309453566e-07,4.043742309453566e-07,2.781306089979361e-06,2.781306089979361e-06
5.098206619386314,40.540091459719605,2.92970288334618e-07,2.92970288334618e-07,8.273125593005075e-07,8.273125593005075e-07,1.654625118601015e-06,2.9202879013221433e-07,2.9202879013221433e-07,2.015329899702291e-06,2.015329899702291e-06
5.233018100142961,50.350010561890635,2.0023398127747235e-07,2.0023398127747235e-07,5.65129219919156e-07,5.65129219919156e-07,1.130258439838312e-06,1.9937364849917035e-07,1.9937364849917035e-07,1.3810711959813527e-06,1.3810711959813527e-06
5.392700936817001,63.63361570389971,1.2760354014824006e-07,1.2760354014824006e-07,3.599550131790469e-07,3.599550131790469e-07,7.199100263580938e-07,1.2692399772197345e-07,1.2692399772197345e-07,8.829116366673416e-07,8.829116366673416e-07
5.583766428631327,82.06378345774617,7.444670233182899e-08,7.444670233182899e-08,2.0991105133386447e-07,2.0991105133386447e-07,4.1982210266772895e-07,7.398354811555189e-08,7.398354811555189e-08,5.170821936038473e-07,5.170821936038473e-07
5.815005267403357,108.36166945972974,3.879132616783838e-08,3.879132616783838e-08,1.0934132494809116e-07,1.0934132494809116e-07,2.1868264989618232e-07,3.852512443656898e-08,3.852512443656898e-08,2.7069337645326016e-07,2.7069337645326016e-07
6.098516618643098,147.12861060663545,1.7446208332859086e-08,1.7446208332859086e-08,4.917073282221781e-08,4.917073282221781e-08,9.834146564443562e-08,1.7322968694293543e-08,1.7322968694293543e-08,1.2245036879114479e-07,1.2245036879114479e-07
6.4513229919894535,206.50059750595486,6.453805941224733e-09,6.453805941224733e-09,1.8194217349854042e-08,1.8194217349854042e-08,3.6388434699708084e-08,6.4115180249537875e-09,6.4115180249537875e-09,4.562878225411488e-08,4.562878225411488e-08
6.897985430677477,301.6297756075256,1.8312553971488957e-09,1.8312553971488957e-09,5.1667726584596815e-09,5.1667726584596815e-09,1.0333545316919363e-08,1.8222157696961022e-09,1.8222157696961022e-09,1.3067665786679918e-08,1.3067665786679918e-08
7.474995276307135,462.50746842537944,3.590653817754276e-10,3.590653817754276e-10,1.014733522975893e-09,1.014733522975893e-09,2.029467045951786e-09,3.584598289452573e-10,3.584598289452573e-10,2.592878585002925e-09,2.592878585002925e-09
8.238468475001351,752.9532232411952,4.138848708753425e-11,4.138848708753425e-11,1.172890655691149e-10,1.172890655691149e-10,2.345781311382298e-10,4.154755908624259e-11,4.154755908624259e-11,3.034506998383605e-10,3.034506998383605e-10
9.278318197110758,1321.1526273435522,2.1599403163975983e-12,2.1599403163975983e-12,6.146651182130005e-12,6.146651182130005e-12,1.229330236426001e-11,2.1864794404245838e-12,2.1864794404245838e-12,1.6141904270178833e-11,1.6141904270178833e-11
10.745980176722668,2550.0624080128855,3.275526626514071e-14,3.275526626514071e-14,9.374722161596766e-14,9.374722161596766e-14,1.874944432319353e-13,3.353865867542354e-14,3.353865867542354e-14,2.5052013026153376e-13,2.5052013026153376e-13
