r,Weight,n up,n down,|grad n up|,|grad n down|,|grad n|,tau up,tau down,lap n up,lap n down (all a.u.)
0.0005725464531174396,6.052469800233899e-09,1.7945256189601033,1.7945256189601033,7.192589712682678,7.192589712682678,14.385179425365356,3.603553094227156,3.603553094227156,-25094.365363672987,-25094.365363672987
0.0030160987208085466,3.9081641603627463e-07,1.7770410155222924,1.7770410155222924,7.118353419731743,7.118353419731743,14.236706839463485,3.5642786917690965,3.5642786917690965,-4690.02434619632,-4690.02434619632
0.007409730533749936,3.703523668125945e-06,1.7460553222941049,1.7460553222941049,6.986897165315474,6.986897165315474,13.973794330630948,3.4947870333336675,3.4947870333336675,-1856.24395460898,-1856.24395460898
0.013750125925112933,1.7372198729916464e-05,1.7023455574376636,1.7023455574376636,6.801686232319124,6.801686232319124,13.603372464638248,3.3969994664709526,3.3969994664709526,-960.5272928288098,-960.5272928288098
0.022031209514016048,5.641266736377902e-05,1.646995675531332,1.646995675531332,6.567541206225937,6.567541206225937,13.135082412451874,3.273581568570361,3.273581568570361,-568.4470823290081,-568.4470823290081
0.03224491858788592,0.00014603336393746207,1.5813428066342692,1.5813428066342692,6.29038931840359,6.29038931840359,12.58077863680718,3.127800437315095,3.127800437315095,-363.63905800967217,-363.63905800967217
0.0443812830261634,0.0003240995943278098,1.5069191357539709,1.5069191357539709,5.976995471198398,5.976995471198398,11.953990942396796,2.9633702644611217,2.9633702644611217,-244.21309695700265,-244.21309695700265
0.058428448472587435,0.0006434223816500626,1.4253885138678632,1.4253885138678632,5.634671481277433,5.634671481277433,11.269342962554866,2.7842867394594846,2.7842867394594846,-169.25303004006759,-169.25303004006759
0.07437269148836911,0.0011738388275273498,1.3384812756827007,1.3384812756827007,5.270980272497413,5.270980272497413,10.541960544994826,2.59466022590472,2.59466022590472,-119.72619739812497,-119.72619739812497
0.0921984341490163,0.0020040530706256134,1.2479308828912377,1.2479308828912377,4.8934517167921205,4.8934517167921205,9.786903433584241,2.3985572871929977,2.3985572871929977,-85.78895766014048,-85.78895766014048
0.11188825972748795,0.0032432093968436495,1.1554156360995298,1.1554156360995298,4.509324537670139,4.509324537670139,9.018649075340278,2.1998585563847266,2.1998585563847266,-61.92249442809019,-61.92249442809019
0.13342292991384075,0.00502217182873029,1.0625080890518168,1.0625080890518168,4.125325510930812,4.125325510930812,8.250651021861623,2.0021389421048705,2.0021389421048705,-44.82926059266417,-44.82926059266417
0.1567814037093318,0.007494487569376431,0.9706340553210812,0.9706340553210812,3.74749363014842,3.74749363014842,7.49498726029684,1.808574048970159,1.808574048970159,-32.434786081628516,-32.434786081628516
0.18194085803494064,0.0108370149695732,0.8810422994103889,0.8810422994103889,3.38105330159952,3.38105330159952,6.76210660319904,1.6218746585588482,1.6218746585588482,-23.377732904163032,-23.377732904163032
0.2088767100585458,0.01525020019544639,0.7947852211458181,0.7947852211458181,3.0303372510168534,3.0303372510168534,6.060674502033707,1.444249278072509,1.444249278072509,-16.733163538763353,-16.733163538763353
0.23756264122996318,0.02095799046404032,0.7127101331704926,0.7127101331704926,2.698756843814234,2.698756843814234,5.397513687628468,1.2773931790534605,1.2773931790534605,-11.854551465120187,-11.854551465120187
0.2679706230056704,0.028207375551579015,0.6354601415178439,0.6354601415178439,2.388815065785013,2.388815065785013,4.777630131570026,1.1225010519328569,1.1225010519328569,-8.279550499159766,-8.279550499159766
0.30007094424081715,0.037267553227172893,0.563483198647455,0.563483198647455,2.102155565557138,2.102155565557138,4.204311131114276,0.9802994198429611,0.9802994198429611,-5.671575753395924,-5.671575753395924
0.33383224022319835,0.048428718286090744,0.4970476210354178,0.4970476210354178,1.8396399701367647,1.8396399701367647,3.6792799402735294,0.8510943108114299,0.8510943108114299,-3.7822958478422644,-3.7822958478422644
0.36922152332164737,0.06200047891327841,0.4362622479844586,0.4362622479844586,1.601445159144273,1.601445159144273,3.202890318288546,0.7348293972247367,0.7348293972247367,-2.4267623444407813,-2.4267623444407813
0.4062042152193712,0.07830990816094162,0.38109944948978003,0.38109944948978003,1.3871722864992018,1.3871722864992018,2.7743445729984035,0.6311498727588116,0.6311498727588116,-1.466419136979895,-1.466419136979895
0.4447441807010091,0.09769924233492722,0.3314193425988662,0.3314193425988662,1.1959599889947616,1.1959599889947616,2.3919199779895233,0.5394677193779319,0.5394677193779319,-0.7971729419932373,-0.7971729419932373
0.4848037629605857,0.12052324201513345,0.28699381460265777,0.28699381460265777,1.0265952973071104,1.0265952973071104,2.053190594614221,0.4590246596046824,0.4590246596046824,-0.34080957902645004,-0.34080957902645004
0.5263438203959585,0.1471462352471239,0.24752924189427758,0.24752924189427758,0.8776171170327954,0.8776171170327954,1.7552342340655909,0.38894990659220835,0.38894990659220835,-0.038686325451322535,-0.038686325451322535
0.5693237648538869,0.17793886609889198,0.2126871013944046,0.2126871013944046,0.7474086174282037,0.7474086174282037,1.4948172348564075,0.32831071897611275,0.32831071897611275,0.15298301315496182,0.15298301315496182
0.613701601288396,0.21327457524269522,0.18210196811873466,0.18210196811873466,0.6342763072741404,0.6342763072741404,1.2685526145482808,0.27615464437691234,0.27615464437691234,0.26669800717622527,0.26669800717622527
0.6594339687937176,0.2535258424630956,0.1553966560860446,0.1553966560860446,0.5365148724188006,0.5365148724188006,1.0730297448376012,0.23154311648055792,0.23154311648055792,0.32639794671114736,0.32639794671114736
0.706476182971741,0.29906022397668985,0.13219447678908428,0.13219447678908428,0.45245791786310435,0.45245791786310435,0.9049158357262087,0.19357670268218033,0.19357670268218033,0.349553781842606,0.349553781842606
0.7547822795925843,0.3502362201470953,0.11212875405672162,0.11212875405672162,0.3805155591422351,0.3805155591422351,0.7610311182844702,0.16141275711054798,0.16141275711054798,0.34877535629304424,0.34877535629304424
0.8043050595056425,0.4073990115627531,0.09484984694088167,0.09484984694088167,0.31920034016943766,0.31920034016943766,0.6384006803388753,0.1342765176360675,0.1342765176360675,0.33304433618104345,0.33304433618104345
0.8549961347572375,0.4708761034909793,0.0800299985350857,0.0800299985350857,0.2671432426679864,0.2671432426679864,0.5342864853359728,0.11146681464682197,0.11146681464682197,0.30865641490533013,0.30865641490533013
0.9068059758698117,0.5409729204079702,0.06736635641569606,0.06736635641569606,0.2231016385993292,0.2231016385993292,0.4462032771986584,0.09235756502579025,0.09235756502579025,0.27993736578163597,0.27993736578163597
0.959683960236474,0.6179683936118797,0.05658250883232968,0.05658250883232968,0.1859609721431338,0.1859609721431338,0.3719219442862676,0.07639614227537687,0.07639614227537687,0.24978350306388206,0.24978350306388206
1.013578421583618,0.7021105858415579,0.047428858800415974,0.047428858800415974,0.15473179198770085,0.15473179198770085,0.3094635839754017,0.06309957707520031,0.06309957707520031,0.22006641387838632,0.22006641387838632
1.068436700453284,0.7936123973332412,0.03968212374956906,0.03968212374956906,0.12854353221548107,0.12854353221548107,0.25708706443096213,0.05204938053060938,0.05204938053060938,0.1919334303093142,0.1919334303093142
1.1242051956559367,0.892647397845992,0.03314420773599788,0.03314420773599788,0.10663619627162386,0.10663619627162386,0.21327239254324773,0.04288561686952755,0.04288561686952755,0.16602861218595155,0.16602861218595155
1.1808294166433968,0.9993458288675958,0.02764065119421536,0.02764065119421536,0.088350858970689,0.088350858970689,0.176701717941378,0.03530069817282468,0.03530069817282468,0.14265362389448044,0.14265362389448044
1.2382540367507402,1.113790819477952,0.02301882302897322,0.02301882302897322,0.07311968270826588,0.07311968270826588,0.14623936541653176,0.029033239409265117,0.029033239409265117,0.12188355560860634,0.12188355560860634
1.2964229472551563,1.2360148581978192,0.019145983503544937,0.019145983503544937,0.06045595490171567,0.06045595490171567,0.12091190980343133,0.02386220119223413,0.02386220119223413,0.10364927244192892,0.10364927244192892
1.3552793121989417,1.365996561595953,0.01590731484781284,0.01590731484781284,0.0499444973714848,0.0499444973714848,0.0998889947429696,0.019601460409526827,0.019601460409526827,0.08779512454662786,0.08779512454662786
1.414765623923056,1.5036577784777387,0.013203990065182787,0.013203990065182787,0.04123267417552172,0.04123267417552172,0.08246534835104344,0.016094883168571217,0.016094883168571217,0.07411869137155747,0.07411869137155747
1.4748237592569926,1.6488610661468364,0.010951328875305711,0.010951328875305711,0.03402212926287893,0.03402212926287893,0.06804425852575786,0.013211927209469938,0.013211927209469938,0.062397555792832425,0.062397555792832425
1.5353950363100524,1.8014075725374363,0.009077072635659366,0.009077072635659366,0.028061315010164338,0.028061315010164338,0.056122630020328676,0.01084376857642158,0.01084376857642158,0.052406815105720254,0.052406815105720254
1.5964202718085276,1.961035354980188,0.007519796857823541,0.007519796857823541,0.023138822729792757,0.023138822729792757,0.046277645459585515,0.008899926544620391,0.008899926544620391,0.04393005611730897,0.04393005611730897
1.657839838922793,2.127418163010288,0.006227469960432666,0.006227469960432666,0.01907749229533452,0.01907749229533452,0.03815498459066904,0.007305348612497799,0.007305348612497799,0.036765783942236514,0.036765783942236514
1.719593725527772,2.300164708986961,0.005156159593490056,0.005156159593490056,0.015729256324883034,0.015729256324883034,0.03145851264976607,0.005997911334199236,0.005997911334199236,0.03073074367352272,0.03073074367352272
1.7816215928398775,2.478818446390242,0.004268882699176035,0.004268882699176035,0.012970661725419327,0.012970661725419327,0.025941323450838653,0.004926290948089608,0.004926290948089608,0.025661166679036382,0.025661166679036382
1.8438628343731263,2.662857871532807,0.0035345919849151873,0.0035345919849151873,0.010699005280468703,0.010699005280468703,0.021398010560937406,0.004048158687057194,0.004048158687057194,0.0214126739333073,0.0214126739333073
1.9062566351568169,2.8516973601089646,0.002927289290762758,0.002927289290762758,0.008829018377712805,0.008829018377712805,0.01765803675542561,0.0033286582641477973,0.0033286582641477973,0.017859350383269197,0.017859350383269197
1.9687420311569137,3.0446885455216095,0.0024252551190369434,0.0024252551190369434,0.00729003742304356,0.00729003742304356,0.01458007484608712,0.00273912655684235,0.00273912655684235,0.014892346058629527,0.014892346058629527
2.031257968843086,3.2411222413439855,0.0020103831042504513,0.0020103831042504513,0.006023599865361697,0.006023599865361697,0.012047199730723395,0.002256022450476762,0.002256022450476762,0.012418245718802462,0.012418245718802462
2.093743364843183,3.4402309056008296,0.0016676082326090905,0.0016676082326090905,0.004981410262467294,0.004981410262467294,0.009962820524934588,0.0018600328090991832,0.0018600328090991832,0.010357367466700311,0.010357367466700311
2.1561371656268737,3.6411916398498407,0.0013844180131824585,0.0013844180131824585,0.004123625887960764,0.004123625887960764,0.008247251775921527,0.0015353284107423636,0.0015353284107423636,0.00864209316764203,0.00864209316764203
2.2183784071601225,3.843129711345337,0.0011504364338900314,0.0011504364338900314,0.0034174166232640974,0.0034174166232640974,0.006834833246528195,0.0012689462921336577,0.0012689462921336577,0.007215293190963495,0.007215293190963495
2.280406274472228,4.045122581911938,0.0009570713106210574,0.0009570713106210574,0.0028357590380192403,0.0028357590380192403,0.005671518076038481,0.0010502782332501358,0.0010502782332501358,0.006028880159091942,0.006028880159091942
2.342160161077207,4.246204422587589,0.0007972164867285896,0.0007972164867285896,0.0023564294702048626,0.0023564294702048626,0.004712858940409725,0.0008706480517663316,0.0008706480517663316,0.005042507534869701,0.005042507534869701
2.403579728191472,4.445371088655861,0.0006650012113228969,0.0006650012113228969,0.001961165475270005,0.001961165475270005,0.00392233095054001,0.0007229629728304893,0.0007229629728304893,0.004222416436032175,0.004222416436032175
2.464604963689948,4.641585525416193,0.0005555798817010273,0.0005555798817010273,0.0016349691695508378,0.0016349691695508378,0.0032699383391016756,0.0006014266070068566,0.0006014266070068566,0.0035404261635124615,0.0035404261635124615
2.5251762407430074,4.8337835709701915,0.0004649561530298597,0.0004649561530298597,0.001365529728068137,0.001365529728068137,0.002731059456136274,0.0005013030331158159,0.0005013030331158159,0.0029730592058241937,0.0029730592058241937
2.5852343760769436,5.020880118477853,0.00038983618119134314,0.00038983618119134314,0.0011427456135077927,0.0011427456135077927,0.0022854912270155853,0.00041872317148723806,0.00041872317148723806,0.002500788948503702,0.002500788948503702
2.6447206878010583,5.2017755967899255,0.00032750646345804855,0.00032750646345804855,0.0009583300292662259,0.0009583300292662259,0.0019166600585324518,0.0003505260763773622,0.0003505260763773622,0.0021073972643005654,0.0021073972643005654
2.7035770527448437,5.375362725121585,0.0002757323724038299,0.0002757323724038299,0.0008054856313569736,0.0008054856313569736,0.0016109712627139473,0.00029412900300128603,0.00029412900300128603,0.0017794290774560512,0.0017794290774560512
2.7617459632492602,5.540533494532905,0.00023267404081859017,0.00023267404081859017,0.0006786367331728622,0.0006786367331728622,0.0013572734663457244,0.000247421142250787,0.000247421142250787,0.0015057315230567671,0.0015057315230567671
2.8191705833566036,5.6961863264515555,0.00019681675156728111,0.00019681675156728111,0.000573209127210668,0.000573209127210668,0.001146418254421336,0.00020867679002242834,0.00020867679002242834,0.0012770662073750764,0.0012770662073750764
2.8757948043440633,5.84123335632903,0.00016691342015316595,0.00016691342015316595,0.0004854492627459896,0.0004854492627459896,0.0009708985254919792,0.0001764844511037321,0.0001764844511037321,0.0010857841433387662,0.0010857841433387662
2.9315632995467165,5.974607788793714,0.0001419371340589503,0.0001419371340589503,0.0004122758908578935,0.0004122758908578935,0.000824551781715787,0.0001496889902258384,0.0001496889902258384,0.0009255540698140539,0.0009255540698140539
2.9864215784163823,6.095271269365134,0.0001210420371009134,0.0001210420371009134,0.00035115844896847125,0.00035115844896847125,0.0007023168979369425,0.0001273444532529805,0.0001273444532529805,0.0007911359881123141,0.0007911359881123141
3.0403160397635265,6.202221216938054,0.00010353112454626529,0.00010353112454626529,0.0003000174345652996,0.0003000174345652996,0.0006000348691305992,0.00010867560532837712,0.00010867560532837712,0.0006781928169126473,0.0006781928169126473
3.0931940241301885,6.294498060843381,8.882975101855747e-05,8.882975101855747e-05,0.0002571428377124925,0.0002571428377124925,0.000514285675424985,9.304658381432867e-05,9.304658381432867e-05,0.0005831340507738957,0.0005831340507738957
3.1450038652427628,6.371192326352242,7.646385338855134e-05,7.646385338855134e-05,0.00022112738727253194,0.00022112738727253194,0.0004422547745450639,7.993535382251863e-05,7.993535382251863e-05,0.0005029861946334519,0.0005029861946334519
3.1956949404943575,6.431451513012174,6.604205968568747e-05,6.604205968568747e-05,0.0001908119367044867,0.0001908119367044867,0.0003816238734089734,6.891289309077903e-05,6.891289309077903e-05,0.0004352855334774767,0.0004352855334774767
3.2452177204074157,6.474486711184816,5.7240996907914286e-05,5.7240996907914286e-05,0.00016524078956632824,0.00016524078956632824,0.00033048157913265647,5.962622947594136e-05,5.962622947594136e-05,0.00037798948500362235,0.00037798948500362235
3.2935238170282584,6.4995789035978335,4.979322934563987e-05,4.979322934563987e-05,0.00014362515775515934,0.00014362515775515934,0.0002872503155103187,5.178461562766842e-05,5.178461562766842e-05,0.00032940337948591787,0.00032940337948591787
3.3405660312062824,6.5060849006057415,4.347735811305932e-05,4.347735811305932e-05,0.00012531327024494637,0.00012531327024494637,0.00025062654048989275,4.514825756732827e-05,4.514825756732827e-05,0.0002881200230799075,0.0002881200230799075
3.386298398711604,6.493442860176056,3.8109895013656453e-05,3.8109895013656453e-05,0.00010976591787920284,0.00010976591787920284,0.00021953183575840567,3.95191220139362e-05,3.95191220139362e-05,0.0002529698372353257,0.0002529698372353257
3.430676235146113,6.4611773463505475,3.353859227451994e-05,3.353859227451994e-05,9.653644019934182e-05,9.653644019934182e-05,0.00019307288039868364,3.4733435627235566e-05,3.4733435627235566e-05,0.00022297973661430937,0.00022297973661430937
3.4736561796040415,6.408903883065489,2.9636966320980284e-05,2.9636966320980284e-05,8.525434140649027e-05,8.525434140649027e-05,0.00017050868281298054,3.0655561410772245e-05,3.0655561410772245e-05,0.00019733921952241833,0.00019733921952241833
3.5151962370394148,6.3363329637153285,2.6299800557414705e-05,2.6299800557414705e-05,7.56118711477032e-05,7.56118711477032e-05,0.0001512237422954064,2.7172996264628683e-05,2.7172996264628683e-05,0.00017537240632754992,0.00017537240632754992
3.555255819298991,6.243273480695021,2.343945071140512e-05,2.343945071140512e-05,6.735302756411175e-05,6.735302756411175e-05,0.0001347060551282235,2.4192281518806417e-05,2.4192281518806417e-05,0.00015651497990918845,0.00015651497990918845
3.593795784780629,6.129635543319255,2.0982808073263468e-05,2.0982808073263468e-05,6.0264539673076624e-05,6.0264539673076624e-05,0.00012052907934615325,2.1635657208790907e-05,2.1635657208790907e-05,0.0001402951642954406,0.0001402951642954406
3.6307784766783526,5.9954326569599,1.8868802088332055e-05,1.8868802088332055e-05,5.4168467613963475e-05,5.4168467613963475e-05,0.00010833693522792695,1.9438322514518902e-05,1.9438322514518902e-05,0.00012631802896718327,0.00012631802896718327
3.666167759776801,5.840783240935032,1.7046345213659666e-05,1.7046345213659666e-05,4.8916125828298726e-05,4.8916125828298726e-05,9.783225165659745e-05,1.7546190518104088e-05,1.7546190518104088e-05,0.0001142525317466003,0.0001142525317466003
3.699929055759182,5.665911467586504,1.54726405506249e-05,1.54726405506249e-05,4.438308856437925e-05,4.438308856437925e-05,8.87661771287585e-05,1.5914046345776887e-05,1.5914046345776887e-05,0.00010382081696016386,0.00010382081696016386
3.732029376994329,5.471147410049779,1.4111787190842898e-05,1.4111787190842898e-05,4.046508141525782e-05,4.046508141525782e-05,8.093016283051564e-05,1.4504034745914066e-05,1.4504034745914066e-05,9.47893712708301e-05,9.47893712708301e-05
3.762437358770037,5.256926491423048,1.2933630028631028e-05,1.2933630028631028e-05,3.707459874478128e-05,3.707459874478128e-05,7.414919748956256e-05,1.3284416952585677e-05,1.3284416952585677e-05,8.696171025801936e-05,8.696171025801936e-05
3.791123289941454,5.023788233337713,1.191281046662271e-05,1.191281046662271e-05,3.413811632946507e-05,3.413811632946507e-05,6.827623265893013e-05,1.2228547891672326e-05,1.2228547891672326e-05,8.017232705408575e-05,8.017232705408575e-05
3.818059141965059,4.772374307272952,1.1027982357666644e-05,1.1027982357666644e-05,3.1593792574391595e-05,3.1593792574391595e-05,6.318758514878319e-05,1.1314033891926709e-05,1.1314033891926709e-05,7.428168227527628e-05,7.428168227527628e-05
3.843218596290668,4.503425897323858,1.0261164003993031e-05,1.0261164003993031e-05,2.9389571255835854e-05,2.9389571255835854e-05,5.877914251167171e-05,1.0522038463006421e-05,1.0522038463006421e-05,6.917205391195481e-05,6.917205391195481e-05
3.866577070086159,4.217780388492052,9.597202335491736e-06,9.597202335491736e-06,2.748161472511667e-05,2.748161472511667e-05,5.496322945023334e-05,9.83670971886742e-06,9.83670971886742e-06,6.474409826433229e-05,6.474409826433229e-05
3.888111740272512,3.9163673999354534,9.023329727892005e-06,9.023329727892005e-06,2.5833009549633326e-05,2.5833009549633326e-05,5.166601909926665e-05,9.24470791985772e-06,9.24470791985772e-06,6.091399966920102e-05,6.091399966920102e-05
3.907801565850984,3.6002041880571753,8.528797475176395e-06,8.528797475176395e-06,2.441269721700156e-05,2.441269721700156e-05,4.882539443400312e-05,8.734815593048616e-06,8.734815593048616e-06,5.761110869002594e-05,5.761110869002594e-05
3.9256273085116318,3.2703904501481555,8.104572843455646e-06,8.104572843455646e-06,2.3194591234400852e-05,2.3194591234400852e-05,4.6389182468801705e-05,8.297615940446588e-06,8.297615940446588e-06,5.4775986488735524e-05,5.4775986488735524e-05
3.941571551527413,2.9281025663378872,7.743089024395427e-06,7.743089024395427e-06,2.2156849082845838e-05,2.2156849082845838e-05,4.4313698165691676e-05,7.925227898925286e-06,7.925227898925286e-06,5.235878796573327e-05,5.235878796573327e-05
3.955618716973837,2.574587328783495,7.4380392722051725e-06,7.4380392722051725e-06,2.1281273332654885e-05,2.1281273332654885e-05,4.256254666530977e-05,7.611088387761662e-06,7.611088387761662e-06,5.031792852430963e-05,5.031792852430963e-05
3.967755081412114,2.211155232441051,7.184208128254593e-06,7.184208128254593e-06,2.055282103335813e-05,2.055282103335813e-05,4.110564206671626e-05,7.349774061526857e-06,7.349774061526857e-06,4.861898946124138e-05,4.861898946124138e-05
3.977968790485984,1.839173483549079,6.977333974353268e-06,6.977333974353268e-06,1.9959204449951804e-05,1.9959204449951804e-05,3.991840889990361e-05,7.136856350492757e-06,7.136856350492757e-06,4.7233825384382023e-05,4.7233825384382023e-05
3.986249874074887,1.4600592327274946,6.813998251215297e-06,6.813998251215297e-06,1.949056945570821e-05,1.949056945570821e-05,3.898113891141642e-05,6.968784766712274e-06,6.968784766712274e-06,4.6139843955431676e-05,4.6139843955431676e-05
3.99259026946625,1.075275581443025,6.691537507204894e-06,6.691537507204894e-06,1.9139240343380185e-05,1.9139240343380185e-05,3.827848068676037e-05,6.842794360176167e-06,6.842794360176167e-06,4.5319433454827516e-05,4.5319433454827516e-05
3.996983901279192,0.6863513479351009,6.607974464192063e-06,6.607974464192063e-06,1.8899519937918996e-05,1.8899519937918996e-05,3.779903987583799e-05,6.756833274314685e-06,6.756833274314685e-06,4.475951352634172e-05,4.475951352634172e-05
3.999427453546883,0.29532949367839156,6.561953982024307e-06,6.561953982024307e-06,1.876750437941875e-05,1.876750437941875e-05,3.75350087588375e-05,6.7094957842657175e-06,6.7094957842657175e-06,4.4451115162611284e-05,4.4451115162611284e-05
10.745980176722746,2550.0624080134576,3.1688450697055895e-14,3.1688450697055895e-14,8.981521788601729e-14,8.981521788601729e-14,1.7963043577203458e-13,3.1820636487689756e-14,3.1820636487689756e-14,2.37850257545688e-13,2.37850257545688e-13
9.278318197110758,1321.152627343585,2.030113336636761e-12,2.030113336636761e-12,5.75424388934691e-12,5.75424388934691e-12,1.150848777869382e-11,2.0387607270821757e-12,2.0387607270821757e-12,1.507004301449803e-11,1.507004301449803e-11
8.238468475001405,752.9532232412392,3.869114289244589e-11,3.869114289244589e-11,1.0967881099228721e-10,1.0967881099228721e-10,2.1935762198457442e-10,3.886368003563973e-11,3.886368003563973e-11,2.8429999880945827e-10,2.8429999880945827e-10
7.474995276307178,462.50746842542526,3.369755376571789e-10,3.369755376571789e-10,9.553960579008611e-10,9.553960579008611e-10,1.9107921158017223e-09,3.3859343092031856e-10,3.3859343092031856e-10,2.4534231869827474e-09,2.4534231869827474e-09
6.897985430677502,301.62977560752023,1.7304447565765157e-09,1.7304447565765157e-09,4.907360596560866e-09,4.907360596560866e-09,9.814721193121733e-09,1.7395952639599163e-09,1.7395952639599163e-09,1.2496603989943481e-08,1.2496603989943481e-08
6.451322991989461,206.50059750595804,6.142584784877272e-09,6.142584784877272e-09,1.7425033112501903e-08,1.7425033112501903e-08,3.4850066225003806e-08,6.178827594681999e-09,6.178827594681999e-09,4.404321288688081e-08,4.404321288688081e-08
6.098516618643089,147.12861060664108,1.6713860298304717e-08,1.6713860298304717e-08,4.7429861187236534e-08,4.7429861187236534e-08,9.485972237447307e-08,1.682429800843721e-08,1.682429800843721e-08,1.190954857361896e-07,1.190954857361896e-07
5.815005267403362,108.36166945973228,3.7371980036400664e-08,3.7371980036400664e-08,1.0609309646142566e-07,1.0609309646142566e-07,2.1218619292285132e-07,3.7647674493732205e-08,3.7647674493732205e-08,2.648551558687348e-07,2.648551558687348e-07
5.583766428631326,82.06378345774895,7.205986804259883e-08,7.205986804259883e-08,2.0464789987950067e-07,2.0464789987950067e-07,4.0929579975900134e-07,7.264924996173307e-08,7.264924996173307e-08,5.082853470325119e-07,5.082853470325119e-07
5.392700936817002,63.63361570389854,1.2399278120326307e-07,1.2399278120326307e-07,3.522773408127404e-07,3.522773408127404e-07,7.045546816254808e-07,1.2510740912273143e-07,1.2510740912273143e-07,8.710196660184109e-07,8.710196660184109e-07
5.233018100142966,50.35001056189105,1.9519280371745048e-07,1.9519280371745048e-07,5.547844978697395e-07,5.547844978697395e-07,1.109568995739479e-06,1.97103731038486e-07,1.97103731038486e-07,1.3662822602331657e-06,1.3662822602331657e-06
5.098206619386319,40.54009145972174,2.8635329900147375e-07,2.8635329900147375e-07,8.14197672577725e-07,8.14197672577725e-07,1.62839534515545e-06,2.8937934901684694e-07,2.8937934901684694e-07,1.998105514353323e-06,1.998105514353323e-06
4.983360461766851,33.13993106893152,3.9695834342986096e-07,3.9695834342986096e-07,1.1291011597548724e-06,1.1291011597548724e-06,2.2582023195097447e-06,4.0144937436774654e-07,4.0144937436774654e-07,2.7622751121917616e-06,2.7622751121917616e-06
4.8847263642598575,27.45234720659756,5.255434197701023e-07,5.255434197701023e-07,1.4953703549058358e-06,1.4953703549058358e-06,2.9907407098116716e-06,5.318619771011012e-07,5.318619771011012e-07,3.648198562033804e-06,3.648198562033804e-06
4.799393443146388,23.008208159821145,6.699994980683216e-07,6.699994980683216e-07,1.9070334412061451e-06,1.9070334412061451e-06,3.8140668824122903e-06,6.785035952198019e-07,6.785035952198019e-07,4.641025930985797e-06,4.641025930985797e-06
4.725076104107137,19.484285478435826,8.278569864546764e-07,8.278569864546764e-07,2.357078559034204e-06,2.357078559034204e-06,4.714157118068408e-06,8.388857351515105e-07,8.388857351515105e-07,5.7235984361468336e-06,5.7235984361468336e-06
4.659959525503857,16.65310889743615,9.965181347818627e-07,9.965181347818627e-07,2.8381162381516407e-06,2.8381162381516407e-06,5.6762324763032815e-06,1.010380983059485e-06,1.010380983059485e-06,6.878022878615733e-06,6.878022878615733e-06
4.602587920429876,14.351514900016443,1.173429001467303e-06,1.173429001467303e-06,3.3428709417124544e-06,3.3428709417124544e-06,6.685741883424909e-06,1.1903986222187403e-06,1.1903986222187403e-06,8.086822127227032e-06,8.086822127227032e-06
4.55178255875534,12.460431038605035,1.356194985002043e-06,1.356194985002043e-06,3.864512426718486e-06,3.864512426718486e-06,7.729024853436973e-06,1.3765034214677387e-06,1.3765034214677387e-06,9.33369672436219e-06,9.33369672436219e-06
4.506580823750569,10.891590275357114,1.5426497027341725e-06,1.5426497027341725e-06,4.396854301744013e-06,4.396854301744013e-06,8.793708603488026e-06,1.5664871711073209e-06,1.5664871711073209e-06,1.0603969113217779e-05,1.0603969113217779e-05
4.466190353816924,9.578621287378539,1.7308884063519431e-06,1.7308884063519431e-06,4.93445136549822e-06,4.93445136549822e-06,9.86890273099644e-06,1.7584041083406212e-06,1.7584041083406212e-06,1.1884789267434637e-05,1.1884789267434637e-05
4.429954148123233,8.470961910228972,1.919276250333832e-06,1.919276250333832e-06,5.472624971883422e-06,5.472624971883422e-06,1.0945249943766845e-05,1.9505805950076682e-06,1.9505805950076682e-06,1.3165173006551034e-05,1.3165173006551034e-05
4.397323739634133,7.529630080945375,2.106439922985597e-06,2.106439922985597e-06,6.007440620506944e-06,6.007440620506944e-06,1.2014881241013888e-05,2.1416076489476268e-06,2.1416076489476268e-06,1.4435931048941448e-05,1.4435931048941448e-05
4.36783837229109,6.724239220515387,2.2912491662364344e-06,2.2912491662364344e-06,6.5356563803003745e-06,6.5356563803003745e-06,1.3071312760600749e-05,2.3303229604401537e-06,2.3303229604401537e-06,1.5689532861438945e-05,1.5689532861438945e-05
4.3411086943006945,6.030861341699628,2.472792916088861e-06,2.472792916088861e-06,7.054655672166986e-06,7.054655672166986e-06,1.4109311344333973e-05,2.5157872263094e-06,2.5157872263094e-06,1.6919936944205243e-05,1.6919936944205243e-05
4.316803881875275,5.430476601784282,2.6503533267724885e-06,2.6503533267724885e-06,7.562373763015465e-06,7.562373763015465e-06,1.512474752603093e-05,2.697258152047418e-06,2.697258152047418e-06,1.812240914967212e-05,1.812240914967212e-05
4.294641392794293,4.907834385474308,2.8233798138192586e-06,2.8233798138192586e-06,8.057224110418323e-06,8.057224110418323e-06,1.6114448220836645e-05,2.8741643281465275e-06,2.8741643281465275e-06,1.9293343002135338e-05,1.9293343002135338e-05
4.274378753397651,4.450607031864826,2.991464425405559e-06,2.991464425405559e-06,8.538028338589664e-06,8.538028338589664e-06,1.7076056677179328e-05,3.046080344941645e-06,3.046080344941645e-06,2.0430090444953812e-05,2.0430090444953812e-05
4.255806930572504,4.048754252495695,3.154319270161941e-06,3.154319270161941e-06,9.00395196274089e-06,9.00395196274089e-06,1.800790392548178e-05,3.2127039150028457e-06,3.2127039150028457e-06,2.1530807577732455e-05,2.1530807577732455e-05
4.238744948560845,3.694040998156924,3.3117563359535807e-06,3.3117563359535807e-06,9.454446848912283e-06,9.454446848912283e-06,1.8908893697824565e-05,3.3738353667695772e-06,3.3738353667695772e-06,2.2594317351991695e-05,2.2594317351991695e-05
4.223035490398744,3.3796682967297995,3.4636697782456775e-06,3.4636697782456775e-06,9.88920065968988e-06,9.88920065968988e-06,1.977840131937976e-05,3.5293596080464043e-06,3.5293596080464043e-06,2.3619989526439546e-05,2.3619989526439546e-05
4.20854128341904,3.099988107117429,3.6100205987935396e-06,3.6100205987935396e-06,1.030809307986481e-05,1.030809307986481e-05,2.061618615972962e-05,3.6792304931261167e-06,3.6792304931261167e-06,2.460763716941961e-05,2.460763716941961e-05
4.195142113068191,2.8502812515478815,3.750823545187045e-06,3.750823545187045e-06,1.0711158353714474e-05,1.0711158353714474e-05,2.1422316707428948e-05,3.82345743195399e-06,3.82345743195399e-06,2.5557428430398386e-05,2.5557428430398386e-05
4.1827323432490715,2.626583131081891,3.886136016902074e-06,3.886136016902074e-06,1.1098553533490387e-05,1.1098553533490387e-05,2.2197107066980774e-05,3.962094031192263e-06,3.962094031192263e-06,2.64698120340785e-05,2.64698120340785e-05
4.171218847329607,2.4255459435264872,4.016048747992218e-06,4.016048747992218e-06,1.1470531791226837e-05,1.1470531791226837e-05,2.2941063582453673e-05,4.0952285389751596e-06,4.0952285389751596e-06,2.734545487306393e-05,2.734545487306393e-05
4.160519273894034,2.2443290082007823,4.140678039242329e-06,4.140678039242329e-06,1.1827420151202153e-05,1.1827420151202153e-05,2.3654840302404307e-05,4.222975866129517e-06,4.222975866129517e-06,2.8185190113928488e-05,2.8185190113928488e-05
4.150560586747533,2.0805108957456517,4.260159325897929e-06,4.260159325897929e-06,1.2169601036464112e-05,1.2169601036464112e-05,2.4339202072928223e-05,4.345470968843785e-06,4.345470968843785e-06,2.898997433693434e-05,2.898997433693434e-05
4.141277830710056,1.9320185944190178,4.374641885919961e-06,4.374641885919961e-06,1.2497497075210619e-05,1.2497497075210619e-05,2.4994994150421238e-05,4.462863395961515e-06,4.462863395961515e-06,2.9760852368434094e-05,2.9760852368434094e-05
4.132613084161629,1.7970700768358017,4.484284514822519e-06,4.484284514822519e-06,1.2811558672056879e-05,1.2811558672056879e-05,2.5623117344113757e-05,4.575312824850165e-06,4.575312824850165e-06,3.0498928615999412e-05,3.0498928615999412e-05
4.124514566733785,1.67412747447788,4.589252014492064e-06,4.589252014492064e-06,1.3112253909413644e-05,1.3112253909413644e-05,2.6224507818827287e-05,4.682985431013712e-06,4.682985431013712e-06,3.120534386652923e-05,3.120534386652923e-05
4.116935876434644,1.5618587002344262,4.689712363754281e-06,4.689712363754281e-06,1.3400060401833013e-05,1.3400060401833013e-05,2.6800120803666025e-05,4.78605095699909e-06,4.78605095699909e-06,3.188125664944239e-05,3.188125664944239e-05
4.109835335191945,1.4591058377529669,4.785834457198892e-06,4.785834457198892e-06,1.3675458779339217e-05,1.3675458779339217e-05,2.7350917558678435e-05,4.8846803649907875e-06,4.8846803649907875e-06,3.252782839662703e-05,3.252782839662703e-05
4.1031754255609325,1.3648589806949627,4.877786315596038e-06,4.877786315596038e-06,1.3938927523558415e-05,1.3938927523558415e-05,2.787785504711683e-05,4.979043974461009e-06,4.979043974461009e-06,3.3146211746442806e-05,3.3146211746442806e-05
4.096922304372705,1.2782344842259283,4.965733686071584e-06,4.965733686071584e-06,1.4190938922665968e-05,1.4190938922665968e-05,2.8381877845331936e-05,5.0693100012515655e-06,5.0693100012515655e-06,3.3737541440558206e-05,3.3737541440558206e-05
4.091045381547971,1.1984568064499832,5.04983896311359e-06,5.04983896311359e-06,1.4431955947928632e-05,1.4431955947928632e-05,2.8863911895857265e-05,5.155643427551306e-06,5.155643427551306e-06,3.430292735035783e-05,3.430292735035783e-05
4.085516954290663,1.124843284646326,5.130260372597469e-06,5.130260372597469e-06,1.4662429886314058e-05,1.4662429886314058e-05,2.9324859772628115e-05,5.23820514352927e-06,5.23820514352927e-06,3.4843449245170576e-05,3.4843449245170576e-05
4.080311888498799,1.0567913216341356,5.2071513705147515e-06,5.2071513705147515e-06,1.4882798590743988e-05,1.4882798590743988e-05,2.9765597181487976e-05,5.317151311052513e-06,5.317151311052513e-06,3.536015297890727e-05,3.536015297890727e-05
4.075407340559337,0.9937675599982645,5.280660216154807e-06,5.280660216154807e-06,1.5093485232602479e-05,1.5093485232602479e-05,3.0186970465204957e-05,5.392632908141236e-06,5.392632908141236e-06,3.585404782619604e-05,3.585404782619604e-05
4.0707825137867735,0.9352987027154649,5.350929686303319e-06,5.350929686303319e-06,1.529489746058732e-05,1.529489746058732e-05,3.058979492117464e-05,5.464795419772497e-06,5.464795419772497e-06,3.6326104745046205e-05,3.6326104745046205e-05
4.066418444667518,0.8809637028112731,5.418096902754453e-06,5.418096902754453e-06,1.5487426886391747e-05,1.5487426886391747e-05,3.0974853772783495e-05,5.533778646506621e-06,5.533778646506621e-06,3.6777255381647975e-05,3.6777255381647975e-05
4.062297814819431,0.8303870957577749,5.482293250242336e-06,5.482293250242336e-06,1.567144883146553e-05,1.567144883146553e-05,3.134289766293106e-05,5.599716607333672e-06,5.599716607333672e-06,3.7208391665205585e-05,3.7208391665205585e-05
4.0584047851972125,0.783233289223421,5.543644365917989e-06,5.543644365917989e-06,1.5847322280618763e-05,1.5847322280618763e-05,3.1694644561237526e-05,5.662737517258858e-06,5.662737517258858e-06,3.762036586765213e-05,3.762036586765213e-05
4.054724849592552,0.7392016576856755,5.6022701848524616e-06,5.6022701848524616e-06,1.6015389997843503e-05,1.6015389997843503e-05,3.203077999568701e-05,5.7229638235883455e-06,5.7229638235883455e-06,3.8013991025540206e-05,3.8013991025540206e-05
4.051244704911571,0.6980223159943939,5.658285028839155e-06,5.658285028839155e-06,1.6175978767733955e-05,1.6175978767733955e-05,3.235195753546791e-05,5.780512287745735e-06,5.780512287745735e-06,3.839004164005542e-05,3.839004164005542e-05
4.047952136076127,0.6594524675326948,5.7117977280889074e-06,5.7117977280889074e-06,1.632939973254227e-05,1.632939973254227e-05,3.265879946508454e-05,5.8354941018361485e-06,5.8354941018361485e-06,3.874925458657521e-05,3.874925458657521e-05
4.044835913701994,0.6232732401808302,5.7629117673356355e-06,5.7629117673356355e-06,1.6475948800429683e-05,1.6475948800429683e-05,3.2951897600859366e-05,5.888015031155918e-06,5.888015031155918e-06,3.909233017800736e-05,3.909233017800736e-05
4.04188570296578,0.5892869376447137,5.811725449464631e-06,5.811725449464631e-06,1.6615907105050958e-05,1.6615907105050958e-05,3.3231814210101916e-05,5.938175575489286e-06,5.938175575489286e-06,3.9419933336740607e-05,3.9419933336740607e-05
4.039091982291565,0.5573146454910006,5.858332071093152e-06,5.858332071093152e-06,1.674954150039512e-05,1.674954150039512e-05,3.349908300079024e-05,5.986071143392632e-06,5.986071143392632e-06,3.9732694838782525e-05,3.9732694838782525e-05
4.036445970674366,0.5271941409328864,5.902820105621159e-06,5.902820105621159e-06,1.68771050779342e-05,1.68771050779342e-05,3.37542101558684e-05,6.0317922347910254e-06,6.0317922347910254e-06,4.0031212600871095e-05,4.0031212600871095e-05
4.033939562615975,0.49877806342865677,5.9452733901662945e-06,5.9452733901662945e-06,1.6998837695708934e-05,1.6998837695708934e-05,3.399767539141787e-05,6.075424628138348e-06,6.075424628138348e-06,4.031605298727205e-05,4.031605298727205e-05
4.031565269783964,0.471932309803016,5.985771313535018e-06,5.985771313535018e-06,1.7114966511104175e-05,1.7114966511104175e-05,3.422993302220835e-05,6.1170495691562375e-06,6.1170495691562375e-06,4.0587752117846325e-05,4.0587752117846325e-05
4.029316168620389,0.44653462313117454,6.024389002986588e-06,6.024389002986588e-06,1.722570651080804e-05,1.722570651080804e-05,3.445141302161608e-05,6.1567439587938565e-06,6.1567439587938565e-06,4.0846817162957e-05,4.0846817162957e-05
4.02718585322601,0.4224733492399411,6.061197508043597e-06,6.061197508043597e-06,1.7331261032880946e-05,1.7331261032880946e-05,3.466252206576189e-05,6.194580538566096e-06,6.194580538566096e-06,4.109372761405207e-05,4.109372761405207e-05
4.025168392931186,0.39964633854174425,6.096263980006758e-06,6.096263980006758e-06,1.7431822277025495e-05,1.7431822277025495e-05,3.486364455405099e-05,6.2306280718478994e-06,6.2306280718478994e-06,4.1328936521412e-05,4.1328936521412e-05
4.0232582940382144,0.3779599741584918,6.129651846162507e-06,6.129651846162507e-06,1.7527571800103323e-05,1.7527571800103323e-05,3.5055143600206645e-05,6.264951520046588e-06,6.264951520046588e-06,4.155287169271566e-05,4.155287169271566e-05
4.021450465283388,0.3573283100204497,6.161420977939308e-06,6.161420977939308e-06,1.7618680994716265e-05,1.7618680994716265e-05,3.523736198943253e-05,6.297612212852636e-06,6.297612212852636e-06,4.176593684782359e-05,4.176593684782359e-05
4.019740186622074,0.33767230492730066,6.191627852485599e-06,6.191627852485599e-06,1.7705311549297263e-05,1.7705311549297263e-05,3.5410623098594526e-05,6.328668011996128e-06,6.328668011996128e-06,4.1968512726590184e-05,4.1968512726590184e-05
4.018123080987839,0.3189191405067287,6.220325707315785e-06,6.220325707315785e-06,1.7787615888658057e-05,1.7787615888658057e-05,3.5575231777316114e-05,6.358173468117601e-06,6.358173468117601e-06,4.216095814764235e-05,4.216095814764235e-05
4.016595088718118,0.30100161265813247,6.24756468781034e-06,6.24756468781034e-06,1.786573759434518e-05,1.786573759434518e-05,3.573147518869036e-05,6.38617997050838e-06,6.38617997050838e-06,4.234361101696332e-05,4.234361101696332e-05
4.015152444375078,0.2838575874742744,6.27339198746632e-06,6.27339198746632e-06,1.7939811804475946e-05,1.7939811804475946e-05,3.587962360895189e-05,6.412735889591628e-06,6.412735889591628e-06,4.251678928583057e-05,4.251678928583057e-05
4.013791655721869,0.2674295138309957,6.297851980880957e-06,6.297851980880957e-06,1.8009965592976514e-05,1.8009965592976514e-05,3.601993118595303e-05,6.437886712106123e-06,6.437886712106123e-06,4.2680791858207116e-05,4.2680791858207116e-05
4.012509484642056,0.2516639858581266,6.320986349518891e-06,6.320986349518891e-06,1.807631832834248e-05,1.807631832834248e-05,3.615263665668496e-05,6.461675169027229e-06,6.461675169027229e-06,4.283589944811869e-05,4.283589944811869e-05
4.011302929814199,0.23651134938027857,6.342834200364241e-06,6.342834200364241e-06,1.813898201218963e-05,1.813898201218963e-05,3.627796402437926e-05,6.484141356312853e-06,6.484141356312853e-06,4.2982375387865496e-05,4.2982375387865496e-05
4.010169210974817,0.22192534716714005,6.363432177597639e-06,6.363432177597639e-06,1.819806159797705e-05,1.819806159797705e-05,3.63961231959541e-05,6.505322848604475e-06,6.505322848604475e-06,4.3120466388160656e-05,4.3120466388160656e-05
4.009105754621647,0.20786279847833566,6.3828145674655235e-06,6.3828145674655235e-06,1.8253655290364563e-05,1.8253655290364563e-05,3.6507310580729125e-05,6.52525480604239e-06,6.52525480604239e-06,4.325040325145175e-05,4.325040325145175e-05
4.008110181025599,0.1942833089436703,6.401013396528572e-06,6.401013396528572e-06,1.8305854825724696e-05,1.8305854825724696e-05,3.661170965144939e-05,6.543970074376104e-06,6.543970074376104e-06,4.33724015397989e-05,4.33724015397989e-05
4.007180292434394,0.18114900729861744,6.418058523487932e-06,6.418058523487932e-06,1.835474573436445e-05,1.835474573436445e-05,3.67094914687289e-05,6.56149927856379e-06,6.56149927856379e-06,4.3486662198747134e-05,4.3486662198747134e-05
4.006314062363755,0.16842430590890925,6.433977724794306e-06,6.433977724794306e-06,1.8400407585032985e-05,1.8400407585032985e-05,3.680081517006597e-05,6.577870910062945e-06,6.577870910062945e-06,4.359337213866403e-05,4.359337213866403e-05
4.005509625883514,0.15607568237628242,6.448796774247128e-06,6.448796774247128e-06,1.844291421229768e-05,1.844291421229768e-05,3.688582842459536e-05,6.593111408016925e-06,6.593111408016925e-06,4.3692704775014445e-05,4.3692704775014445e-05
4.004765270816137,0.14407147982758722,6.462539516789409e-06,6.462539516789409e-06,1.8482333927368697e-05,1.8482333927368697e-05,3.6964667854737395e-05,6.607245234541893e-06,6.607245234541893e-06,4.378482052902692e-05,4.378482052902692e-05
4.004079429774321,0.13238172375902757,6.475227936698859e-06,6.475227936698859e-06,1.8518729712938083e-05,1.8518729712938083e-05,3.7037459425876165e-05,6.620294944313803e-06,6.620294944313803e-06,4.3869867290161885e-05,4.3869867290161885e-05
4.0034506729723836,0.12097795354202606,6.486882220370023e-06,6.486882220370023e-06,1.8552159402584385e-05,1.8552159402584385e-05,3.710431880516877e-05,6.632281248650207e-06,6.632281248650207e-06,4.394798084174615e-05,4.394798084174615e-05
4.002877701753491,0.10983306690346091,6.497520813873527e-06,6.497520813873527e-06,1.8582675845269268e-05,1.8582675845269268e-05,3.7165351690538536e-05,6.643223074273085e-06,6.643223074273085e-06,4.401928525107362e-05,4.401928525107362e-05
4.002359342781238,0.0989211758775311,6.50716047546984e-06,6.50716047546984e-06,1.861032705542871e-05,1.861032705542871e-05,3.722065411085742e-05,6.6531376169306495e-06,6.6531376169306495e-06,4.408389322520677e-05,4.408389322520677e-05
4.001894542849931,0.0882174729017784,6.515816323246537e-06,6.515816323246537e-06,1.8635156349138186e-05,1.8635156349138186e-05,3.727031269827637e-05,6.662040390048104e-06,6.662040390048104e-06,4.414190643365278e-05,4.414190643365278e-05
4.00148236427295,0.07769810591987378,6.523501878042223e-06,6.523501878042223e-06,1.8657202466814833e-05,1.8657202466814833e-05,3.7314404933629666e-05,6.669945268571525e-06,6.669945268571525e-06,4.41934157990432e-05,4.41934157990432e-05
4.001121980812653,0.06734006163565873,6.530229101823978e-06,6.530229101823978e-06,1.8676499682930824e-05,1.8676499682930824e-05,3.735299936586165e-05,6.676864528173437e-06,6.676864528173437e-06,4.423850175696635e-05,4.423850175696635e-05
4.000812674117386,0.05712105669184024,6.536008431716723e-06,6.536008431716723e-06,1.869307790330373e-05,1.869307790330373e-05,3.738615580660746e-05,6.682808880021636e-06,6.682808880021636e-06,4.4277234486310465e-05,4.4277234486310465e-05
4.0005538306274975,0.04701943857854801,6.540848810015918e-06,6.540848810015918e-06,1.870696275091095e-05,1.870696275091095e-05,3.74139255018219e-05,6.687787501449647e-06,6.687787501449647e-06,4.430967411236035e-05,4.430967411236035e-05
4.000344938886409,0.037014106828071526,6.544757711058269e-06,6.544757711058269e-06,1.871817564273466e-05,1.871817564273466e-05,3.743635128546932e-05,6.691808063426602e-06,6.691808063426602e-06,4.433587088853063e-05,4.433587088853063e-05
4.000185587050853,0.027084516069115255,6.5477411685374766e-06,6.5477411685374766e-06,1.872673386792478e-05,1.872673386792478e-05,3.745346773584956e-05,6.6948767585145e-06,6.6948767585145e-06,4.4355865380791065e-05,4.4355865380791065e-05
4.000075459366244,0.01721128334596429,6.549803826166746e-06,6.549803826166746e-06,1.873265073297287e-05,1.873265073297287e-05,3.746530146594574e-05,6.696998352867449e-06,6.696998352867449e-06,4.436968880827874e-05,4.436968880827874e-05
4.00001431571043,0.007387518979937298,6.550949309368494e-06,6.550949309368494e-06,1.8735936627812557e-05,1.8735936627812557e-05,3.747187325562511e-05,6.698176568459194e-06,6.698176568459194e-06,4.437736553508105e-05,4.437736553508105e-05
