r,Weight,n up,n down,|grad n up|,|grad n down|,|grad n|,tau up,tau down,lap n up,lap n down (all a.u.)
0.0005725464531185498,6.052469800255108e-09,1.7938574297064138,1.7938574297064138,7.174969179925207,7.174969179925207,14.349938359850414,3.5872543352917092,3.5872543352917092,-25033.205545446726,-25033.205545446726
0.0030160987208083245,3.908164160362945e-07,1.7764147312291645,1.7764147312291645,7.1016684740291405,7.1016684740291405,14.203336948058281,3.5488401320649454,3.5488401320649454,-4679.334661335532,-4679.334661335532
0.0074097305337503805,3.7035236681259844e-06,1.7454988302467704,1.7454988302467704,6.97179071526298,6.97179071526298,13.94358143052596,3.480800512091678,3.480800512091678,-1852.5111416668908,-1852.5111416668908
0.013750125925112489,1.737219872991348e-05,1.7018781876757836,1.7018781876757836,6.788638811033538,6.788638811033538,13.577277622067076,3.3849085998341146,3.3849085998341146,-958.9350273461175,-958.9350273461175
0.022031209514016492,5.6412667363793806e-05,1.646626412386012,1.646626412386012,6.556831966500165,6.556831966500165,13.11366393300033,3.263645985022009,3.263645985022009,-567.7351131039546,-567.7351131039546
0.032244918587885696,0.00014603336393746047,1.5810702200667768,1.5810702200667768,6.282086343077052,6.282086343077052,12.564172686154103,3.1200866603673347,3.1200866603673347,-363.33640410499896,-363.33640410499896
0.044381283026162954,0.0003240995943277802,1.5067328945481608,1.5067328945481608,5.970974176131644,5.970974176131644,11.941948352263289,2.957768156936871,2.957768156936871,-244.10706069353813,-244.10706069353813
0.0584284484725881,0.000643422381649957,1.4252720592947214,1.4252720592947214,5.630655403626386,5.630655403626386,11.261310807252771,2.780546358468177,2.780546358468177,-169.23754812091929,-169.23754812091929
0.07437269148836911,0.0011738388275273205,1.338415056322537,1.338415056322537,5.268595367967134,5.268595367967134,10.537190735934267,2.592441057450593,2.592441057450593,-119.7465165425851,-119.7465165425851
0.0921984341490174,0.002004053070625618,1.2478955178484437,1.2478955178484437,4.892284155991134,4.892284155991134,9.784568311982268,2.3974807907224065,2.3974807907224065,-85.81750580245792,-85.81750580245792
0.11188825972748928,0.0032432093968435194,1.1553944760506965,1.1553944760506965,4.5089728876470145,4.5089728876470145,9.017945775294029,2.1995557494603024,2.1995557494603024,-61.946771105552784,-61.946771105552784
0.13342292991384186,0.005022171828730581,1.0624888413740057,1.0624888413740057,4.125440641391365,4.125440641391365,8.25088128278273,2.0022869679782205,2.0022869679782205,-44.845085309731445,-44.845085309731445
0.15678140370933225,0.007494487569376416,0.9706093730148039,0.9706093730148039,3.747802946063202,3.747802946063202,7.495605892126404,1.808918617653019,1.808918617653019,-32.44228603447887,-32.44228603447887
0.18194085803493998,0.0108370149695726,0.8810094462074652,0.8810094462074652,3.3813691737603024,3.3813691737603024,6.762738347520605,1.6222382090333414,1.6222382090333414,-23.37891671646415,-23.37891671646415
0.20887671005854624,0.015250200195446187,0.7947450745214989,0.7947450745214989,3.030552138931667,3.030552138931667,6.061104277863334,1.4445270818936757,1.4445270818936757,-16.730501572873287,-16.730501572873287
0.23756264122996296,0.02095799046403952,0.7126658531900432,0.7126658531900432,2.6988291979957424,2.6988291979957424,5.397658395991485,1.277541046647432,1.277541046647432,-11.850223099465728,-11.850223099465728
0.26797062300567065,0.028207375551579622,0.6354158199112421,0.6354158199112421,2.388750579277785,2.388750579277785,4.77750115855557,1.1225187411129078,1.1225187411129078,-8.275129419122191,-8.275129419122191
0.30007094424081826,0.03726755322717321,0.5634427299897593,0.5634427299897593,2.101987891170655,2.101987891170655,4.20397578234131,0.9802134403944572,0.9802134403944572,-5.667985856271537,-5.667985856271537
0.3338322402231997,0.04842871828608907,0.49701393563125734,0.49701393563125734,1.8394139571394037,1.8394139571394037,3.6788279142788074,0.8509428667784557,0.8509428667784557,-3.7799138744965215,-3.7799138744965215
0.36922152332164915,0.06200047891328281,0.4362369426996438,0.4362369426996438,1.601204358773334,1.601204358773334,3.202408717546668,0.7346510427018044,0.7346510427018044,-2.4255794665442596,-2.4255794665442596
0.406204215219371,0.07830990816094346,0.3810827698943076,0.3810827698943076,1.386951245516201,1.386951245516201,2.773902491032402,0.63097636176665,0.63097636176665,-1.4662047661072652,-1.4662047661072652
0.44474418070100885,0.09769924233492507,0.3314104187031405,0.3314104187031405,1.1957809043317904,1.1957809043317904,2.391561808663581,0.539320692134521,0.539320692134521,-0.7976095047217326,-0.7976095047217326
0.4848037629605866,0.12052324201513674,0.28699103451952923,0.28699103451952923,1.0264680320353121,1.0264680320353121,2.0529360640706242,0.4589153031184452,0.4589153031184452,-0.3415861566128529,-0.3415861566128529
0.526343820395959,0.14714623524712828,0.2475306568770244,0.2475306568770244,0.8775413655682884,0.8775413655682884,1.7550827311365769,0.3888805421110117,0.3888805421110117,-0.03955179610185278,-0.03955179610185278
0.5693237648538862,0.17793886609888354,0.21269078197912675,0.21269078197912675,0.747377076387796,0.747377076387796,1.494754152775592,0.3282773288952333,0.3282773288952333,0.1521996544151716,0.1521996544151716
0.6137016012883958,0.21327457524270205,0.182106264149648,0.182106264149648,0.6342779499714294,0.6342779499714294,1.2685558999428588,0.2761495600512108,0.2761495600512108,0.26608987546108925,0.26608987546108925
0.6594339687937172,0.2535258424630932,0.15540034474773487,0.15540034474773487,0.5365377356640736,0.5365377356640736,1.0730754713281472,0.23155735453711665,0.23155735453711665,0.32599513816355247,0.32599513816355247
0.7064761829717416,0.29906022397670146,0.13219680702405412,0.13219680702405412,0.4524911090944365,0.4524911090944365,0.904982218188873,0.19360169169238894,0.19360169169238894,0.34934297571285206,0.34934297571285206
0.7547822795925847,0.3502362201471105,0.11212941070516524,0.11212941070516524,0.38055043078825634,0.38055043078825634,0.7611008615765127,0.16144139778134983,0.16144139778134983,0.34871878153969127,0.34871878153969127
0.8043050595056416,0.40739901156274055,0.09484886394654483,0.09484886394654483,0.31923093678852477,0.31923093678852477,0.6384618735770495,0.13430365262507638,0.13430365262507638,0.33309513589588374,0.33309513589588374
0.8549961347572377,0.47087610349097464,0.08002764955168686,0.08002764955168686,0.2671662072992039,0.2671662072992039,0.5343324145984077,0.11148925203116981,0.11148925203116981,0.3087693270171795,0.3087693270171795
0.9068059758698115,0.540972920407968,0.06736304570057873,0.06736304570057873,0.22311578358654865,0.22311578358654865,0.4462315671730973,0.09237381632562515,0.09237381632562515,0.28007489634172206,0.28007489634172206
0.959683960236474,0.6179683936118613,0.05657867791357458,0.05657867791357458,0.18596669722457493,0.18596669722457493,0.37193339444914986,0.07640601935203423,0.07640601935203423,0.24991845059288725,0.24991845059288725
1.013578421583618,0.7021105858415834,0.04742491700094905,0.04742491700094905,0.15473048862501743,0.15473048862501743,0.30946097725003485,0.06310375859397274,0.06310375859397274,0.2201818428578898,0.2201818428578898
1.0684367004532835,0.7936123973332515,0.03967840449214772,0.03967840449214772,0.12853706373633736,0.12853706373633736,0.2570741274726747,0.05204902063674486,0.05204902063674486,0.19202114229877038,0.19202114229877038
1.1242051956559371,0.8926473978459792,0.03314094820973402,0.03314094820973402,0.10662649882652574,0.10662649882652574,0.21325299765305147,0.0428820344097147,0.0428820344097147,0.16608696051538782,0.16608696051538782
1.1808294166433977,0.9993458288675884,0.027637990487338258,0.027637990487338258,0.08833967393296552,0.08833967393296552,0.17667934786593104,0.035295158281125096,0.035295158281125096,0.1426852644956405,0.1426852644956405
1.2382540367507402,1.1137908194779746,0.023016812942056125,0.023016812942056125,0.07310840844217108,0.07310840844217108,0.14621681688434215,0.029026821602119324,0.029026821602119324,0.12189348731749476,0.12189348731749476
1.2964229472551563,1.236014858197797,0.019144606514869354,0.019144606514869354,0.060445593715473055,0.060445593715473055,0.12089118743094611,0.02385573840847996,0.02385573840847996,0.10364332831503424,0.10364332831503424
1.3552793121989417,1.3659965615959724,0.0159065046498107,0.0159065046498107,0.04993566959495349,0.04993566959495349,0.09987133918990698,0.01959552988536389,0.01959552988536389,0.08777894159989173,0.08777894159989173
1.4147656239230568,1.50365777847778,0.013203651334300747,0.013203651334300747,0.04122567294216311,0.04122567294216311,0.08245134588432622,0.016089830631916317,0.016089830631916317,0.07409710564181214,0.07409710564181214
1.474823759256994,1.6488610661468381,0.010951354187579832,0.010951354187579832,0.03401699426893106,0.03401699426893106,0.06803398853786212,0.013207908803698955,0.013207908803698955,0.06237433169758332,0.06237433169758332
1.535395036310053,1.8014075725374594,0.009077355517051683,0.009077355517051683,0.028057909353700672,0.028057909353700672,0.056115818707401344,0.010840798785252662,0.010840798785252662,0.05238460978929999,0.05238460978929999
1.5964202718085274,1.9610353549801922,0.007520240777110132,0.007520240777110132,0.02313690260488702,0.02313690260488702,0.04627380520977404,0.008897924248938378,0.008897924248938378,0.043910528998794676,0.043910528998794676
1.657839838922794,2.1274181630103417,0.006227993618622013,0.006227993618622013,0.019076764099916706,0.019076764099916706,0.03815352819983341,0.0073041767302820275,0.0073041767302820275,0.03674977975121971,0.03674977975121971
1.7195937255277713,2.300164708986994,0.005156699167329695,0.005156699167329695,0.015729419338452785,0.015729419338452785,0.03145883867690557,0.005997408048650326,0.005997408048650326,0.030718497473327326,0.030718497473327326
1.7816215928398775,2.4788184463902843,0.004269391809393534,0.004269391809393534,0.012971436922097379,0.012971436922097379,0.025942873844194757,0.004926292295712611,0.004926292295712611,0.02565249789706906,0.02565249789706906
1.8438628343731267,2.66285787153279,0.0035350401402088672,0.0035350401402088672,0.010700152229750102,0.010700152229750102,0.021400304459500204,0.0040485133548250635,0.0040485133548250635,0.021407151389951504,0.021407151389951504
1.9062566351568169,2.8516973601089757,0.0029276594590745826,0.0029276594590745826,0.008830342787180137,0.008830342787180137,0.017660685574360274,0.00332923598309107,0.00332923598309107,0.017856421231927884,0.017856421231927884
1.9687420311569137,3.0446885455215633,0.002425540940853719,0.002425540940853719,0.0072913919382816906,0.0072913919382816906,0.014582783876563381,0.0027398216363916975,0.0027398216363916975,0.014891428723263848,0.014891428723263848
2.0312579688430867,3.2411222413439784,0.0020105861191488435,0.0020105861191488435,0.0060248804757035606,0.0060248804757035606,0.012049760951407121,0.0022567539137468514,0.0022567539137468514,0.01241879103406105,0.01241879103406105
2.093743364843183,3.440230905600908,0.0016677353593263168,0.0016677353593263168,0.0049825502332708285,0.0049825502332708285,0.009965100466541657,0.0018607423749994413,0.0018607423749994413,0.010358894091315969,0.010358894091315969
2.156137165626874,3.6411916398498243,0.0013844794152984307,0.0013844794152984307,0.004124588667787995,0.004124588667787995,0.00824917733557599,0.0015359773040376052,0.0015359773040376052,0.008644203700405646,0.008644203700405646
2.2183784071601225,3.843129711345404,0.0011504438211351602,0.0011504438211351602,0.0034181887308939373,0.0034181887308939373,0.006836377461787875,0.0012695115990628634,0.0012695115990628634,0.007217676881668456,0.007217676881668456
2.280406274472229,4.045122581912011,0.0009570366688413741,0.0009570366688413741,0.00283634355859318,0.00283634355859318,0.00567268711718636,0.0010507492873957,0.0010507492873957,0.006031307128558016,0.006031307128558016
2.342160161077207,4.246204422587664,0.000797151194127974,0.000797151194127974,0.0023568404963936825,0.0023568404963936825,0.004713680992787365,0.0008710231456652438,0.0008710231456652438,0.00504481830609769,0.00504481830609769
2.403579728191473,4.445371088655779,0.0006649154802023229,0.0006649154802023229,0.001961423616836897,0.001961423616836897,0.003922847233673794,0.000723246547725679,0.000723246547725679,0.004224509519958281,0.004224509519958281
2.4646049636899487,4.641585525416129,0.0005554824588983403,0.0005554824588983403,0.001635098112980516,0.001635098112980516,0.003270196225961032,0.0006016269722483111,0.0006016269722483111,0.0035422455352303655,0.0035422455352303655
2.5251762407430074,4.833783570970134,0.00046485421449868493,0.00046485421449868493,0.0013655537431732279,0.0013655537431732279,0.0027311074863464557,0.0005014306010717284,0.0005014306010717284,0.002974582786738365,0.002974582786738365
2.585234376076944,5.020880118477781,0.0003897353632786308,0.0003897353632786308,0.0011426878617602778,0.0011426878617602778,0.0022853757235205556,0.00041878915555347486,0.00041878915555347486,0.0025020186749500706,0.0025020186749500706
2.6447206878010583,5.201775596789927,0.00032741098290814754,0.00032741098290814754,0.0009582115160650933,0.0009582115160650933,0.0019164230321301865,0.0003505415813194289,0.0003505415813194289,0.0021083509514867684,0.0021083509514867684
2.7035770527448437,5.375362725121524,0.00027564519716175695,0.00027564519716175695,0.000805324650835081,0.000805324650835081,0.001610649301670162,0.0002941044320382525,0.0002941044320382525,0.001780134048351287,0.001780134048351287
2.7617459632492602,5.5405334945329185,0.00023259708319830303,0.00023259708319830303,0.0006784486712575595,0.0006784486712575595,0.001356897342515119,0.00024736584891883664,0.00024736584891883664,0.0015062198332598975,0.0015062198332598975
2.8191705833566036,5.696186326451521,0.00019675106366263956,0.00019675106366263956,0.0005730065105950263,0.0005730065105950263,0.0011460130211900525,0.00020859891115205883,0.00020859891115205883,0.0012773712302612617,0.0012773712302612617
2.8757948043440633,5.841233356329137,0.00016685937823026064,0.00016685937823026064,0.0004852419642717479,0.0004852419642717479,0.0009704839285434958,0.000176390867558383,0.000176390867558383,0.0010859382611429862,0.0010859382611429862
2.931563299546716,5.974607788793749,0.00014189460404918257,0.00014189460404918257,0.00041207142316372543,0.00041207142316372543,0.0008241428463274509,0.00014958537264859822,0.00014958537264859822,0.0009255872273429688,0.0009255872273429688
2.9864215784163815,6.0952712693651065,0.0001210105173305943,0.0001210105173305943,0.00035096229685219107,0.00035096229685219107,0.0007019245937043821,0.0001272353599184061,0.0001272353599184061,0.0007910748930493782,0.0007910748930493782
3.040316039763526,6.202221216938,0.00010350986468178563,0.00010350986468178563,0.00029983339185675993,0.00029983339185675993,0.0005996667837135199,0.00010856460776553026,0.00010856460776553026,0.0006780606049526908,0.0006780606049526908
3.093194024130188,6.294498060843284,8.88178480941857e-05,8.88178480941857e-05,0.0002569733265613717,0.0002569733265613717,0.0005139466531227434,9.293640295978456e-05,9.293640295978456e-05,0.000582950269145906,0.000582950269145906
3.1450038652427623,6.371192326352183,7.646032693023078e-05,7.646032693023078e-05,0.0002209737469137814,0.0002209737469137814,0.0004419474938275628,7.982799509488138e-05,7.982799509488138e-05,0.0005027669904439718,0.0005027669904439718
3.195694940494358,6.431451513012207,6.604590854064214e-05,6.604590854064214e-05,0.00019067467540356467,0.00019067467540356467,0.00038134935080712934,6.880977308738617e-05,6.880977308738617e-05,0.00043504396195125734,0.00043504396195125734
3.2452177204074157,6.474486711185004,5.7251240598143504e-05,5.7251240598143504e-05,0.00016511979803599197,0.00016511979803599197,0.00033023959607198395,5.952829017021095e-05,5.952829017021095e-05,0.00037773587647074996,0.00037773587647074996
3.293523817028259,6.499578903597812,4.98089367133242e-05,4.98089367133242e-05,0.00014351988532590804,0.00014351988532590804,0.00028703977065181607,5.16924241991792e-05,5.16924241991792e-05,0.0003291457229266944,0.0003291457229266944
3.340566031206282,6.506084900605731,4.3497665817136546e-05,4.3497665817136546e-05,0.00012522286686124953,0.00012522286686124953,0.00025044573372249906,4.506209152369209e-05,4.506209152369209e-05,0.0002878643386419617,0.0002878643386419617
3.386298398711604,6.493442860175955,3.8134018142611766e-05,3.8134018142611766e-05,0.00010968934591778882,0.00010968934591778882,0.00021937869183557765,3.94390402385495e-05,3.94390402385495e-05,0.00025272052101324075,0.00025272052101324075
3.4306762351461133,6.46117734635059,3.356582901221715e-05,3.356582901221715e-05,9.647256043220681e-05,9.647256043220681e-05,0.00019294512086441361,3.465933655682349e-05,3.465933655682349e-05,0.00022273986880728836,0.00022273986880728836
3.473656179604042,6.408903883065659,2.9666698274322858e-05,2.9666698274322858e-05,8.520197736665988e-05,8.520197736665988e-05,0.00017040395473331976,3.058722982948174e-05,3.058722982948174e-05,0.00019711083250274595,0.00019711083250274595
3.5151962370394143,6.336332963715232,2.6331490047892025e-05,2.6331490047892025e-05,7.55698558540219e-05,7.55698558540219e-05,0.0001511397117080438,2.7110140289301765e-05,2.7110140289301765e-05,0.0001751567127296749,0.0001751567127296749
3.555255819298991,6.2432734806949615,2.347263605873261e-05,2.347263605873261e-05,6.732023613271744e-05,6.732023613271744e-05,0.00013464047226543487,2.4134561312292256e-05,2.4134561312292256e-05,0.00015631256306276016,0.00015631256306276016
3.593795784780629,6.129635543319241,2.1017097663322483e-05,2.1017097663322483e-05,6.023991086365688e-05,6.023991086365688e-05,0.00012047982172731377,2.1582706845354103e-05,2.1582706845354103e-05,0.00014010613456039885,0.00014010613456039885
3.6307784766783526,5.995432656959567,1.8903867819995734e-05,1.8903867819995734e-05,5.415101687803118e-05,5.415101687803118e-05,0.00010830203375606237,1.9389766269307575e-05,1.9389766269307575e-05,0.00012614215008548463,0.00012614215008548463
3.6661677597768016,5.840783240934902,1.708191575769966e-05,1.708191575769966e-05,4.890495197494233e-05,4.890495197494233e-05,9.780990394988466e-05,1.7501654685550734e-05,1.7501654685550734e-05,0.00011408932143122675,0.00011408932143122675
3.6999290557591826,5.665911467586534,1.5508494725043953e-05,1.5508494725043953e-05,4.437737575278392e-05,4.437737575278392e-05,8.875475150556784e-05,1.5873167525436562e-05,1.5873167525436562e-05,0.00010366962576545676,0.00010366962576545676
3.7320293769943294,5.471147410049974,1.4147747656331525e-05,1.4147747656331525e-05,4.046409782992747e-05,4.046409782992747e-05,8.092819565985494e-05,1.4466465378123128e-05,1.4466465378123128e-05,9.464944344900504e-05,9.464944344900504e-05
3.762437358770037,5.256926491423128,1.2969557430939373e-05,1.2969557430939373e-05,3.7077693009804474e-05,3.7077693009804474e-05,7.415538601960895e-05,1.3249828745599417e-05,1.3249828745599417e-05,8.683222988806153e-05,8.683222988806153e-05
3.7911232899414538,5.023788233337744,1.1948598095232216e-05,1.1948598095232216e-05,3.4144712469579025e-05,3.4144712469579025e-05,6.828942493915805e-05,1.219663365879961e-05,1.219663365879961e-05,8.005245228647291e-05,8.005245228647291e-05
3.818059141965059,4.772374307272917,1.1063551348410114e-05,1.1063551348410114e-05,3.1603384128128654e-05,3.1603384128128654e-05,6.320676825625731e-05,1.128450821188604e-05,1.128450821188604e-05,7.417057010415596e-05,7.417057010415596e-05
3.8432185962906678,4.503425897323844,1.0296459083879562e-05,1.0296459083879562e-05,2.9401714983884454e-05,2.9401714983884454e-05,5.880342996776891e-05,1.0494637488374527e-05,1.0494637488374527e-05,6.906887748611408e-05,6.906887748611408e-05
3.866577070086159,4.217780388492285,9.632188088123722e-06,9.632188088123722e-06,2.7495924229171833e-05,2.7495924229171833e-05,5.4991848458343665e-05,9.811190384515568e-06,9.811190384515568e-06,6.464805839007368e-05,6.464805839007368e-05
3.888111740272512,3.9163673999353645,9.057987345194317e-06,9.057987345194317e-06,2.58491490177192e-05,2.58491490177192e-05,5.16982980354384e-05,9.220846743823745e-06,9.220846743823745e-06,6.082433184600149e-05,6.082433184600149e-05
3.9078015658509835,3.600204188057259,8.563121953809645e-06,8.563121953809645e-06,2.4430375435287437e-05,2.4430375435287437e-05,4.8860750870574874e-05,8.712407214455912e-06,8.712407214455912e-06,5.752708675324386e-05,5.752708675324386e-05
3.925627308511631,3.270390450148192,8.138570580763937e-06,8.138570580763937e-06,2.3213555948320674e-05,2.3213555948320674e-05,4.642711189664135e-05,8.276471501019294e-06,8.276471501019294e-06,5.469692370978972e-05,5.469692370978972e-05
3.941571551527413,2.928102566337664,7.776775767877921e-06,7.776775767877921e-06,2.217688174794784e-05,2.217688174794784e-05,4.435376349589568e-05,7.90517334468333e-06,7.90517334468333e-06,5.2284036274915095e-05,5.2284036274915095e-05
3.9556187169738366,2.5745873287834193,7.471438377403806e-06,7.471438377403806e-06,2.1302184264772345e-05,2.1302184264772345e-05,4.260436852954469e-05,7.59196274412686e-06,7.59196274412686e-06,5.024687636996984e-05,5.024687636996984e-05
3.967755081412114,2.2111552324411363,7.217349081939321e-06,7.217349081939321e-06,2.0574444945712978e-05,2.0574444945712978e-05,4.1148889891425956e-05,7.3314277170592104e-06,7.3314277170592104e-06,4.855105869677793e-05,4.855105869677793e-05
3.9779687904859835,1.839173483549114,7.0102511424542736e-06,7.0102511424542736e-06,1.998139634951285e-05,1.998139634951285e-05,3.99627926990257e-05,7.119149370741131e-06,7.119149370741131e-06,4.7168467476815294e-05,4.7168467476815294e-05
3.986249874074887,1.4600592327274482,6.846729813708925e-06,6.846729813708925e-06,1.9513200860825064e-05,1.9513200860825064e-05,3.902640172165013e-05,6.951585249364482e-06,6.951585249364482e-06,4.6076535732554765e-05,4.6076535732554765e-05
3.99259026946625,1.075275581443171,6.72412454473644e-06,6.72412454473644e-06,1.916219577826617e-05,1.916219577826617e-05,3.832439155653234e-05,6.82597683537914e-06,6.82597683537914e-06,4.525767254957984e-05,4.525767254957984e-05
3.996983901279192,0.6863513479351319,6.640460162600882e-06,6.640460162600882e-06,1.8922693657612543e-05,1.8922693657612543e-05,3.7845387315225086e-05,6.74027715120733e-06,6.74027715120733e-06,4.469881364268202e-05,4.469881364268202e-05
3.9994274535468826,0.29532949367838873,6.594382908274761e-06,6.594382908274761e-06,1.8790797306946707e-05,1.8790797306946707e-05,3.758159461389341e-05,6.693083878016963e-06,6.693083878016963e-06,4.4391001404685574e-05,4.4391001404685574e-05
4.00001431571043,0.00738751897993723,6.5833645575439125e-06,6.5833645575439125e-06,1.875925795312596e-05,1.875925795312596e-05,3.751851590625192e-05,6.681799174949695e-06,6.681799174949695e-06,4.431739212305822e-05,4.431739212305822e-05
4.000075459366244,0.017211283345965063,6.5822176483007635e-06,6.5822176483007635e-06,1.875597501182048e-05,1.875597501182048e-05,3.751195002364096e-05,6.680624552403891e-06,6.680624552403891e-06,4.43097300091207e-05,4.43097300091207e-05
4.000185587050853,0.02708451606911893,6.580152421729854e-06,6.580152421729854e-06,1.8750063464018144e-05,1.8750063464018144e-05,3.750012692803629e-05,6.678509428287017e-06,6.678509428287017e-06,4.4295932896824225e-05,4.4295932896824225e-05
4.000344938886409,0.037014106828070346,6.577165246024031e-06,6.577165246024031e-06,1.874151292715615e-05,1.874151292715615e-05,3.74830258543123e-05,6.675450092482703e-06,6.675450092482703e-06,4.4275976471745156e-05,4.4275976471745156e-05
4.0005538306274975,0.04701943857854893,6.573251468963892e-06,6.573251468963892e-06,1.8730310103835943e-05,1.8730310103835943e-05,3.7460620207671885e-05,6.671441794108735e-06,6.671441794108735e-06,4.424982957895229e-05,4.424982957895229e-05
4.000812674117386,0.05712105669184244,6.568405045741361e-06,6.568405045741361e-06,1.8716437716654367e-05,1.8716437716654367e-05,3.7432875433308734e-05,6.666478360460642e-06,6.666478360460642e-06,4.421745173600296e-05,4.421745173600296e-05
4.001121980812653,0.06734006163565677,6.562618488202098e-06,6.562618488202098e-06,1.8699874363124382e-05,1.8699874363124382e-05,3.7399748726248765e-05,6.660552145178045e-06,6.660552145178045e-06,4.417879279302611e-05,4.417879279302611e-05
4.00148236427295,0.07769810591986785,6.5558828374555924e-06,6.5558828374555924e-06,1.8680594437537534e-05,1.8680594437537534e-05,3.736118887507507e-05,6.653654000381644e-06,6.653654000381644e-06,4.413379274870755e-05,4.413379274870755e-05
4.001894542849931,0.08821747290177945,6.548187636922163e-06,6.548187636922163e-06,1.8658568054133246e-05,1.8658568054133246e-05,3.731713610826649e-05,6.6457732492978505e-06,6.6457732492978505e-06,4.408238156897423e-05,4.408238156897423e-05
4.002359342781238,0.09892117587753343,6.539520902224938e-06,6.539520902224938e-06,1.863376096129653e-05,1.863376096129653e-05,3.726752192259306e-05,6.6368976556945674e-06,6.6368976556945674e-06,4.4024478984368584e-05,4.4024478984368584e-05
4.002877701753491,0.10983306690345841,6.5298690870503e-06,6.5298690870503e-06,1.8606134444278858e-05,1.8606134444278858e-05,3.7212268888557716e-05,6.627013389233228e-06,6.627013389233228e-06,4.395999426024257e-05,4.395999426024257e-05
4.0034506729723836,0.12097795354203275,6.519217044644294e-06,6.519217044644294e-06,1.857564521549496e-05,1.857564521549496e-05,3.715129043098992e-05,6.616104986399634e-06,6.616104986399634e-06,4.388882593753233e-05,4.388882593753233e-05
4.004079429774321,0.1323817237590272,6.507547984745406e-06,6.507547984745406e-06,1.8542245291829417e-05,1.8542245291829417e-05,3.708449058365883e-05,6.604155306812946e-06,6.604155306812946e-06,4.381086154275995e-05,4.381086154275995e-05
4.004765270816137,0.1440714798275862,6.49484342578567e-06,6.49484342578567e-06,1.8505881858477975e-05,1.8505881858477975e-05,3.701176371695595e-05,6.591145484745011e-06,6.591145484745011e-06,4.372597726611625e-05,4.372597726611625e-05
4.005509625883514,0.15607568237628344,6.481083142195619e-06,6.481083142195619e-06,1.846649711885955e-05,1.846649711885955e-05,3.69329942377191e-05,6.577054875686307e-06,6.577054875686307e-06,4.3634037606499155e-05,4.3634037606499155e-05
4.006314062363755,0.16842430590891175,6.466245106642405e-06,6.466245106642405e-06,1.8424028130118086e-05,1.8424028130118086e-05,3.684805626023617e-05,6.561860997789312e-06,6.561860997789312e-06,4.3534894982336614e-05,4.3534894982336614e-05
4.007180292434394,0.18114900729862377,6.45030542702202e-06,6.45030542702202e-06,1.837840662371059e-05,1.837840662371059e-05,3.675681324742118e-05,6.545539468012235e-06,6.545539468012235e-06,4.34283893069642e-05,4.34283893069642e-05
4.008110181025599,0.19428330894367132,6.4332382780174885e-06,6.4332382780174885e-06,1.8329558810552702e-05,1.8329558810552702e-05,3.6659117621105404e-05,6.528063932777372e-06,6.528063932777372e-06,4.33143475272606e-05,4.33143475272606e-05
4.009105754621647,0.20786279847833092,6.415015827026128e-06,6.415015827026128e-06,1.8277405170169308e-05,1.8277405170169308e-05,3.6554810340338616e-05,6.5094059929505425e-06,6.5094059929505425e-06,4.319258312418224e-05,4.319258312418224e-05
4.010169210974817,0.22192534716712772,6.395608154252841e-06,6.395608154252841e-06,1.8221860223281747e-05,1.8221860223281747e-05,3.6443720446563494e-05,6.489535122942649e-06,6.489535122942649e-06,4.306289557379092e-05,4.306289557379092e-05
4.011302929814199,0.236511349380278,6.374983166760629e-06,6.374983166760629e-06,1.8162832287248103e-05,1.8162832287248103e-05,3.6325664574496205e-05,6.468418583729589e-06,6.468418583729589e-06,4.292506976732332e-05,4.292506976732332e-05
4.012509484642056,0.25166398585812416,6.353106506268531e-06,6.353106506268531e-06,1.8100223213771874e-05,1.8100223213771874e-05,3.620044642754375e-05,6.446021329587137e-06,6.446021329587137e-06,4.277887538883899e-05,4.277887538883899e-05
4.013791655721869,0.2674295138309918,6.329941450487841e-06,6.329941450487841e-06,1.8033928108298577e-05,1.8033928108298577e-05,3.6067856216597153e-05,6.422305908339347e-06,6.422305908339347e-06,4.262406624897783e-05,4.262406624897783e-05
4.015152444375078,0.28385758747428175,6.305448807794221e-06,6.305448807794221e-06,1.7963835030540757e-05,1.7963835030540757e-05,3.5927670061081514e-05,6.39723235492753e-06,6.39723235492753e-06,4.246037957339685e-05,4.246037957339685e-05
4.016595088718118,0.3010016126581342,6.2795868050442036e-06,6.2795868050442036e-06,1.788982467560616e-05,1.788982467560616e-05,3.577964935121232e-05,6.3707580781199626e-06,6.3707580781199626e-06,4.228753524451765e-05,4.228753524451765e-05
4.018123080987839,0.3189191405067237,6.252310968363794e-06,6.252310968363794e-06,1.781177003526109e-05,1.781177003526109e-05,3.562354007052218e-05,6.342837740203811e-06,6.342837740203811e-06,4.2105234995333466e-05,4.2105234995333466e-05
4.019740186622074,0.3376723049273002,6.223573996763351e-06,6.223573996763351e-06,1.7729536038939974e-05,1.7729536038939974e-05,3.545907207787995e-05,6.313423129530276e-06,6.313423129530276e-06,4.1913161554189965e-05,4.1913161554189965e-05
4.021450465283388,0.35732831002044824,6.193325628470994e-06,6.193325628470994e-06,1.764297917422481e-05,1.764297917422481e-05,3.528595834844962e-05,6.282463025825466e-06,6.282463025825466e-06,4.17109777396943e-05,4.17109777396943e-05
4.0232582940382144,0.3779599741585028,6.161512499926983e-06,6.161512499926983e-06,1.7551947086665276e-05,1.7551947086665276e-05,3.510389417333055e-05,6.249903058233431e-06,6.249903058233431e-06,4.1498325505226974e-05,4.1498325505226974e-05
4.025168392931186,0.39964633854174625,6.1280779974482045e-06,6.1280779974482045e-06,1.745627815900585e-05,1.745627815900585e-05,3.49125563180117e-05,6.215685556129384e-06,6.215685556129384e-06,4.1274824932959146e-05,4.1274824932959146e-05
4.02718585322601,0.4224733492399373,6.092962101657038e-06,6.092962101657038e-06,1.7355801070134813e-05,1.7355801070134813e-05,3.4711602140269625e-05,6.179749392831692e-06,6.179749392831692e-06,4.1040073177829024e-05,4.1040073177829024e-05
4.029316168620389,0.446534623131168,6.05610122487879e-06,6.05610122487879e-06,1.7250334334389573e-05,1.7250334334389573e-05,3.4500668668779145e-05,6.1420298224575915e-06,6.1420298224575915e-06,4.079364336264203e-05,4.079364336264203e-05
4.031565269783964,0.47193230980301204,6.017428041848967e-06,6.017428041848967e-06,1.7139685822251718e-05,1.7139685822251718e-05,3.4279371644503436e-05,6.1024583103122276e-06,6.1024583103122276e-06,4.0535083426353334e-05,4.0535083426353334e-05
4.033939562615975,0.49877806342865516,5.97687131424477e-06,5.97687131424477e-06,1.7023652263966966e-05,1.7023652263966966e-05,3.404730452793393e-05,6.0609623573827714e-06,6.0609623573827714e-06,4.026391492872052e-05,4.026391492872052e-05
4.036445970674366,0.5271941409328899,5.934355709769778e-06,5.934355709769778e-06,1.6902018738246782e-05,1.6902018738246782e-05,3.3804037476493565e-05,6.017465319734102e-06,6.017465319734102e-06,3.99796318159184e-05,3.99796318159184e-05
4.039091982291565,0.5573146454910108,5.88980161678667e-06,5.88980161678667e-06,1.6774558148977793e-05,1.6774558148977793e-05,3.354911629795559e-05,5.971886223880882e-06,5.971886223880882e-06,3.968169915345262e-05,3.968169915345262e-05
4.04188570296578,0.5892869376447101,5.843124955820991e-06,5.843124955820991e-06,1.6641030693813158e-05,1.6641030693813158e-05,3.3282061387626317e-05,5.924139579553162e-06,5.924139579553162e-06,3.936955183486509e-05,3.936955183486509e-05
4.044835913701994,0.6232732401808315,5.794236989661038e-06,5.794236989661038e-06,1.6501183329680826e-05,1.6501183329680826e-05,3.300236665936165e-05,5.874135191691246e-06,5.874135191691246e-06,3.9042593277371434e-05,3.9042593277371434e-05
4.047952136076127,0.6594524675326873,5.743044134272634e-06,5.743044134272634e-06,1.6354749241667104e-05,1.6354749241667104e-05,3.270949848333421e-05,5.82177797401881e-06,5.82177797401881e-06,3.870019411882664e-05,3.870019411882664e-05
4.051244704911571,0.698022315994394,5.68944777334946e-06,5.68944777334946e-06,1.6201447323468417e-05,1.6201447323468417e-05,3.2402894646936834e-05,5.766967767167678e-06,5.766967767167678e-06,3.834169093439089e-05,3.834169093439089e-05
4.054724849592552,0.7392016576856644,5.633344080053603e-06,5.633344080053603e-06,1.6040981679717037e-05,1.6040981679717037e-05,3.2081963359434075e-05,5.709599165087954e-06,5.709599165087954e-06,3.7966384996122624e-05,3.7966384996122624e-05
4.0584047851972125,0.7832332892234115,5.574623850393424e-06,5.574623850393424e-06,1.5873041163053596e-05,1.5873041163053596e-05,3.174608232610719e-05,5.649561354400003e-06,5.649561354400003e-06,3.757354110463617e-05,3.757354110463617e-05
4.062297814819431,0.8303870957577623,5.513172353768915e-06,5.513172353768915e-06,1.569729896193255e-05,1.569729896193255e-05,3.13945979238651e-05,5.5867379724633765e-06,5.5867379724633765e-06,3.71623865291459e-05,3.71623865291459e-05
4.066418444667518,0.8809637028112557,5.44886920752808e-06,5.44886920752808e-06,1.5513412258918625e-05,1.5513412258918625e-05,3.102682451783725e-05,5.521006991291558e-06,5.521006991291558e-06,3.6732110100938464e-05,3.6732110100938464e-05
4.0707825137867735,0.9352987027154814,5.381588283965177e-06,5.381588283965177e-06,1.5321021983788292e-05,1.5321021983788292e-05,3.0642043967576584e-05,5.452240636076016e-06,5.452240636076016e-06,3.628186151587089e-05,3.628186151587089e-05
4.075407340559337,0.993767559998281,5.311197660110707e-06,5.311197660110707e-06,1.5119752691253831e-05,1.5119752691253831e-05,3.0239505382507663e-05,5.380305349055498e-06,5.380305349055498e-06,3.5810750914264706e-05,3.5810750914264706e-05
4.080311888498799,1.0567913216341538,5.237559622975851e-06,5.237559622975851e-06,1.4909212599755884e-05,1.4909212599755884e-05,2.9818425199511767e-05,5.30506181184108e-06,5.30506181184108e-06,3.531784882198439e-05,3.531784882198439e-05
4.085516954290663,1.12484328464632,5.160530745699142e-06,5.160530745699142e-06,1.4688993835746384e-05,1.4688993835746384e-05,2.937798767149277e-05,5.226365042162042e-06,5.226365042162042e-06,3.4802186555073164e-05,3.4802186555073164e-05
4.091045381547971,1.198456806450011,5.079962053389157e-06,5.079962053389157e-06,1.4458672937458422e-05,1.4458672937458422e-05,2.8917345874916843e-05,5.14406458442244e-06,5.14406458442244e-06,3.426275721267858e-05,3.426275721267858e-05
4.096922304372705,1.2782344842259232,4.995699301469573e-06,4.995699301469573e-06,1.4217811683633005e-05,1.4217811683633005e-05,2.843562336726601e-05,5.058004817558435e-06,5.058004817558435e-06,3.369851740984753e-05,3.369851740984753e-05
4.1031754255609325,1.364858980694942,4.907583394132345e-06,4.907583394132345e-06,1.396595832638469e-05,1.396595832638469e-05,2.793191665276938e-05,4.968025408582948e-06,4.968025408582948e-06,3.3108389933927475e-05,3.3108389933927475e-05
4.109835335191945,1.4591058377529726,4.815450976229768e-06,4.815450976229768e-06,1.3702649323730108e-05,1.3702649323730108e-05,2.7405298647460216e-05,4.873961946034828e-06,4.873961946034828e-06,3.249126754672485e-05,3.249126754672485e-05
4.116935876434644,1.5618587002344146,4.719135238742841e-06,4.719135238742841e-06,1.3427411686715051e-05,1.3427411686715051e-05,2.6854823373430103e-05,4.775646794468692e-06,4.775646794468692e-06,3.184601820031507e-05,3.184601820031507e-05
4.124514566733785,1.6741274744779084,4.6184669860222365e-06,4.6184669860222365e-06,1.3139766079035453e-05,1.3139766079035453e-05,2.6279532158070906e-05,4.672910219297479e-06,4.672910219297479e-06,3.1171491988649395e-05,3.1171491988649395e-05
4.132613084161629,1.7970700768358305,4.5132760224926895e-06,4.5132760224926895e-06,1.2839230834066932e-05,1.2839230834066932e-05,2.5678461668133864e-05,4.565581840909941e-06,4.565581840909941e-06,3.0466530221137577e-05,3.0466530221137577e-05
4.141277830710056,1.9320185944190624,4.40339292762994e-06,4.40339292762994e-06,1.25253270858185e-05,1.25253270858185e-05,2.5050654171637e-05,4.453492488211213e-06,4.453492488211213e-06,2.9729977079527448e-05,2.9729977079527448e-05
4.150560586747533,2.0805108957456566,4.288651300935252e-06,4.288651300935252e-06,1.2197585246983332e-05,1.2197585246983332e-05,2.4395170493966665e-05,4.336476534737732e-06,4.336476534737732e-06,2.8960694406900837e-05,2.8960694406900837e-05
4.160519273894034,2.244329008200807,4.1688905734896795e-06,4.1688905734896795e-06,1.1855553109355875e-05,1.1855553109355875e-05,2.371110621871175e-05,4.214374815405123e-06,4.214374815405123e-06,2.8157580278535097e-05,2.8157580278535097e-05
4.171218847329607,2.425545943526481,4.043959499536109e-06,4.043959499536109e-06,1.1498805889575891e-05,1.1498805889575891e-05,2.2997611779151783e-05,4.087038238801375e-06,4.087038238801375e-06,2.7319592119338147e-05,2.7319592119338147e-05
4.1827323432490715,2.626583131081955,3.913720460350643e-06,3.913720460350643e-06,1.1126958596223834e-05,1.1126958596223834e-05,2.2253917192447668e-05,3.954332228641942e-06,3.954332228641942e-06,2.6445775261331946e-05,2.6445775261331946e-05
4.195142113068191,2.8502812515479223,3.7780547331415573e-06,3.7780547331415573e-06,1.0739681151855783e-05,1.0739681151855783e-05,2.1479362303711567e-05,3.8161421482245635e-06,3.8161421482245635e-06,2.5535297975573352e-05,2.5535297975573352e-05
4.20854128341904,3.0999881071173734,3.6368688992200628e-06,3.6368688992200628e-06,1.0336716763741539e-05,1.0336716763741539e-05,2.0673433527483078e-05,3.672379882758805e-06,3.672379882758805e-06,2.4587494162018712e-05,2.4587494162018712e-05
4.223035490398744,3.379668296729868,3.4901025870403836e-06,3.4901025870403836e-06,9.91790409638507e-06,9.91790409638507e-06,1.983580819277014e-05,3.5229917750249166e-06,3.5229917750249166e-06,2.360191503062006e-05,2.360191503062006e-05
4.238744948560845,3.694040998156886,3.337737764899296e-06,3.337737764899296e-06,9.483203851513358e-06,9.483203851513358e-06,1.8966407703026715e-05,3.3679681278103296e-06,3.3679681278103296e-06,2.2578391244391874e-05,2.2578391244391874e-05
4.255806930572504,4.048754252495632,3.1798098118915747e-06,3.1798098118915747e-06,9.032730397769065e-06,9.032730397769065e-06,1.806546079553813e-05,3.2073544985952184e-06,3.2073544985952184e-06,2.151710709922422e-05,2.151710709922422e-05
4.274378753397651,4.450607031864893,3.0164205991364933e-06,3.0164205991364933e-06,8.566789098405197e-06,8.566789098405197e-06,1.7133578196810394e-05,3.0412650128086955e-06,3.0412650128086955e-06,2.0418688352915365e-05,2.0418688352915365e-05
4.294641392794293,4.907834385474485,2.847753798798615e-06,2.847753798798615e-06,8.085919939224268e-06,8.085919939224268e-06,1.6171839878448535e-05,2.8698979038816215e-06,2.8698979038816215e-06,1.9284305237423838e-05,1.9284305237423838e-05
4.316803881875275,5.43047660178412,2.674092594978632e-06,2.674092594978632e-06,7.590947929172638e-06,7.590947929172638e-06,1.5181895858345276e-05,2.693553439941317e-06,2.693553439941317e-06,1.8115791920134925e-05,1.8115791920134925e-05
4.341108694300695,6.03086134169961,2.49583988230582e-06,2.49583988230582e-06,7.083040487125017e-06,7.083040487125017e-06,1.4166080974250034e-05,2.5126543021613197e-06,2.5126543021613197e-06,1.6915783115956315e-05,1.6915783115956315e-05
4.36783837229109,6.724239220515314,2.313540882855523e-06,2.313540882855523e-06,6.5637715773246155e-06,6.5637715773246155e-06,1.3127543154649231e-05,2.3277683160129903e-06,2.3277683160129903e-06,1.5687867543122414e-05,1.5687867543122414e-05
4.397323739634134,7.529630080945181,2.127907859680326e-06,2.127907859680326e-06,6.035191627042177e-06,6.035191627042177e-06,1.2070383254084354e-05,2.1396331735782895e-06,2.1396331735782895e-06,1.4436756257562062e-05,1.4436756257562062e-05
4.429954148123233,8.47096191022932,1.9398462161752075e-06,1.9398462161752075e-06,5.499901141271235e-06,5.499901141271235e-06,1.099980228254247e-05,1.949182383088489e-06,1.949182383088489e-06,1.316846132372789e-05,1.316846132372789e-05
4.466190353816923,9.578621287378871,1.7504806951850064e-06,1.7504806951850064e-06,4.961124281381568e-06,4.961124281381568e-06,9.922248562763136e-06,1.7575710919731453e-06,1.7575710919731453e-06,1.1890476443721118e-05,1.1890476443721118e-05
4.506580823750569,10.89159027535704,1.5611795728800996e-06,1.5611795728800996e-06,4.422776337515006e-06,4.422776337515006e-06,8.845552675030011e-06,1.5661995960845938e-06,1.5661995960845938e-06,1.0611945672580127e-05,1.0611945672580127e-05
4.55178255875534,12.460431038605451,1.373573622281559e-06,1.373573622281559e-06,3.889515839256891e-06,3.889515839256891e-06,7.779031678513782e-06,1.3767312157885544e-06,1.3767312157885544e-06,9.343798785277372e-06,9.343798785277372e-06
4.602587920429877,14.351514900015834,1.189565159572279e-06,1.189565159572279e-06,3.3667679095322074e-06,3.3667679095322074e-06,6.733535819064415e-06,1.191099754545134e-06,1.191099754545134e-06,8.098821923437967e-06,8.098821923437967e-06
4.659959525503856,16.65310889743658,1.0113206957270265e-06,1.0113206957270265e-06,2.8607004218723746e-06,2.8607004218723746e-06,5.721400843744749e-06,1.011499979467157e-06,1.011499979467157e-06,6.8916198703445735e-06,6.8916198703445735e-06
4.725076104107136,19.48428547843621,8.412387272570044e-07,8.412387272570044e-07,2.378128960792036e-06,2.378128960792036e-06,4.756257921584072e-06,8.40352620919878e-07,8.40352620919878e-07,5.738412490229516e-06,5.738412490229516e-06
4.799393443146389,23.00820815982069,6.818823690825442e-07,6.818823690825442e-07,1.9263215433081895e-06,1.9263215433081895e-06,3.852643086616379e-06,6.802336547442048e-07,6.802336547442048e-07,4.656594835682435e-06,4.656594835682435e-06
4.884726364259858,27.45234720659827,5.358656002337596e-07,5.358656002337596e-07,1.5126716624601875e-06,1.5126716624601875e-06,3.025343324920375e-06,5.337568686560354e-07,5.337568686560354e-07,3.6639830890870796e-06,3.6639830890870796e-06
4.983360461766845,33.13993106893316,4.0568318206647294e-07,4.0568318206647294e-07,1.1442122270851977e-06,1.1442122270851977e-06,2.2884244541703955e-06,4.0340026358202156e-07,4.0340026358202156e-07,2.7776757683032567e-06,2.7776757683032567e-06
5.098206619386314,40.540091459719605,2.934798847955301e-07,2.934798847955301e-07,8.269592306860244e-07,8.269592306860244e-07,1.6539184613720487e-06,2.912727603517332e-07,2.912727603517332e-07,2.0124955992236714e-06,2.0124955992236714e-06
5.233018100142961,50.350010561890635,2.007672370782563e-07,2.007672370782563e-07,5.651100771873529e-07,5.651100771873529e-07,1.1302201543747058e-06,1.988306234536528e-07,1.988306234536528e-07,1.379061014409654e-06,1.379061014409654e-06
5.392700936817001,63.63361570389971,1.281181476027041e-07,1.281181476027041e-07,3.6018440038149857e-07,3.6018440038149857e-07,7.203688007629971e-07,1.265753571075686e-07,1.265753571075686e-07,8.816857891817384e-07,8.816857891817384e-07
5.583766428631327,82.06378345774617,7.49015238367476e-08,7.49015238367476e-08,2.1028472820508687e-07,2.1028472820508687e-07,4.2056945641017374e-07,7.379634060027049e-08,7.379634060027049e-08,5.165234029359333e-07,5.165234029359333e-07
5.815005267403357,108.36166945972974,3.9153504117561266e-08,3.9153504117561266e-08,1.0975025778632615e-07,1.0975025778632615e-07,2.195005155726523e-07,3.8454792730679634e-08,3.8454792730679634e-08,2.7061475377332154e-07,2.7061475377332154e-07
6.098516618643098,147.12861060663545,1.7699067216542686e-08,1.7699067216542686e-08,4.9522195303018034e-08,4.9522195303018034e-08,9.904439060603607e-08,1.7320459587116318e-08,1.7320459587116318e-08,1.226288961651477e-07,1.226288961651477e-07
6.4513229919894535,206.50059750595486,6.602215840283979e-09,6.602215840283979e-09,1.8434248455820862e-08,1.8434248455820862e-08,3.6868496911641724e-08,6.433853503726053e-09,6.433853503726053e-09,4.5862261671272404e-08,4.5862261671272404e-08
6.897985430677477,301.6297756075256,1.8999564771165416e-09,1.8999564771165416e-09,5.291768986767344e-09,5.291768986767344e-09,1.0583537973534688e-08,1.8423329262133285e-09,1.8423329262133285e-09,1.3232800185233474e-08,1.3232800185233474e-08
7.474995276307135,462.50746842537944,3.818097174963114e-10,3.818097174963114e-10,1.0602453101575348e-09,1.0602453101575348e-09,2.1204906203150696e-09,3.6802367324566177e-10,3.6802367324566177e-10,2.6658204682764133e-09,2.6658204682764133e-09
8.238468475001351,752.9532232411952,4.600668662143502e-11,4.600668662143502e-11,1.2728547447966887e-10,1.2728547447966887e-10,2.5457094895933774e-10,4.401966649660316e-11,4.401966649660316e-11,3.2185192188801685e-10,3.2185192188801685e-10
9.278318197110758,1321.1526273435522,2.6082212306687744e-12,2.6082212306687744e-12,7.182381934303379e-12,7.182381934303379e-12,1.4364763868606759e-11,2.4723080256587472e-12,2.4723080256587472e-12,1.826148857485457e-11,1.826148857485457e-11
10.745980176722668,2550.0624080128855,4.6401554294370977e-14,4.6401554294370977e-14,1.2700202609228803e-13,1.2700202609228803e-13,2.5400405218457606e-13,4.345090072096705e-14,4.345090072096705e-14,3.2447249330368734e-13,3.2447249330368734e-13
