r,Weight,n up,n down,|grad n up|,|grad n down|,|grad n|,tau up,tau down,lap n up,lap n down (all a.u.)
0.0005725464531185498,6.052469800255108e-09,306.4308899370853,306.4308899370853,6127.635243529699,6127.635243529699,12255.270487059399,15594.37829066744,15594.37829066744,-21280953.45411469,-21280953.45411469
0.0030160987208083245,3.908164160362945e-07,291.82154921082457,291.82154921082457,5832.26433856479,5832.26433856479,11664.52867712958,14843.427910814658,14843.427910814658,-3749514.4670086075,-3749514.4670086075
0.0074097305337503805,3.7035236681259844e-06,267.30170784609163,267.30170784609163,5336.635650239652,5336.635650239652,10673.271300479304,13583.464985795661,13583.464985795661,-1332588.2510428086,-1332588.2510428086
0.013750125925112489,1.737219872991348e-05,235.54305690532928,235.54305690532928,4695.009994721601,4695.009994721601,9390.019989443203,11952.815918512599,11952.815918512599,-588085.3856665851,-588085.3856665851
0.022031209514016492,5.6412667363793806e-05,199.73948157393085,199.73948157393085,3972.329333101593,3972.329333101593,7944.658666203186,10117.232115152286,10117.232115152286,-280479.43503413047,-280479.43503413047
0.032244918587885696,0.00014603336393746047,163.07200872144242,163.07200872144242,3233.2711685951203,3233.2711685951203,6466.542337190241,8241.798610632439,8241.798610632439,-135434.62592730872,-135434.62592730872
0.044381283026162954,0.0003240995943277802,128.25612285205472,128.25612285205472,2532.9036469353364,2532.9036469353364,5065.807293870673,6466.747454229259,6466.747454229259,-63248.962361827995,-63248.962361827995
0.0584284484725881,0.000643422381649957,97.25292048212862,97.25292048212862,1910.7093079433064,1910.7093079433064,3821.4186158866128,4891.961101391142,4891.961101391142,-27108.092051405372,-27108.092051405372
0.07437269148836911,0.0011738388275273205,71.17279221637524,71.17279221637524,1388.650957889506,1388.650957889506,2777.301915779012,3572.101054732432,3572.101054732432,-9582.117903933025,-9582.117903933025
0.0921984341490174,0.002004053070625618,50.346563976127,50.346563976127,972.769220917842,972.769220917842,1945.538441835684,2521.049704819675,2521.049704819675,-1697.9064649666313,-1697.9064649666313
0.11188825972748928,0.0032432093968435194,34.50492852413597,34.50492852413597,657.026920736034,657.026920736034,1314.053841472068,1722.1829850447311,1722.1829850447311,1341.617258259166,1341.617258259166
0.13342292991384186,0.005022171828730581,22.9987452701156,22.9987452701156,427.93198855363806,427.93198855363806,855.8639771072761,1140.4946684558386,1140.4946684558386,2104.3708157755445,2104.3708157755445
0.15678140370933225,0.007494487569376416,15.005215460466161,15.005215460466161,268.76764451720084,268.76764451720084,537.5352890344017,733.4656028730953,733.4656028730953,1925.2850405115134,1925.2850405115134
0.18194085803493998,0.0108370149695726,9.687251932563065,9.687251932563065,162.77287966008825,162.77287966008825,325.5457593201765,459.0288093092104,459.0288093092104,1457.2194338316453,1457.2194338316453
0.20887671005854624,0.015250200195446187,6.295405043581632,6.295405043581632,95.10259506216258,95.10259506216258,190.20519012432516,280.30704208886783,280.30704208886783,986.5330958757394,986.5330958757394
0.23756264122996296,0.02095799046403952,4.217508447469763,4.217508447469763,53.722699465163295,53.722699465163295,107.44539893032659,167.63526029351038,167.63526029351038,613.6194842574976,613.6194842574976
0.26797062300567065,0.028207375551579622,2.989262223884769,2.989262223884769,29.54177896263199,29.54177896263199,59.08355792526398,98.70930779432084,98.70930779432084,353.1489561747562,353.1489561747562
0.30007094424081826,0.03726755322717321,2.2806682967954606,2.2806682967954606,16.093099742695042,16.093099742695042,32.186199485390084,57.681155381432674,57.681155381432674,186.7262508417781,186.7262508417781
0.3338322402231997,0.04842871828608907,1.8710441273930016,1.8710441273930016,9.020087064383317,9.020087064383317,18.040174128766633,33.8312806122242,33.8312806122242,88.23061156944875,88.23061156944875
0.36922152332164915,0.06200047891328281,1.6215688631955638,1.6215688631955638,5.534751689850145,5.534751689850145,11.06950337970029,20.22154770288622,20.22154770288622,34.31948420136963,34.31948420136963
0.406204215219371,0.07830990816094346,1.4505499191525184,1.4505499191525184,3.9418785805962435,3.9418785805962435,7.883757161192487,12.537686794088595,12.537686794088595,7.515711096170208,7.515711096170208
0.44474418070100885,0.09769924233492507,1.3136500718970259,1.3136500718970259,3.265150255326496,3.265150255326496,6.530300510652992,8.19397317704267,8.19397317704267,-3.9568908488577907,-3.9568908488577907
0.4848037629605866,0.12052324201513674,1.1894039150905802,1.1894039150905802,2.976486552679212,2.976486552679212,5.952973105358424,5.692489142065196,5.692489142065196,-7.434989664053456,-7.434989664053456
0.526343820395959,0.14714623524712828,1.0693480082039355,1.0693480082039355,2.8127077419657827,2.8127077419657827,5.625415483931565,4.192335276463069,4.192335276463069,-7.186472897824725,-7.186472897824725
0.5693237648538862,0.17793886609888354,0.9517241498226694,0.9517241498226694,2.6583314868512975,2.6583314868512975,5.316662973702595,3.2348510497093113,3.2348510497093113,-5.52549505064562,-5.52549505064562
0.6137016012883958,0.21327457524270205,0.8377227522360968,0.8377227522360968,2.4745764339340184,2.4745764339340184,4.949152867868037,2.576178242515953,2.576178242515953,-3.602773164034975,-3.602773164034975
0.6594339687937172,0.2535258424630932,0.7294102268333053,0.7294102268333053,2.2586289593142044,2.2586289593142044,4.517257918628409,2.0892892816325035,2.0892892816325035,-1.9184244358486884,-1.9184244358486884
0.7064761829717416,0.29906022397670146,0.6287042108104334,0.6287042108104334,2.0216563239490326,2.0216563239490326,4.043312647898065,1.7087322101190048,1.7087322101190048,-0.6332717995997874,-0.6332717995997874
0.7547822795925847,0.3502362201471105,0.5369595530813921,0.5369595530813921,1.7778450302451192,1.7778450302451192,3.5556900604902384,1.4005212097630135,1.4005212097630135,0.2528252935039431,0.2528252935039431
0.8043050595056416,0.40739901156274055,0.4548832622347929,0.4548832622347929,1.539586223141718,1.539586223141718,3.079172446283436,1.146272343595662,1.146272343595662,0.8046193917919594,0.8046193917919594
0.8549961347572377,0.47087610349097464,0.38260698341330285,0.38260698341330285,1.3158792965147645,1.3158792965147645,2.631758593029529,0.9351327662218079,0.9351327662218079,1.1029741408493274,1.1029741408493274
0.9068059758698115,0.540972920407968,0.31981891182429356,0.31981891182429356,1.1122775869504269,1.1122775869504269,2.2245551739008538,0.7598330868421617,0.7598330868421617,1.2229158145225303,1.2229158145225303
0.959683960236474,0.6179683936118613,0.26590319738187124,0.26590319738187124,0.9314648920207417,0.9314648920207417,1.8629297840414833,0.6148459577934307,0.6148459577934307,1.2256250030708877,1.2256250030708877
1.013578421583618,0.7021105858415834,0.22006249039038445,0.22006249039038445,0.7739983916975934,0.7739983916975934,1.5479967833951869,0.4955775563485195,0.4955775563485195,1.1572258135446807,1.1572258135446807
1.0684367004532835,0.7936123973332515,0.18141487949581497,0.18141487949581497,0.6390036625209509,0.6390036625209509,1.2780073250419017,0.39803917964417995,0.39803917964417995,1.0505042400017992,1.0505042400017992
1.1242051956559371,0.8926473978459792,0.14906465700435548,0.14906465700435548,0.5247407885546844,0.5247407885546844,1.0494815771093688,0.3187248762002114,0.3187248762002114,0.9275710538241678,0.9275710538241678
1.1808294166433977,0.9993458288675884,0.12215013886637971,0.12215013886637971,0.4290270156086462,0.4290270156086462,0.8580540312172924,0.2545659455192937,0.2545659455192937,0.8025293162403907,0.8025293162403907
1.2382540367507402,1.1137908194779746,0.09987308910306876,0.09987308910306876,0.3495309694782862,0.3495309694782862,0.6990619389565724,0.20290601878981762,0.20290601878981762,0.6837627969440132,0.6837627969440132
1.2964229472551563,1.236014858197797,0.08151432974112091,0.08151432974112091,0.2839636529234963,0.2839636529234963,0.5679273058469926,0.16147551013624578,0.16147551013624578,0.5757416288182893,0.5757416288182893
1.3552793121989417,1.3659965615959724,0.06643955308179113,0.06643955308179113,0.2301921490152367,0.2301921490152367,0.4603842980304734,0.1283600049121819,0.1283600049121819,0.4803703434715035,0.4803703434715035
1.4147656239230568,1.50365777847778,0.054098584359246304,0.054098584359246304,0.18629860291376457,0.18629860291376457,0.37259720582752914,0.10196342827360784,0.10196342827360784,0.3979527158053469,0.3979527158053469
1.474823759256994,1.6488610661468381,0.044020573891255646,0.044020573891255646,0.15060244781145052,0.15060244781145052,0.30120489562290104,0.08096868805085836,0.08096868805085836,0.32785777667412896,0.32785777667412896
1.535395036310053,1.8014075725374594,0.035806922762405345,0.035806922762405345,0.12165933811634597,0.12165933811634597,0.24331867623269193,0.06429846325592631,0.06429846325592631,0.26896377008833594,0.26896377008833594
1.5964202718085274,1.9610353549801922,0.02912319695554139,0.02912319695554139,0.09824641177321586,0.09824641177321586,0.19649282354643172,0.05107814253822402,0.05107814253822402,0.21994309522986671,0.21994309522986671
1.657839838922794,2.1274181630103417,0.023690861325444148,0.023690861325444148,0.07934047077130492,0.07934047077130492,0.15868094154260984,0.04060215564104918,0.04060215564104918,0.17943689367979804,0.17943689367979804
1.7195937255277713,2.300164708986994,0.019279351692623157,0.019279351692623157,0.06409339767671635,0.06409339767671635,0.1281867953534327,0.03230429882538182,0.03230429882538182,0.1461552709868164,0.1461552709868164
1.7816215928398775,2.4788184463902843,0.015698780402881758,0.015698780402881758,0.05180749399727124,0.05180749399727124,0.10361498799454248,0.025732187866001177,0.025732187866001177,0.11892891115832799,0.11892891115832799
1.8438628343731267,2.66285787153279,0.012793417819219211,0.012793417819219211,0.04191229513500818,0.04191229513500818,0.08382459027001636,0.02052566822772557,0.02052566822772557,0.09673001929490357,0.09673001929490357
1.9062566351568169,2.8516973601089757,0.010435991679088938,0.010435991679088938,0.03394366016948311,0.03394366016948311,0.06788732033896622,0.01639883742556838,0.01639883742556838,0.07867476856691476,0.07867476856691476
1.9687420311569137,3.0446885455215633,0.008522783556990753,0.008522783556990753,0.027525448150036262,0.027525448150036262,0.055050896300072524,0.013125252815787207,0.013125252815787207,0.0640153105959761,0.0640153105959761
2.0312579688430867,3.2411222413439784,0.006969465495600796,0.006969465495600796,0.022353794557868425,0.022353794557868425,0.04470758911573685,0.01052587788427771,0.01052587788427771,0.052126535857812864,0.052126535857812864
2.093743364843183,3.440230905600908,0.005707601681659131,0.005707601681659131,0.018183831416314723,0.018183831416314723,0.03636766283262945,0.008459337561522473,0.008459337561522473,0.04249081031088246,0.04249081031088246
2.156137165626874,3.6411916398498243,0.004681733615000854,0.004681733615000854,0.014818608355137698,0.014818608355137698,0.029637216710275395,0.006814091176666642,0.006814091176666642,0.03468260507467934,0.03468260507467934
2.2183784071601225,3.843129711345404,0.003846968118868782,0.003846968118868782,0.012099938999066211,0.012099938999066211,0.024199877998132422,0.00550217896261433,0.00550217896261433,0.028354081365445875,0.028354081365445875
2.280406274472229,4.045122581912011,0.003166992697878527,0.003166992697878527,0.009900896287615743,0.009900896287615743,0.019801792575231486,0.00445424734074878,0.00445424734074878,0.023222149866953073,0.023222149866953073
2.342160161077207,4.246204422587664,0.002612450101417087,0.002612450101417087,0.00811969769013566,0.00811969769013566,0.01623939538027132,0.0036156053227204164,0.0036156053227204164,0.01905719023314806,0.01905719023314806
2.403579728191473,4.445371088655779,0.0021596121514304368,0.0021596121514304368,0.006674747647154202,0.006674747647154202,0.013349495294308403,0.0029431070467514733,0.0029431070467514733,0.01567342115815283,0.01567342115815283
2.4646049636899487,4.641585525416129,0.0017893011085067104,0.0017893011085067104,0.005500634243925305,0.005500634243925305,0.01100126848785061,0.002402692786076185,0.002402692786076185,0.012920805386730615,0.012920805386730615
2.5251762407430074,4.833783570970134,0.001486014591225243,0.001486014591225243,0.00454490670049567,0.00454490670049567,0.00908981340099134,0.0019674525836831987,0.0019674525836831987,0.010678324027465937,0.010678324027465937
2.585234376076944,5.020880118477781,0.0012372170761834518,0.0012372170761834518,0.0037654878551004168,0.0037654878551004168,0.0075309757102008336,0.0016161032835970185,0.0016161032835970185,0.008848438526291372,0.008848438526291372
2.6447206878010583,5.201775596789927,0.0010327671860538156,0.0010327671860538156,0.0031286005059283453,0.0031286005059283453,0.0062572010118566905,0.0013317916726529393,0.0013317916726529393,0.0073525622631932346,0.0073525622631932346
2.7035770527448437,5.375362725121524,0.0008644553102807332,0.0008644553102807332,0.0026071079434259476,0.0026071079434259476,0.005214215886851895,0.0011011543323225818,0.0011011543323225818,0.006127377748878135,0.006127377748878135
2.7617459632492602,5.5405334945329185,0.0007256306421304446,0.0007256306421304446,0.0021791872892555197,0.0021791872892555197,0.004358374578511039,0.0009135792454785595,0.0009135792454785595,0.005121854098317497,0.005121854098317497
2.8191705833566036,5.696186326451521,0.0006109005300741533,0.0006109005300741533,0.0018272695904886858,0.0018272695904886858,0.0036545391809773716,0.0007606257841406444,0.0007606257841406444,0.0042948394149885626,0.0042948394149885626
2.8757948043440633,5.841233356329137,0.0005158882162975934,0.0005158882162975934,0.0015371933217961872,0.0015371933217961872,0.0030743866435923744,0.0006355689338552964,0.0006355689338552964,0.0036131219887540777,0.0036131219887540777
2.931563299546716,5.974607788793749,0.00043703765758263725,0.00043703765758263725,0.0012975283762583618,0.0012975283762583618,0.0025950567525167235,0.0005330409303675285,0.0005330409303675285,0.0030498717877585034,0.0030498717877585034
2.9864215784163815,6.0952712693651065,0.00037145627666425074,0.00037145627666425074,0.0010990361211841923,0.0010990361211841923,0.0021980722423683846,0.0004487492670562715,0.0004487492670562715,0.002583389185611113,0.002583389185611113
3.040316039763526,6.202221216938,0.00031678825068636146,0.00031678825068636146,0.0009342379758655741,0.0009342379758655741,0.0018684759517311482,0.00037925458570799,0.00037925458570799,0.002196101127068658,0.002196101127068658
3.093194024130188,6.294498060843284,0.00027111237396444974,0.00027111237396444974,0.0007970705141368351,0.0007970705141368351,0.0015941410282736702,0.00032179554077683227,0.00032179554077683227,0.0018737561064380885,0.0018737561064380885
3.1450038652427623,6.371192326352183,0.00023285969223971892,0.00023285969223971892,0.0006826095479130483,0.0006826095479130483,0.0013652190958260966,0.00027415053233148865,0.00027415053233148865,0.0016047786159640116,0.0016047786159640116
3.195694940494358,6.431451513012207,0.00020074704367571274,0.00020074704367571274,0.0005868492131220205,0.0005868492131220205,0.001173698426244041,0.00023452839908731692,0.00023452839908731692,0.0013797513563455954,0.0013797513563455954
3.2452177204074157,6.474486711185004,0.00017372339885096346,0.00017372339885096346,0.0005065249270694127,0.0005065249270694127,0.0010130498541388254,0.00020148188069059604,0.00020148188069059604,0.0011909997310051712,0.0011909997310051712
3.293523817028259,6.499578903597812,0.00015092650186980273,0.00015092650186980273,0.0004389713566882482,0.0004389713566882482,0.0008779427133764964,0.00017383900112718752,0.00017383900112718752,0.0010322581971428412,0.0010322581971428412
3.340566031206282,6.506084900605731,0.00013164780541081886,0.00013164780541081886,0.00038200834495392397,0.00038200834495392397,0.0007640166899078479,0.00015064857433335537,0.00015064857433335537,0.0008984021231014122,0.0008984021231014122
3.386298398711604,6.493442860175955,0.00011530408696126542,0.00011530408696126542,0.0003338491809261073,0.0003338491809261073,0.0006676983618522146,0.00013113685292278355,0.00013113685292278355,0.0007852320791095668,0.0007852320791095668
3.4306762351461133,6.46117734635059,0.00010141445031026861,0.00010141445031026861,0.00029302674233024225,0.00029302674233024225,0.0005860534846604845,0.00011467298169312916,0.00011467298169312916,0.0006893001162112423,0.0006893001162112423
3.473656179604042,6.408903883065659,8.95816707429175e-05,8.95816707429175e-05,0.00025833394844595656,0.00025833394844595656,0.0005166678968919131,0.0001007414185752415,0.0001007414185752415,0.0006077696905174292,0.0006077696905174292
3.5151962370394143,6.336332963715232,7.947704654741163e-05,7.947704654741163e-05,0.00022877568342179167,0.00022877568342179167,0.00045755136684358334,8.891987766225907e-05,8.891987766225907e-05,0.000538302569339281,0.000538302569339281
3.555255819298991,6.2432734806949615,7.082808330843581e-05,7.082808330843581e-05,0.00020352992434609365,0.00020352992434609365,0.0004070598486921873,7.886165587125102e-05,7.886165587125102e-05,0.00047896739597408,0.00047896739597408
3.593795784780629,6.129635543319241,6.340846897629158e-05,6.340846897629158e-05,0.00018191626500580938,0.00018191626500580938,0.00036383253001161876,7.028144532812597e-05,7.028144532812597e-05,0.00042816565877142716,0.00042816565877142716
3.6307784766783526,5.995432656959567,5.702990327642868e-05,5.702990327642868e-05,0.00016337038952259192,0.00016337038952259192,0.00032674077904518384,6.294392228144178e-05,6.294392228144178e-05,0.00038457166231316726,0.00038457166231316726
3.6661677597768016,5.840783240934902,5.153542979984016e-05,5.153542979984016e-05,0.00014742333922988131,0.00014742333922988131,0.00029484667845976263,5.6654551579708736e-05,5.6654551579708736e-05,0.00034708377801834857,0.00034708377801834857
3.6999290557591826,5.665911467586534,4.679398721640184e-05,4.679398721640184e-05,0.00013368464652271938,0.00013368464652271938,0.00026736929304543877,5.125216232180534e-05,5.125216232180534e-05,0.00031478479338131174,0.00031478479338131174
3.7320293769943294,5.471147410049974,4.269595078778122e-05,4.269595078778122e-05,0.00012182859308627202,0.00012182859308627202,0.00024365718617254403,4.660294209392186e-05,4.660294209392186e-05,0.0002869096114246453,0.0002869096114246453
3.762437358770037,5.256926491423128,3.914947937409925e-05,3.914947937409925e-05,0.00011158299649032253,0.00011158299649032253,0.00022316599298064505,4.259556960538301e-05,4.259556960538301e-05,0.0002628188971573128,0.0002628188971573128
3.7911232899414538,5.023788233337744,3.607751855215922e-05,3.607751855215922e-05,0.00010272004623616387,0.00010272004623616387,0.00020544009247232774,3.913726271682707e-05,3.913726271682707e-05,0.00024197754366608038,0.00024197754366608038
3.818059141965059,4.772374307272917,3.34153389933957e-05,3.34153389933957e-05,9.504880399377618e-05,9.504880399377618e-05,0.00019009760798755236,3.615056408720058e-05,3.615056408720058e-05,0.00022393705108629902,0.00022393705108629902
3.8432185962906678,4.503425897323844,3.11085122491019e-05,3.11085122491019e-05,8.840905775751025e-05,8.840905775751025e-05,0.0001768181155150205,3.357072250666326e-05,3.357072250666326e-05,0.00020832108834499945,0.00020832108834499945
3.866577070086159,4.217780388492285,2.911124465054073e-05,2.911124465054073e-05,8.266627977654946e-05,8.266627977654946e-05,0.00016533255955309892,3.134355643082323e-05,3.134355643082323e-05,0.00019481364918643072,0.00019481364918643072
3.888111740272512,3.9163673999353645,2.738500502717049e-05,2.738500502717049e-05,7.770748639935441e-05,7.770748639935441e-05,0.00015541497279870881,2.942370885480768e-05,2.942370885480768e-05,0.0001831493276863171,0.0001831493276863171
3.9078015658509835,3.600204188057259,2.5897394079055276e-05,2.5897394079055276e-05,7.343783680746473e-05,7.343783680746473e-05,0.00014687567361492947,2.7773220693038395e-05,2.7773220693038395e-05,0.00017310532989059726,0.00017310532989059726
3.925627308511631,3.270390450148192,2.462121307262634e-05,2.462121307262634e-05,6.977783891189319e-05,6.977783891189319e-05,0.00013955567782378639,2.636036422836302e-05,2.636036422836302e-05,0.00016449491187814328,0.00016449491187814328
3.941571551527413,2.928102566337664,2.3533697514468754e-05,2.3533697514468754e-05,6.666105596519612e-05,6.666105596519612e-05,0.00013332211193039224,2.5158689722779075e-05,2.5158689722779075e-05,0.00015716199403080925,0.00015716199403080925
3.9556187169738366,2.5745873287834193,2.261588795892856e-05,2.261588795892856e-05,6.403222791609362e-05,6.403222791609362e-05,0.00012806445583218723,2.4146247540630465e-05,2.4146247540630465e-05,0.00015097674945663327,0.00015097674945663327
3.967755081412114,2.2111552324411363,2.1852115413056204e-05,2.1852115413056204e-05,6.18457381657376e-05,6.18457381657376e-05,0.0001236914763314752,2.3304955595853843e-05,2.3304955595853843e-05,0.0001458320036275474,0.0001458320036275474
3.9779687904859835,1.839173483549114,2.1229583145155888e-05,2.1229583145155888e-05,6.006436992990726e-05,6.006436992990726e-05,0.00012012873985981453,2.262008796467479e-05,2.262008796467479e-05,0.00014164031414049306,0.00014164031414049306
3.986249874074887,1.4600592327274482,2.0738030235656667e-05,2.0738030235656667e-05,5.865830738955563e-05,5.865830738955563e-05,0.00011731661477911126,2.2079865362817577e-05,2.2079865362817577e-05,0.00013833162531632276,0.00013833162531632276
3.99259026946625,1.075275581443171,2.0369464876595058e-05,2.0369464876595058e-05,5.76043451272947e-05,5.76043451272947e-05,0.0001152086902545894,2.167513188031668e-05,2.167513188031668e-05,0.0001358514118898584,0.0001358514118898584
3.996983901279192,0.6863513479351319,2.011795561996153e-05,2.011795561996153e-05,5.6885270447597695e-05,5.6885270447597695e-05,0.00011377054089519539,2.1399103185658043e-05,2.1399103185658043e-05,0.00013415922860538849,0.00013415922860538849
3.9994274535468826,0.29532949367838873,1.997943785228972e-05,1.997943785228972e-05,5.6489295224890576e-05,5.6489295224890576e-05,0.00011297859044978115,2.1247137977955587e-05,2.1247137977955587e-05,0.00013322737552125114,0.00013322737552125114
4.00001431571043,0.00738751897993723,1.994631421328425e-05,1.994631421328425e-05,5.639461154470905e-05,5.639461154470905e-05,0.0001127892230894181,2.1210804645935323e-05,2.1210804645935323e-05,0.0001330045539424696,0.0001330045539424696
4.000075459366244,0.017211283345965063,1.994286634187854e-05,1.994286634187854e-05,5.638475595277052e-05,5.638475595277052e-05,0.00011276951190554105,2.1207022807467458e-05,2.1207022807467458e-05,0.00013298136048976896,0.00013298136048976896
4.000185587050853,0.02708451606911893,1.993665779651722e-05,1.993665779651722e-05,5.636700915186496e-05,5.636700915186496e-05,0.00011273401830372992,2.120021295442437e-05,2.120021295442437e-05,0.00013293959640966658,0.00013293959640966658
4.000344938886409,0.037014106828070346,1.99276776555128e-05,1.99276776555128e-05,5.634134002382186e-05,5.634134002382186e-05,0.00011268268004764372,2.1190363216150094e-05,2.1190363216150094e-05,0.00013287918844573138,0.00013287918844573138
4.0005538306274975,0.04701943857854893,1.9915911927904733e-05,1.9915911927904733e-05,5.630770872308478e-05,5.630770872308478e-05,0.00011261541744616956,2.1177458405025924e-05,2.1177458405025924e-05,0.00013280004279165843,0.00013280004279165843
4.000812674117386,0.05712105669184244,1.9901342434544934e-05,1.9901342434544934e-05,5.6266063479547566e-05,5.6266063479547566e-05,0.00011253212695909513,2.1161478790474013e-05,2.1161478790474013e-05,0.00013270203756697197,0.00013270203756697197
4.001121980812653,0.06734006163565677,1.988394665542003e-05,1.988394665542003e-05,5.62163401637344e-05,5.62163401637344e-05,0.0001124326803274688,2.1142399933217083e-05,2.1142399933217083e-05,0.0001325850217933276,0.0001325850217933276
4.00148236427295,0.07769810591986785,1.9863697647198135e-05,1.9863697647198135e-05,5.615846205312144e-05,5.615846205312144e-05,0.00011231692410624288,2.1120192597004257e-05,2.1120192597004257e-05,0.0001324488148440584,0.0001324488148440584
4.001894542849931,0.08821747290177945,1.9840563962064212e-05,1.9840563962064212e-05,5.609233960256976e-05,5.609233960256976e-05,0.00011218467920513951,2.109482266221094e-05,2.109482266221094e-05,0.00013229320590328231,0.00013229320590328231
4.002359342781238,0.09892117587753343,1.9814509557043164e-05,1.9814509557043164e-05,5.601787018801963e-05,5.601787018801963e-05,0.00011203574037603927,2.1066251029491408e-05,2.1066251029491408e-05,0.00013211795336196347,0.00013211795336196347
4.002877701753491,0.10983306690345841,1.978549369117339e-05,1.978549369117339e-05,5.59349378159364e-05,5.59349378159364e-05,0.0001118698756318728,2.1034433510622577e-05,2.1034433510622577e-05,0.00013192278413324624,0.00013192278413324624
4.0034506729723836,0.12097795354203275,1.9753470809528495e-05,1.9753470809528495e-05,5.584341279567706e-05,5.584341279567706e-05,0.00011168682559135413,2.099932070547575e-05,2.099932070547575e-05,0.0001317073928803906,0.0001317073928803906
4.004079429774321,0.1323817237590272,1.9718390413483023e-05,1.9718390413483023e-05,5.574315137308891e-05,5.574315137308891e-05,0.00011148630274617781,2.0960857864495612e-05,2.0960857864495612e-05,0.0001314714411533229,0.0001314714411533229
4.004765270816137,0.1440714798275862,1.968019691671356e-05,1.968019691671356e-05,5.563399532393259e-05,5.563399532393259e-05,0.00011126799064786518,2.0918984736177294e-05,2.0918984736177294e-05,0.00013121455643047672,0.00013121455643047672
4.005509625883514,0.15607568237628344,1.9638829486435052e-05,1.9638829486435052e-05,5.5515771505750256e-05,5.5515771505750256e-05,0.00011103154301150051,2.0873635399047862e-05,2.0873635399047862e-05,0.0001309363310626621,0.0001309363310626621
4.006314062363755,0.16842430590891175,1.9594221869354746e-05,1.9594221869354746e-05,5.538829136675826e-05,5.538829136675826e-05,0.00011077658273351652,2.082473807764752e-05,2.082473807764752e-05,0.0001306363211156033,0.0001306363211156033
4.007180292434394,0.18114900729862377,1.954630220179803e-05,1.954630220179803e-05,5.525135041027076e-05,5.525135041027076e-05,0.00011050270082054153,2.077221494198314e-05,2.077221494198314e-05,0.00013031404510761,0.00013031404510761
4.008110181025599,0.19428330894367132,1.9494992803433377e-05,1.9494992803433377e-05,5.510472761309228e-05,5.510472761309228e-05,0.00011020945522618456,2.071598188990665e-05,2.071598188990665e-05,0.00012996898263868377,0.00012996898263868377
4.009105754621647,0.20786279847833092,1.9440209953995843e-05,1.9440209953995843e-05,5.494818479624591e-05,5.494818479624591e-05,0.00010989636959249182,2.065594831184968e-05,2.065594831184968e-05,0.00012960057290719063,0.00012960057290719063
4.010169210974817,0.22192534716712772,1.938186365238848e-05,1.938186365238848e-05,5.478146594635981e-05,5.478146594635981e-05,0.00010956293189271963,2.059201683733671e-05,2.059201683733671e-05,0.00012920821311012326,0.00012920821311012326
4.011302929814199,0.236511349380278,1.9319857357522416e-05,1.9319857357522416e-05,5.4604296485990884e-05,5.4604296485990884e-05,0.00010920859297198177,2.052408306269002e-05,2.052408306269002e-05,0.00012879125672286923,0.00012879125672286923
4.012509484642056,0.25166398585812416,1.9254087710251028e-05,1.9254087710251028e-05,5.441638249116339e-05,5.441638249116339e-05,0.00010883276498232678,2.045203525934856e-05,2.045203525934856e-05,0.00012834901165439608,0.00012834901165439608
4.013791655721869,0.2674295138309918,1.9184444235754513e-05,1.9184444235754513e-05,5.421740985441805e-05,5.421740985441805e-05,0.0001084348197088361,2.037575406223987e-05,2.037575406223987e-05,0.00012788073827379862,0.00012788073827379862
4.015152444375078,0.28385758747428175,1.9110809025747184e-05,1.9110809025747184e-05,5.400704339172848e-05,5.400704339172848e-05,0.00010801408678345697,2.0295112137678915e-05,2.0295112137678915e-05,0.00012738564730429487,0.00012738564730429487
4.016595088718118,0.3010016126581342,1.9033056399912076e-05,1.9033056399912076e-05,5.378492589175348e-05,5.378492589175348e-05,0.00010756985178350695,2.0209973830323173e-05,2.0209973830323173e-05,0.00012686289758101114,0.00012686289758101114
4.018123080987839,0.3189191405067237,1.8951052546019157e-05,1.8951052546019157e-05,5.355067710606077e-05,5.355067710606077e-05,0.00010710135421212154,2.0120194788791935e-05,2.0120194788791935e-05,0.00012631159366928533,0.00012631159366928533
4.019740186622074,0.3376723049273002,1.8864655138261282e-05,1.8864655138261282e-05,5.3303892679205174e-05,5.3303892679205174e-05,0.00010660778535841035,2.0025621569667896e-05,2.0025621569667896e-05,0.00012573078334078826,0.00012573078334078826
4.021450465283388,0.35732831002044824,1.877371293345057e-05,1.877371293345057e-05,5.30441430178777e-05,5.30441430178777e-05,0.0001060882860357554,1.992609121974528e-05,1.992609121974528e-05,0.00012511945490554174,0.00012511945490554174
4.0232582940382144,0.3779599741585028,1.8678065344863638e-05,1.8678065344863638e-05,5.2770972098790005e-05,5.2770972098790005e-05,0.00010554194419758001,1.9821430836579793e-05,1.9821430836579793e-05,0.0001244765343989525,0.0001244765343989525
4.025168392931186,0.39964633854174625,1.857754199371823e-05,1.857754199371823e-05,5.2483896215543264e-05,5.2483896215543264e-05,0.00010496779243108653,1.971145710764254e-05,1.971145710764254e-05,0.00012380088262434677,0.00012380088262434677
4.02718585322601,0.4224733492399373,1.847196223851282e-05,1.847196223851282e-05,5.218240266547951e-05,5.218240266547951e-05,0.00010436480533095902,1.9595975828691162e-05,1.9595975828691162e-05,0.00012309129205323804,0.00012309129205323804
4.029316168620389,0.446534623131168,1.8361134682780867e-05,1.8361134682780867e-05,5.186594837846717e-05,5.186594837846717e-05,0.00010373189675693433,1.9474781402365082e-05,1.9474781402365082e-05,0.0001223464835877886,0.0001223464835877886
4.031565269783964,0.47193230980301204,1.8244856662214998e-05,1.8244856662214998e-05,5.153395849077105e-05,5.153395849077105e-05,0.0001030679169815421,1.9347656318501384e-05,1.9347656318501384e-05,0.00012156510319272983,0.00012156510319272983
4.033939562615975,0.49877806342865516,1.8122913712623304e-05,1.8122913712623304e-05,5.118582486865385e-05,5.118582486865385e-05,0.0001023716497373077,1.921437061827567e-05,1.921437061827567e-05,0.00012074571840750425,0.00012074571840750425
4.036445970674366,0.5271941409328899,1.799507902081038e-05,1.799507902081038e-05,5.082090458821278e-05,5.082090458821278e-05,0.00010164180917642556,1.9074681345021002e-05,1.9074681345021002e-05,0.00011988681475374232,0.00011988681475374232
4.039091982291565,0.5573146454910108,1.786111286125977e-05,1.786111286125977e-05,5.0438518380254765e-05,5.0438518380254765e-05,0.00010087703676050953,1.8928331985501256e-05,1.8928331985501256e-05,0.00011898679205856804,0.00011898679205856804
4.04188570296578,0.5892869376447101,1.7720762022457968e-05,1.7720762022457968e-05,5.003794905183247e-05,5.003794905183247e-05,0.00010007589810366494,1.8775051906540097e-05,1.8775051906540097e-05,0.00011804396072083251,0.00011804396072083251
4.044835913701994,0.6232732401808315,1.757375922788771e-05,1.757375922788771e-05,4.961843989952844e-05,4.961843989952844e-05,9.923687979905687e-05,1.861455579328478e-05,1.861455579328478e-05,0.00011705653795549355,0.00011705653795549355
4.047952136076127,0.6594524675326873,1.7419822558172458e-05,1.7419822558172458e-05,4.9179193133806295e-05,4.9179193133806295e-05,9.835838626761259e-05,1.844654309705849e-05,1.844654309705849e-05,0.00011602264406127666,0.00011602264406127666
4.051244704911571,0.698022315994394,1.725865488263045e-05,1.725865488263045e-05,4.871936833890798e-05,4.871936833890798e-05,9.743873667781596e-05,1.8270697502789524e-05,1.8270697502789524e-05,0.00011494029876885054,0.00011494029876885054
4.054724849592552,0.7392016576856644,1.7089943310663795e-05,1.7089943310663795e-05,4.82380809990536e-05,4.82380809990536e-05,9.64761619981072e-05,1.8086686428472215e-05,1.8086686428472215e-05,0.00011380741774147335,0.00011380741774147335
4.0584047851972125,0.7832332892234115,1.691335867604316e-05,1.691335867604316e-05,4.773440112932238e-05,4.773440112932238e-05,9.546880225864476e-05,1.7894160572097185e-05,1.7894160572097185e-05,0.00011262180931794032,0.00011262180931794032
4.062297814819431,0.8303870957577623,1.6728555070350072e-05,1.6728555070350072e-05,4.7207352058831676e-05,4.7207352058831676e-05,9.441470411766335e-05,1.7692753525093538e-05,1.7692753525093538e-05,0.00011138117160934157,0.00011138117160934157
4.066418444667518,0.8809637028112557,1.653516944571959e-05,1.653516944571959e-05,4.665590942501006e-05,4.665590942501006e-05,9.331181885002013e-05,1.748208147567085e-05,1.748208147567085e-05,0.00011008309008736793,0.00011008309008736793
4.0707825137867735,0.9352987027154814,1.6332821311720916e-05,1.6332821311720916e-05,4.60790004512582e-05,4.60790004512582e-05,9.21580009025164e-05,1.726174303068062e-05,1.726174303068062e-05,0.00010872503583358672,0.00010872503583358672
4.075407340559337,0.993767559998281,1.6121112556889516e-05,1.6121112556889516e-05,4.547550359658133e-05,4.547550359658133e-05,9.095100719316265e-05,1.703131919090731e-05,1.703131919090731e-05,0.00010730436465734696,0.00010730436465734696
4.080311888498799,1.0567913216341538,1.589962743226809e-05,1.589962743226809e-05,4.484424868537789e-05,4.484424868537789e-05,8.968849737075579e-05,1.6790373522245306e-05,1.6790373522245306e-05,0.00010581831733599965,0.00010581831733599965
4.085516954290663,1.12484328464632,1.5667932742557485e-05,1.5667932742557485e-05,4.418401764913947e-05,4.418401764913947e-05,8.836803529827894e-05,1.653845257425967e-05,1.653845257425967e-05,0.00010426402128647077,0.00010426402128647077
4.091045381547971,1.198456806450011,1.5425578300387258e-05,1.5425578300387258e-05,4.349354604008738e-05,4.349354604008738e-05,8.698709208017476e-05,1.627508660843676e-05,1.627508660843676e-05,0.00010263849404363229,0.00010263849404363229
4.096922304372705,1.2782344842259232,1.517209771109945e-05,1.517209771109945e-05,4.2771525510612844e-05,4.2771525510612844e-05,8.554305102122569e-05,1.5999790711320422e-05,1.5999790711320422e-05,0.00010093864900042328,0.00010093864900042328
4.1031754255609325,1.364858980694942,1.4907009569663812e-05,1.4907009569663812e-05,4.201660749280625e-05,4.201660749280625e-05,8.40332149856125e-05,1.5712066383066024e-05,1.5712066383066024e-05,9.91613039596554e-05,9.91613039596554e-05
4.109835335191945,1.4591058377529726,1.4629819168313047e-05,1.4629819168313047e-05,4.122740836047528e-05,4.122740836047528e-05,8.245481672095056e-05,1.541140371012697e-05,1.541140371012697e-05,9.730319316053031e-05,9.730319316053031e-05
4.116935876434644,1.5618587002344146,1.4340020833678703e-05,1.4340020833678703e-05,4.0402516413161105e-05,4.0402516413161105e-05,8.080503282632221e-05,1.5097284252274069e-05,1.5097284252274069e-05,9.536098357716403e-05,9.536098357716403e-05
4.124514566733785,1.6741274744779084,1.4037101036124845e-05,1.4037101036124845e-05,3.954050108912996e-05,3.954050108912996e-05,7.908100217825992e-05,1.4769184799411295e-05,1.4769184799411295e-05,9.333129644508265e-05,9.333129644508265e-05
4.132613084161629,1.7970700768358305,1.3720542442178747e-05,1.3720542442178747e-05,3.8639924893645965e-05,3.8639924893645965e-05,7.727984978729193e-05,1.4426582183195816e-05,1.4426582183195816e-05,9.121073515827116e-05,9.121073515827116e-05
4.141277830710056,1.9320185944190624,1.3389829114009279e-05,1.3389829114009279e-05,3.7699358621500686e-05,3.7699358621500686e-05,7.539871724300137e-05,1.4068959362777728e-05,1.4068959362777728e-05,8.899592089743669e-05,8.899592089743669e-05
4.150560586747533,2.0805108957456566,1.3044453098345096e-05,1.3044453098345096e-05,3.6717400560162073e-05,3.6717400560162073e-05,7.343480112032415e-05,1.3695813043456022e-05,1.3695813043456022e-05,8.668353760296804e-05,8.668353760296804e-05
4.160519273894034,2.244329008200807,1.2683922691506167e-05,1.2683922691506167e-05,3.569270048307451e-05,3.569270048307451e-05,7.138540096614902e-05,1.330666313196288e-05,1.330666313196288e-05,8.427038819619531e-05,8.427038819619531e-05
4.171218847329607,2.425545943526481,1.2307772717589978e-05,1.2307772717589978e-05,3.4623989382019505e-05,3.4623989382019505e-05,6.924797876403901e-05,1.2901064382411194e-05,1.2901064382411194e-05,8.17534642810566e-05,8.17534642810566e-05
4.1827323432490715,2.626583131081955,1.191557721318413e-05,1.191557721318413e-05,3.3510116042323174e-05,3.3510116042323174e-05,6.702023208464635e-05,1.2478620642160955e-05,1.2478620642160955e-05,7.913003192360635e-05,7.913003192360635e-05
4.195142113068191,2.8502812515479223,1.1506964973518812e-05,1.1506964973518812e-05,3.2350091732484544e-05,3.2350091732484544e-05,6.470018346496909e-05,1.2039002165688694e-05,1.2039002165688694e-05,7.639773650301485e-05,7.639773650301485e-05
4.20854128341904,3.0999881071173734,1.108163847997529e-05,1.108163847997529e-05,3.1143144454956226e-05,3.1143144454956226e-05,6.228628890991245e-05,1.1581966524494514e-05,1.1581966524494514e-05,7.355473004197921e-05,7.355473004197921e-05
4.223035490398744,3.379668296729868,1.0639396794007278e-05,1.0639396794007278e-05,2.9888784377194905e-05,2.9888784377194905e-05,5.977756875438981e-05,1.1107383697836083e-05,1.1107383697836083e-05,7.059982483321997e-05,7.059982483321997e-05
4.238744948560845,3.694040998156886,1.0180163062129879e-05,1.0180163062129879e-05,2.8586882214741995e-05,2.8586882214741995e-05,5.717376442948399e-05,1.0615265975640518e-05,1.0615265975640518e-05,6.75326775424266e-05,6.75326775424266e-05
4.255806930572504,4.048754252495632,9.70401732148884e-06,9.70401732148884e-06,2.7237762443909264e-05,2.7237762443909264e-05,5.447552488781853e-05,1.010580333040375e-05,1.010580333040375e-05,6.435400822343071e-05,6.435400822343071e-05
4.274378753397651,4.450607031864893,9.211235311347173e-06,9.211235311347173e-06,2.584231323900588e-05,2.584231323900588e-05,5.168462647801176e-05,9.579404902778441e-06,9.579404902778441e-06,6.106585873127103e-05,6.106585873127103e-05
4.294641392794293,4.907834385474485,8.702333961031303e-06,8.702333961031303e-06,2.4402114895670456e-05,2.4402114895670456e-05,4.880422979134091e-05,9.036747171627692e-06,9.036747171627692e-06,5.767189471751943e-05,5.767189471751943e-05
4.316803881875275,5.43047660178412,8.178124107703078e-06,8.178124107703078e-06,2.2919588126886305e-05,2.2919588126886305e-05,4.583917625377261e-05,8.478829208705347e-06,8.478829208705347e-06,5.417775452705897e-05,5.417775452705897e-05
4.341108694300695,6.03086134169961,7.639770752086206e-06,7.639770752086206e-06,2.1398162871996767e-05,2.1398162871996767e-05,4.2796325743993535e-05,7.907035101750796e-06,7.907035101750796e-06,5.059144658274047e-05,5.059144658274047e-05
4.36783837229109,6.724239220515314,7.0888607228701684e-06,7.0888607228701684e-06,1.9842466961024743e-05,1.9842466961024743e-05,3.9684933922049486e-05,7.323203100359609e-06,7.323203100359609e-06,4.6923793820950127e-05,4.6923793820950127e-05
4.397323739634134,7.529630080945181,6.527476903396052e-06,6.527476903396052e-06,1.825853188254896e-05,1.825853188254896e-05,3.651706376509792e-05,6.7297002068858154e-06,6.7297002068858154e-06,4.3188918853997515e-05,4.3188918853997515e-05
4.429954148123233,8.47096191022932,5.95827706187125e-06,5.95827706187125e-06,1.665400969426715e-05,1.665400969426715e-05,3.33080193885343e-05,6.129499685046492e-06,6.129499685046492e-06,3.940475603515962e-05,3.940475603515962e-05
4.466190353816923,9.578621287378871,5.384573673259419e-06,5.384573673259419e-06,1.503839039464595e-05,1.503839039464595e-05,3.00767807892919e-05,5.52625715273292e-06,5.52625715273292e-06,3.559356555666094e-05,3.559356555666094e-05
4.506580823750569,10.89159027535704,4.810408756493199e-06,4.810408756493199e-06,1.342320238549535e-05,1.342320238549535e-05,2.68464047709907e-05,4.9243784088100035e-06,4.9243784088100035e-06,3.1782409044565236e-05,3.1782409044565236e-05
4.55178255875534,12.460431038605451,4.240614498380328e-06,4.240614498380328e-06,1.182216954343644e-05,1.182216954343644e-05,2.364433908687288e-05,4.3290687738624006e-06,4.3290687738624006e-06,2.800352474927842e-05,2.800352474927842e-05
4.602587920429877,14.351514900015834,3.680846161114221e-06,3.680846161114221e-06,1.0251286569519608e-05,1.0251286569519608e-05,2.0502573139039217e-05,3.7463494279387127e-06,3.7463494279387127e-06,2.4294512612986985e-05,2.4294512612986985e-05
4.659959525503856,16.65310889743658,3.1375684789842e-06,3.1375684789842e-06,8.728759810586193e-06,8.728759810586193e-06,1.7457519621172387e-05,3.1830211079200932e-06,3.1830211079200932e-06,2.0698205453383687e-05,2.0698205453383687e-05
4.725076104107136,19.48428547843621,2.6179707666044637e-06,2.6179707666044637e-06,7.274744683838195e-06,7.274744683838195e-06,1.454948936767639e-05,2.646550053880566e-06,2.646550053880566e-06,1.72620646275898e-05,1.72620646275898e-05
4.799393443146389,23.00820815982069,2.1297802317528678e-06,2.1297802317528678e-06,5.9107959924851196e-06,5.9107959924851196e-06,1.1821591984970239e-05,2.1448464066125443e-06,2.1448464066125443e-06,1.4036903333771137e-05,1.4036903333771137e-05
4.884726364259858,27.45234720659827,1.6809395330890331e-06,1.6809395330890331e-06,4.658939595617069e-06,4.658939595617069e-06,9.317879191234137e-06,1.6859035906825998e-06,1.6859035906825998e-06,1.1074721663928295e-05,1.1074721663928295e-05
4.983360461766845,33.13993106893316,1.2791171326539688e-06,1.2791171326539688e-06,3.5402834202443222e-06,3.5402834202443222e-06,7.0805668404886444e-06,1.2772723933775486e-06,1.2772723933775486e-06,8.425458725020602e-06,8.425458725020602e-06
5.098206619386314,40.540091459719605,9.310333502902524e-07,9.310333502902524e-07,2.5731288203724674e-06,2.5731288203724674e-06,5.146257640744935e-06,9.253612204121876e-07,9.253612204121876e-07,6.132566309446668e-06,6.132566309446668e-06
5.233018100142961,50.350010561890635,6.416192416204125e-07,6.416192416204125e-07,1.7706411928633482e-06,1.7706411928633482e-06,3.5412823857266965e-06,6.345916238393429e-07,6.345916238393429e-07,4.227535851877472e-06,4.227535851877472e-06
5.392700936817001,63.63361570389971,4.130876896065522e-07,4.130876896065522e-07,1.1383123728781292e-06,1.1383123728781292e-06,2.2766247457562584e-06,4.0650199618835184e-07,4.0650199618835184e-07,2.723914906276992e-06,2.723914906276992e-06
5.583766428631327,82.06378345774617,2.440888147695343e-07,2.440888147695343e-07,6.71700037576855e-07,6.71700037576855e-07,1.34340007515371e-06,2.389814451453236e-07,2.389814451453236e-07,1.6119403162172338e-06,1.6119403162172338e-06
5.815005267403357,108.36166945972974,1.292289913669567e-07,1.292289913669567e-07,3.5521306779068876e-07,3.5521306779068876e-07,7.104261355813775e-07,1.2591035575588867e-07,1.2591035575588867e-07,8.555830707602592e-07,8.555830707602592e-07
6.098516618643098,147.12861060663545,5.9301453654584386e-08,5.9301453654584386e-08,1.6287881507727387e-07,1.6287881507727387e-07,3.2575763015454773e-07,5.752948936554159e-08,5.752948936554159e-08,3.9420410636541095e-07,3.9420410636541095e-07
6.4513229919894535,206.50059750595486,2.2504885499789585e-08,2.2504885499789585e-08,6.180490190813907e-08,6.180490190813907e-08,1.2360980381627814e-07,2.176118759121102e-08,2.176118759121102e-08,1.505267066802784e-07,1.505267066802784e-07
6.897985430677477,301.6297756075256,6.597203300546023e-09,6.597203300546023e-09,1.813320822462931e-08,1.813320822462931e-08,3.626641644925862e-08,6.3694831555173956e-09,6.3694831555173956e-09,4.4531027765699516e-08,4.4531027765699516e-08
7.474995276307135,462.50746842537944,1.3485450649968006e-09,1.3485450649968006e-09,3.7149257137944646e-09,3.7149257137944646e-09,7.429851427588929e-09,1.3034265825420739e-09,1.3034265825420739e-09,9.222450073403818e-09,9.222450073403818e-09
8.238468475001351,752.9532232411952,1.6393459200188342e-10,1.6393459200188342e-10,4.53436912657489e-10,4.53436912657489e-10,9.06873825314978e-10,1.5919282289403954e-10,1.5919282289403954e-10,1.1414931659639314e-09,1.1414931659639314e-09
9.278318197110758,1321.1526273435522,9.155737477253963e-12,9.155737477253963e-12,2.5482327302389907e-11,2.5482327302389907e-11,5.0964654604779814e-11,8.971749369898824e-12,8.971749369898824e-12,6.527653165713005e-11,6.527653165713005e-11
10.745980176722668,2550.0624080128855,1.5137487279392605e-13,1.5137487279392605e-13,4.24866449457356e-13,4.24866449457356e-13,8.49732898914712e-13,1.5037107557357025e-13,1.5037107557357025e-13,1.1111314720297644e-12,1.1111314720297644e-12
