SCF iter., E[n] (hartree), E[n_i]/E[n_(i-1)]-1, T, V_ext, U_H, Ex, Ec, Virial Theorem 
0,-0.12192160142400449,-1.0,0.08487554183606934,-0.7515935526319225,0.37647171633050186,-0.1612683837928777,-0.05138317563814327,-2.4364750879527444
1,-0.1220723993001443,0.0012368429743256915,0.08347483786531659,-0.749212499248382,0.37400970858131277,-0.16015896199423044,-0.051161736976529204,-2.4623855813545097
2,-0.12214697431326577,0.0006109080639769005,0.08252873077383593,-0.7475603768179557,0.37231484257592573,-0.15939653815793298,-0.051009885159506545,-2.480053954155684
3,-0.12218540276137319,0.0003146082686327212,0.0818749182154677,-0.7464088102327879,0.3711461084610292,-0.1588694551343932,-0.05090441654305669,-2.492342287778798
4,-0.12220563797575063,0.00016561073516241365,0.0814220189984421,-0.7456132654781205,0.37034876907141007,-0.15850792703166822,-0.05083148600818201,-2.500891767104042
5,-0.12221653275929262,8.915123493857813e-05,0.08110756067074944,-0.7450665388589001,0.3698084541192723,-0.15826109457798018,-0.05078116658480194,-2.5068451294623717
6,-0.12222253186963955,4.908591506813664e-05,0.08088823725309485,-0.7446910812427078,0.3694431022779932,-0.15809264407934578,-0.050746398551041905,-2.511005011608944
7,-0.12222590393274585,2.7589537335837022e-05,0.08073425535733222,-0.7444324655019414,0.3691956499353974,-0.1579773298590984,-0.05072226633680345,-2.5139286711913105
8,-0.12222783248825103,1.5778615196415657e-05,0.08062526738912733,-0.7442532899693877,0.3690272677435756,-0.15789792944017259,-0.050705400683761476,-2.5159990961435748
9,-0.12222895067523637,9.14838267673801e-06,0.08054742632753875,-0.7441281765809635,0.36891188805834296,-0.15784282771423888,-0.05069351323828351,-2.5174780405546855
10,-0.12222960573738634,5.359304373842022e-06,0.08049130634243927,-0.7440400123274659,0.3688321387020534,-0.15780423543448355,-0.050685055492297355,-2.5185441918084566
11,-0.1222299923979337,3.1633951940168714e-06,0.08045046836623773,-0.7439772727525464,0.3687764735864524,-0.15777693512913316,-0.05067897894131197,-2.5193198359206734
12,-0.12223022186815807,1.8773643022385045e-06,0.08042048656507819,-0.7439321780735847,0.36873721178769564,-0.15775742379341454,-0.05067457082630043,-2.5198891114547832
13,-0.12223035857370118,1.1184266952568578e-06,0.0803982941661796,-0.7438994484698637,0.3687092241860581,-0.15774333746767988,-0.050671343460763144,-2.5203103478919164
14,-0.12223044023527313,6.680956587956643e-07,0.08038174599613969,-0.743875473785843,0.36868906463933976,-0.15773306921202562,-0.05066896034525185,-2.5206243497266563
