c0,c1,c2,c3,sigma, SA MAPE X, SA MAPE C, SA MAPE XC,Bx,Bx err (%), Cx, Cx err (%),Bc, Bc error (%), H Exc,H Exc err (%),J.S. sigxc rs=2, % err,J.S. sigxc rs=3, % err,J.S. sigxc rs=4, % err,J.S. sigxc rs=5, % err,J.S. MAPE,J.C. sigxc rs=2, % err,J.C. sigxc rs=3, % err,J.C. sigxc rs=3.25, % err,J.C. sigxc rs=4, % err,J.C. sigxc rs=5, % err,J.C. MAPE,gamma_xc rs=2, % err,gamma_xc rs=3.25, % err,gamma_xc rs=4, % err,gamma_xc MAPE 
0.9002604196040602,0.3887704495145163,0.0,0.0,1.849425846321192,3.009674701327103,4.34402995602188,3.050931438138932,-0.09937391673173401,-55.99592018714784,0.07407131104349851,-70.96612334079721,0.038488844222331786,-0.6296661130480161,-0.30354914159375407,-2.864274689998698,3433.1109730366143,0.5892462067569326,778.6085994856636,-0.30619724895472045,264.75950781387525,-1.2091388754196797,112.36274454218969,-0.563942883017976,0.6671313035373272,3451.840872747243,1.138027329248259,782.7944678546326,0.22976541032426745,586.231667874565,0.6483298219435385,265.83814265956767,-0.8066631867284846,112.6008450806504,-0.3532344419022948,0.6352040380293689,1.3081477963910717,82.90599235576914,0.4102916713846735,141.4997574550365,0.2269679538826484,377.05914900828697,200.4882996063642 
0.9002604196040602,0.38923277707364323,0.0,0.0,1.8494287847197872,3.0091494249526285,4.34402995602188,3.0504200873589515,-0.0993667797140414,-55.999080552629046,0.07402661305701397,-70.98364369798037,0.038488844222331786,-0.6296661130480161,-0.30355316067546595,-2.862988583850896,3433.0288355236203,0.5868395992856712,778.5809134751426,-0.3097421926834154,264.74719039557596,-1.2137349270239017,112.35627312086366,-0.5696698045454363,0.6699966308846061,3451.747849724896,1.13530177922343,782.7650933334787,0.226004268051061,586.2083545089428,0.6443272211954287,265.8254027814489,-0.8114168725937065,112.59422326092538,-0.35909445935807804,0.6352289200843408,1.3081780421114648,82.91022133013908,0.41030827446056883,141.50953010966586,0.22698055883075394,377.08564308251044,200.50179817410512 
0.9002604196040602,0.38830812195538933,0.0,0.0,1.849428972164979,3.010200002758798,4.34402995602188,3.0514428130325264,-0.09938105726969226,-55.99275826284662,0.07411601944424095,-70.94859890151702,0.038488844222331786,-0.6296661130480161,-0.303545122025142,-2.86556095195456,3433.193113462952,0.5916528995884018,778.636286472426,-0.30265218022713647,264.77182564655715,-1.2045426691950967,112.36921615247098,-0.5582157942734645,0.6642658858210249,3451.9338956763077,1.1407528765399189,782.8238424503879,0.23352656214954415,586.2549813038344,0.6523324336190406,265.8508825550891,-0.8019094943697458,112.60746687256486,-0.3473744490576469,0.6351791631471793,1.3081175752806948,82.90176682238612,0.41027507949007247,141.4899913817737,0.22695535712040424,377.03267213975266,200.4748101146375 
0.9002604196040602,0.3896951046327702,0.0,0.0,1.8494377867399259,3.0086241728811696,4.34402995602188,3.049908759956113,-0.09935964624320626,-56.00223934751503,0.07398192551680616,-71.001159960516,0.038488844222331786,-0.6296661130480161,-0.3035571792723179,-2.8617026328582718,3432.946700873966,0.5844330757095229,778.5532284285924,-0.31328701298432016,264.734873387205,-1.2183308256697667,112.34980188642652,-0.5753965606844935,0.6728618687620258,3451.6548265613765,1.1325762250623095,782.7357188752716,0.2222431338375852,586.1850411981521,0.6403246298611887,265.8126629163961,-0.8161705535835395,112.58760141129068,-0.3649545032825885,0.6352538091254423,1.3082083125173671,82.91445375605137,0.41032488873993833,141.51930935871687,0.22699317197847999,377.11215439134315,200.51530583537047 
0.9002604196040602,0.3878457943962624,0.0,0.0,1.849438162821957,3.010725330003058,4.34402995602188,3.0519542127773223,-0.09938820130129233,-55.98959479151476,0.07416073822719493,-70.93107039270106,0.038488844222331786,-0.6296661130480161,-0.3035411019675837,-2.866847370373211,3433.275256852686,0.5940596792465946,778.6639744477142,-0.2991069849277661,264.7841438980809,-1.1999463066862281,112.37568795377632,-0.5524885364811327,0.6614003768354304,3452.0269185599846,1.1434784225017536,782.8532171324011,0.2372877250193417,586.278294805564,0.6563350577350358,265.86362247234894,-0.797155793899651,112.61408863876797,-0.3415144789663982,0.635154295624436,1.3080873787051845,82.89754471948254,0.4102584987547677,141.48023187692925,0.22694276853036438,377.00621244820195,200.4613296815379 
0.899189825882511,0.3896951046327702,0.0,0.0,1.8494650954363498,3.0116722873796964,4.34402995602188,3.0528760878037935,-0.09940334680796781,-55.98288816158135,0.07424733939843264,-70.89712516223548,0.038488844222331786,-0.6296661130480161,-0.30353234369339427,-2.869650018113834,3433.3711776706655,0.5968701339192917,778.7013638382066,-0.2943196109850721,264.80282726317574,-1.1929749018000924,112.38669892372374,-0.5427443152887235,0.6567272404982949,3452.163091169878,1.1474682440632211,782.8993456460316,0.24319406479278438,586.3156412438857,0.6627469540003927,265.8853483097413,-0.7890491381562392,112.62648797185574,-0.33054161782678504,0.6346000037678845,1.3084065744597484,82.94217485715147,0.41037180743429563,141.54692594003612,0.22701287901935868,377.1535762043799,200.54755900052248 
0.9013310133256095,0.3878457943962624,0.0,0.0,1.8494654834150828,3.007651876579104,4.34402995602188,3.0489621723564535,-0.099344724319818,-56.008846971822635,0.0738946483051075,-71.03537017988326,0.038488844222331786,-0.6296661130480161,-0.3035660584436067,-2.8588612980458628,3432.8471759474633,0.5815170216074694,778.5146699370756,-0.31822407975984346,264.7156802695869,-1.2254924367212983,112.33852411779121,-0.5853768869104381,0.6776526062497623,3451.5141651629456,1.1284548831803631,782.6882288402577,0.21616246354132507,586.1466211926501,0.6337284161159307,265.79035690092167,-0.8244936936859459,112.57490012918728,-0.37619457594045835,0.6358068064928046,1.3078950823148832,82.87065772537412,0.41021426260986915,141.4541942578187,0.22692499186433784,376.96884804929994,200.43123334416427 
0.899189825882511,0.38923277707364323,0.0,0.0,1.8494883191166895,3.0121977964883664,4.34402995602188,3.0533876574626473,-0.09941061764414494,-55.97966853951182,0.0742923984270627,-70.87946328665642,0.038488844222331786,-0.6296661130480161,-0.3035282994025602,-2.870944191180733,3433.4537352047237,0.599289047896967,778.7292215876574,-0.29075267763669643,264.8152287295698,-1.1883474889664902,112.39321696657969,-0.5369761357701841,0.6538413375675844,3452.25661986393,1.1502086101356612,782.9289061929366,0.2469790259841842,586.3391059940978,0.6667755455077362,265.8981756751824,-0.7842628077677549,112.63315731921597,-0.32463954051684674,0.6345731059824367,1.308376808799212,82.93801300503236,0.41035529840641716,141.5372086425462,0.22700030941443847,377.1271564172512,200.53412602160992 
0.9013310133256095,0.38830812195538933,0.0,0.0,1.849488409830914,3.0071268286815225,4.34402995602188,3.0484510364377577,-0.09933772016771636,-56.01194850266934,0.07385030867985698,-71.05275006951263,0.038488844222331786,-0.6296661130480161,-0.3035700526340206,-2.8575831571134103,3432.765459148324,0.5791227409412292,778.4871558507525,-0.3217470101469222,264.7034469655701,-1.230057102399218,112.33209936190067,-0.5910625115923218,0.6804973412699228,3451.421652103066,1.1257442749213586,782.6590414847235,0.21242528613616418,586.1234600872815,0.6297519564670839,265.7777049628569,-0.8292145660981798,112.56832608185918,-0.38201231693877347,0.635829680112312,1.3079257791315224,82.87494977228585,0.41023094700094254,141.46401477497398,0.2269376231382783,376.99539745723996,200.44478733483325 
0.9013310133256095,0.3887704495145163,0.0,0.0,1.8495173189746916,3.006601807019696,4.34402995602188,3.047939925782403,-0.09933071952997352,-56.015048477311666,0.0738059795120698,-71.07012586010964,0.038488844222331786,-0.6296661130480161,-0.3035740463317354,-2.856305173844671,3432.6837453034586,0.5767285468344152,778.4596427485078,-0.32526981453164794,264.69121407772894,-1.2346216127877119,112.32567479564202,-0.5967479684583887,0.6833419856530409,3451.3291389509172,1.1230336639588945,782.6298541973483,0.20868811745817784,586.1002990393418,0.625775506678039,265.7650530372238,-0.8339354338717131,112.56175200379327,-0.3878300851386962,0.6358525614211041,1.3079565008934066,82.87924530705635,0.4102476427399093,141.47384197155682,0.22695026272826443,377.02196434450065,200.45835054103793 
0.899189825882511,0.3887704495145163,0.0,0.0,1.8495176875036448,3.012723329472955,4.34402995602188,3.0538992500828837,-0.09941789200499418,-55.976447356671045,0.07433746782269957,-70.86179734750142,0.038488844222331786,-0.6296661130480161,-0.30352425463062355,-2.872238518200465,3433.536295610128,0.6017080460043456,778.7570803052014,-0.28718562033273054,264.827630608434,-1.183719922226123,112.3997351976736,-0.5312077896693745,0.6509553445581434,3452.3501484610883,1.1529489733691278,782.9584668201179,0.250763997454273,586.3625708135713,0.6708041489063676,265.91100306268874,-0.7794764691459899,112.63982664156507,-0.3187374853406477,0.6345462148432812,1.308347067427894,82.933854549046,0.41033880039942905,141.52749783200824,0.2269877478695696,377.1007535713743,200.52070198414285 
0.9013310133256095,0.38923277707364323,0.0,0.0,1.8495522099888797,3.0060768108426257,4.34402995602188,3.047428839657015,-0.09932372243352194,-56.018146883823555,0.07376166083481905,-71.08749753871056,0.038488844222331786,-0.6296661130480161,-0.3035780395387743,-2.855027347592216,3432.6020343632963,0.5743344378346338,778.4321306181952,-0.3287924944692433,264.678981601655,-1.2391859695317198,112.31925041696947,-0.6024332593190573,0.6861865402886635,3451.236625659188,1.1203230489067684,782.6006669666211,0.20495095603343394,586.0771380401263,0.6217990652543026,265.7524011197367,-0.8386562986057111,112.55517789291152,-0.3936478823791889,0.635875450235881,1.3079872476744019,82.88354434001361,0.4102643498484205,141.48367586031117,0.2269629106477664,377.04854873939485,200.4719229799065 
0.899189825882511,0.38830812195538933,0.0,0.0,1.8495532009209317,3.0132488870920238,4.34402995602188,3.0544108664051857,-0.09942516986423411,-55.97322462469677,0.07438254755435025,-70.84412735691886,0.038488844222331786,-0.6296661130480161,-0.3035202093755212,-2.8735329998332126,3433.6188589373637,0.6041271297205997,778.7849400032452,-0.2836184374846118,264.840032904273,-1.179092199898124,112.4062536190949,-0.5254392751372627,0.6480692605601496,3452.4436770098155,1.155689335183574,782.9880275393753,0.25454898071386456,586.3860357112278,0.6748327657279951,265.92383047664714,-0.7746901206540535,112.64649594102278,-0.31283545042232186,0.6345193305403618,1.3083173502690535,82.92969947846245,0.41032231339082187,141.51779349517307,0.22697519437081484,377.0743676374546,200.50728687036337 
0.9013310133256095,0.3896951046327702,0.0,0.0,1.849593081967489,3.0055518394005105,4.34402995602188,3.0469177773293916,-0.099316728905259,-56.0212437102945,0.07371735268113522,-71.1048650923684,0.038488844222331786,-0.6296661130480161,-0.3035820322571543,-2.853749677710624,3432.520326278329,0.5719404124913341,778.4046194476784,-0.33231505151364304,264.6667495329445,-1.2437501742744383,112.31282622383925,-0.6081183859829586,0.6890310060655935,3451.144112180557,1.1176124283784672,782.5714797810316,0.20121380038817804,586.0539770809289,0.617822630701137,265.73974920610755,-0.8433771619001718,112.54860374713522,-0.3994657104998023,0.6358983463735512,1.308018019548758,82.88784688153935,0.4102810683482798,141.49351645407074,0.22697556691038512,377.0751506705099,200.48550466870665 
0.899189825882511,0.3878457943962624,0.0,0.0,1.849594859640829,3.0137744701052434,4.34402995602188,3.0549225071713453,-0.09943245119555422,-55.970000355239634,0.07442763759100046,-70.8264533270655,0.038488844222331786,-0.6296661130480161,-0.3035161636351841,-2.874827636741095,3433.701425236975,0.6065463005266558,778.8128006942092,-0.28005112750202343,264.8524356215971,-1.1744643202995841,112.41277223293525,-0.519670590322785,0.6451830846627621,3452.53720555859,1.158429696999419,783.0175883625085,0.2583339772738169,586.4095006959918,0.6788613975048374,265.93665792144293,-0.7699037606556214,112.65316521970838,-0.3069334338863805,0.634492453264015,1.3082876572462687,82.92554778259638,0.41030583735821435,141.5080956188669,0.22696264890434786,377.0479985864311,200.49388066263145 
0.8981192321609617,0.3896951046327702,0.0,0.0,1.8496734185848338,3.014696529498234,4.34402995602188,3.055820100667051,-0.09944779849922858,-55.96320436693596,0.07451352774635556,-70.79278679488606,0.038488844222331786,-0.6296661130480161,-0.303507526320517,-2.8775915774345684,3433.793781298389,0.6092523087720236,778.8490312499159,-0.2754121318929714,264.8706131657584,-1.1676816545677537,112.42351831004214,-0.5101607875733216,0.6406267207015176,3452.6689446521755,1.1622896177021724,783.0623702262004,0.2640678906786764,586.4457850684089,0.6850909509093173,265.9578095941315,-0.7620113454733235,112.66526567222346,-0.29622506882880373,0.6339369747184587,1.30861261662606,82.97098379372602,0.41042174610627213,141.5763200954896,0.22703463136437604,377.1992969989916,200.5822002960691 
0.9024016070471588,0.3878457943962624,0.0,0.0,1.8496784511699156,3.004553753861022,4.34402995602188,3.045946036930686,-0.09930205336565501,-56.02774223261574,0.07362943658792087,-71.13932573537288,0.038488844222331786,-0.6296661130480161,-0.30359103222132067,-2.8508696891773866,3432.4171571364386,0.5689175838393901,778.3648814180821,-0.3374031474926986,264.64704266858854,-1.251103481869953,112.30127972196844,-0.6183365292314669,0.6939401856083771,3450.9989052910396,1.1133579048063114,782.5226129566735,0.19495684464450047,586.0144716960689,0.6110400714791853,265.71685682955894,-0.8519190934481613,112.5355973595984,-0.41097578796601697,0.6364499404688351,1.3077109650228442,82.84491433758328,0.4101732107713544,141.43003093758617,0.2269093781546761,376.9360299227025,200.40365839929063 
0.8981192321609617,0.38923277707364323,0.0,0.0,1.8497292102835052,3.0152222726488986,4.34402995602188,3.0563318903421512,-0.09945520415999809,-55.959925042760304,0.07455895049008543,-70.77498235318795,0.038488844222331786,-0.6296661130480161,-0.3035034565168678,-2.878893914602312,3433.876758096986,0.6116835070901327,778.8770605458643,-0.27182323356410576,264.8830986147069,-1.1630229049601093,112.43008293126881,-0.5043513882576844,0.6377202584680081,3452.762974785653,1.1650446758175503,783.0921156928432,0.267876529173261,586.4694003568414,0.6891453878652865,265.97072401364716,-0.757192532221207,112.67198231308883,-0.2902811388594384,0.6339080527873486,1.3085833589089928,82.96689296256076,0.410405343353248,141.56666535191764,0.22702210573597387,377.1729696451775,200.56884265321864 
0.9024016070471588,0.38830812195538933,0.0,0.0,1.849733130089541,3.0040290095038835,4.34402995602188,3.0454351882408996,-0.09929519170950485,-56.03078066437742,0.07358548415060984,-71.15655385818835,0.038488844222331786,-0.6296661130480161,-0.3035950003568043,-2.84959988582262,3432.335870670587,0.5665359118250057,778.3375424111325,-0.34090366054640997,264.6348948000878,-1.2556362686239497,112.29490224727328,-0.6239803121475318,0.6967640382857243,3450.906906278583,1.1106623580012576,782.4936141282801,0.19124380643791294,585.9914639115995,0.6070899350286263,265.7042933271682,-0.8566069674745491,112.52907123948617,-0.41675111549895894,0.636470836488261,1.3077421586867382,82.84927585396962,0.4101899977633123,141.43991184614214,0.22692205167873422,376.9626681352725,200.41728527846143 
0.8981192321609617,0.3887704495145163,0.0,0.0,1.8497912261421943,3.0157480392524807,4.34402995602188,3.0568437025669946,-0.09946261332240547,-55.956644168013256,0.07460438351955023,-70.75717387977022,0.038488844222331786,-0.6296661130480161,-0.3034993862358328,-2.8801964045335104,3433.9597377747914,0.6141147897682719,778.9050908139777,-0.2682342107582891,264.89558447864425,-1.1583640005058737,112.43664774208501,-0.4985418211637005,0.6348137055490338,3452.857004865123,1.1677997323505274,783.1218612566286,0.271685180106096,586.4930157285896,0.6931998391254801,265.9836384640253,-0.7523737074532355,112.67869893375644,-0.2843372267642197,0.6338791371599117,1.3085541250959505,82.96280547367027,0.41038895144367415,141.5570169908555,0.22700958803184085,377.14665894721736,200.55549380391437 
0.9024016070471588,0.3887704495145163,0.0,0.0,1.849793708117784,3.0035042918111987,4.34402995602188,3.0449243652321045,-0.0992883335875765,-56.03381753113911,0.07354154224407328,-71.17377785323555,0.038488844222331786,-0.6296661130480161,-0.30359896799579433,-2.8483302413458134,3432.2545871497305,0.5641543260981763,778.3102043837631,-0.34440404817374093,264.6227473450733,-1.2601689010920403,112.28852496082132,-0.629623928476708,0.6995878009601664,3450.8149071254675,1.1079668070749227,782.4646153494465,0.18753077457700496,585.9684561691299,0.603139805788877,265.69172982768924,-0.8612948404144616,112.52254508352154,-0.42252647475969907,0.6364917405229931,1.3077733777183174,82.85364091728063,0.4102067962972772,141.44979954838198,0.22693473366672662,376.9893241380072,200.43092153455663 
0.8981192321609617,0.38830812195538933,0.0,0.0,1.8498594661759187,3.0162738300718335,4.34402995602188,3.0573555380864317,-0.09947002596049082,-55.9533617541902,0.07464982680480858,-70.73936138636903,0.038488844222331786,-0.6296661130480161,-0.3034953154753261,-2.881499047895648,3434.042720382778,0.6165461582999798,778.9331220667987,-0.2646450618695728,264.908070762126,-1.153704939505229,112.4432127446032,-0.49273208442194294,0.6319070610241811,3452.951034939615,1.170554788737621,783.1516069294973,0.27549384500606955,586.5166311926861,0.69725430624068,265.9965529497033,-0.7475548695136891,112.68541553636757,-0.2783933306481634,0.6338502280292446,1.3085249151089982,82.95872131615769,0.4103725703546763,141.54737499883922,0.22699707823785972,377.12036487543844,200.5421537301451 
0.9024016070471588,0.38923277707364323,0.0,0.0,1.8498601841226305,3.002979600036432,4.34402995602188,3.044413567175239,-0.09928147902710105,-56.03685282084252,0.07349761090238172,-71.19099770715978,0.038488844222331786,-0.6296661130480161,-0.3036029351402903,-2.8470607551071048,3432.173306524793,0.5617728252210075,778.2828673239617,-0.34790431191271676,264.61060029918747,-1.2647013809002017,112.28214786058966,-0.6352673800091524,0.7024114745107696,3450.7229077849674,1.1052712506582907,782.435616608814,0.18381774760742875,585.9454484600622,0.599189682283785,265.67916632688514,-0.8659827138488341,112.51601888964647,-0.4283018675694916,0.636512652393566,1.307804622190107,82.85800953765676,0.41022360639455047,141.4596940568437,0.22694742413195343,377.0159979588619,200.4445671844541 
0.9024016070471588,0.3896951046327702,0.0,0.0,1.8499325569250584,3.002454933434112,4.34402995602188,3.0439027933422986,-0.0992746280552892,-56.03988652143841,0.07345369015960124,-71.20821340660812,0.038488844222331786,-0.6296661130480161,-0.3036069017922861,-2.8457914264684447,3432.0920287467575,0.5593914077573148,778.2555312197305,-0.35140445329955305,264.59845365807723,-1.2692337096726791,112.2757709445574,-0.6409106685332788,0.7052350598157064,3450.6309082103376,1.1025756873817016,782.4066178950131,0.18010472407339329,585.9224407757979,0.595239563037131,265.66660282051697,-0.8706705893593347,112.5094926558039,-0.4340772957487693,0.636533571920066,1.3078358921750919,82.86238172530282,0.41024042807658434,141.46959538415422,0.22696012308784136,377.0426896260579,200.45822224517164 

 norm weights 
SAXC, Bx, Cx, Bc, H, JS, JC sig, JC gam, 
0.3333333333333333, 0.0, 0.0, 0.0, 0.0, 0.3333333333333333, 0.3333333333333333, 0.0, 
