Cx0,Cx1,Cx2,Cc0,sigma,Bx,Bx err (%), Cx, Cx err (%),Bc, Bc error (%), H Exc,H Exc err (%),J.S. sigxc rs=2, % err,J.S. sigxc rs=3, % err,J.S. sigxc rs=4, % err,J.S. sigxc rs=5, % err,J.S. MAPE,J.C. sigxc rs=2, % err,J.C. sigxc rs=3, % err,J.C. sigxc rs=3.25, % err,J.C. sigxc rs=4, % err,J.C. sigxc rs=5, % err,J.C. MAPE,gamma_xc rs=2, % err,gamma_xc rs=3.25, % err,gamma_xc rs=4, % err,gamma_xc MAPE 
0.269,0.0,0.0,0.0,1.0444421252373683,-0.11363810898739635,-49.68062965242399,0.04916294718374292,-80.73046738582293,0.038293727369216574,-1.133417972392765,-0.30339642308945286,-2.9131446113750847,3382.9533598755293,-0.880358632419298,773.5789807587248,-0.9501945251312649,266.6109972302906,-0.5182846155632137,115.1552612388138,1.9073108308086617,1.0640371509806097,3378.1223736330044,-1.0219052554056751,772.1369555203457,-1.1348328399045204,580.005524260614,-0.42061781482896077,265.81424440135214,-0.8155804472566586,114.65690998214659,1.4662920195987583,0.9718456753989146,1.8453054212431197,158.0116866023083,0.6324968115462969,272.2908292630299,0.3745416250601317,687.2411318989612,372.51454925476645 
0.268,0.0,0.0,0.0,1.0444674741766622,-0.11355825031889832,-49.71599136295775,0.04914121746515043,-80.7389844000603,0.038293727369216574,-1.133417972392765,-0.30337934818897155,-2.918608579529103,3383.1603078942694,-0.8742951100419116,773.6472093983803,-0.9414584637157164,266.6416951845652,-0.5068301550129828,115.17186735243952,1.9220065065836511,1.0611475588385655,3378.351843620524,-1.0151818452820427,772.2085910461743,-1.1256605574680778,580.0625152427561,-0.4108332066580789,265.8459665407471,-0.8037438280794396,114.67411981401578,1.481521959305998,0.9673882793587275,1.8454462438186372,158.031376497435,0.6325351384367313,272.3133886650101,0.37456239912653877,687.2847964704217,372.54318721095564 
0.27,0.0,0.0,0.0,1.0445229203975364,-0.11371826138524499,-49.64513787745931,0.049185669017909106,-80.72156150955635,0.038293727369216574,-1.133417972392765,-0.30341345101400646,-2.9076956755179317,3382.746639966034,-0.8864154712559635,773.5108744452489,-0.9589149237837602,266.5803702805382,-0.5297125818887305,115.1387006553198,1.892655447185665,1.0669246060285298,3377.8931284024825,-1.028622080208541,772.0654565638359,-1.1439876358724788,579.9486535058966,-0.43038178151943995,265.78260645316544,-0.8273856518039358,114.63975593948523,1.4511114508718892,0.976297720055257,1.8451674739996333,157.99239873779314,0.632459334992956,272.26877037377307,0.3745213093854579,687.1984308114039,372.48653330765666 
0.267,0.0,0.0,0.0,1.0445997575154686,-0.11347868780962056,-49.751221933105434,0.04912048636200961,-80.74711000462601,0.038293727369216574,-1.133417972392765,-0.3033622261027767,-2.9240876471114596,3383.3674846536837,-0.8682248856230923,773.7155609167602,-0.9327066687887076,266.6724645237374,-0.49534905830693754,115.1885192668494,1.9367427140260185,1.058255831686189,3378.581538542521,-1.0084518446375368,772.2803637497332,-1.1164707106615657,580.119627043989,-0.40102785542543984,265.87777337032264,-0.7918756080885658,114.69138580879414,1.4968016007027796,0.9629255239031774,1.8455899629448969,158.05147138998575,0.6325743225053203,272.336452606397,0.37458363520046545,687.3294321257309,372.57245204070455 
0.271,0.0,0.0,0.0,1.0447090449567786,-0.11379870509988521,-49.609517106353685,0.049209376512785674,-80.71226930125937,0.038293727369216574,-1.133417972392765,-0.303430432171415,-2.9022617051471933,3382.5401475514736,-0.8924656445510215,773.442889913839,-0.9676197293419952,266.54981395960283,-0.5411141941780495,115.12218533420643,1.878040118766755,1.0698099217094552,3377.66410777269,-1.035332324269267,771.9940935783553,-1.1531250219775524,579.8919023956176,-0.4401252068206074,265.75105220296774,-0.8391596257583012,114.62265731596557,1.4359799256332462,0.9807444208917948,1.8450323809339624,157.9735099460946,0.6324227019523215,272.24720798037083,0.37450144849241523,687.1566856197528,372.4591345154061 
0.266,0.0,0.0,0.0,1.0448397404722676,-0.11339942390685076,-49.78632027919908,0.049100760419549694,-80.75484163410209,0.038293727369216574,-1.133417972392765,-0.3033450566200756,-2.929581881575807,3383.574890802733,-0.8621479401484611,773.7840358750218,-0.9239390684991244,266.70330563294357,-0.4838411817374766,115.20521725564527,1.9515196952613056,1.055361971411592,3378.811458598472,-1.0017152476275326,772.3522742498421,-1.1072632202506871,580.1768602648644,-0.39120165802410956,265.909665394916,-0.7799755989119528,114.70870834386656,1.512131277758022,0.9584574005144608,1.8457365999030275,158.07197425550058,0.6326143706088091,272.3600251231055,0.3746053369026041,687.3750464751455,372.6023486179172 
0.272,0.0,0.0,0.0,1.0449996605290666,-0.11387943773593978,-49.57376839978892,0.04923406325813584,-80.70259327343938,0.038293727369216574,-1.133417972392765,-0.3034473667694612,-2.896842633772412,3382.3338820342337,-0.898509169814421,773.3750266286302,-0.9763090104186745,266.51932789636135,-0.5524895909099437,115.10571501057758,1.8634646111306052,1.072693095568411,3377.4353116078164,-1.0420359915670585,771.9228659754997,-1.1622450735595757,579.8352703552682,-0.44984818936817383,265.71958116318905,-0.8509025510488599,114.60561374511295,1.4208971195689868,0.985185785022531,1.8449001209580917,157.95501727867406,0.632386905617736,272.22613807639004,0.3744820387772879,687.1158887494338,372.4323480348326 
0.265,0.0,0.0,0.0,1.045188162538885,-0.11332046107543192,-49.82128530979721,0.04908204622875001,-80.76217670513871,0.038293727369216574,-1.133417972392765,-0.3033278395290655,-2.9350913506990395,3383.7825270083663,-0.8560642540765828,773.8526348431276,-0.9151555898684216,266.7342189021723,-0.47230637978645795,115.22196159542666,1.9663376950678435,1.0524659796998264,3379.0416040106325,-0.9949720477400392,772.4243231759879,-1.09803800563536,580.2342155150268,-0.38135450978612484,265.9416431253301,-0.7680436099514631,114.72608780034919,1.5275113277426478,0.953983900171127,1.8458861760347725,158.0928880779945,0.6326552896185474,272.38411025964695,0.37462750785788806,687.4216471378361,372.63288182515925 
0.273,0.0,0.0,0.0,1.045393905788815,-0.11396045691510315,-49.53789281088739,0.049259722888022495,-80.69253592124036,0.038293727369216574,-1.133417972392765,-0.30346425501493135,-2.891438395221968,3382.12784283298,-0.9045460640791037,773.3072840618297,-0.9849828345928624,266.48891172418587,-0.563838908885872,115.0892894223457,1.8489286923413228,1.07557412497479,3377.206739791743,-1.048733085504161,771.8517731764867,-1.171347864726413,579.7787568186111,-0.45955082637769706,265.6881928518148,-0.8626146075317975,114.58862486400132,1.405862711505601,0.9896218191291339,1.8447706730522395,157.9369177965333,0.6323519392012943,272.20555666643537,0.3744630766433109,687.0760326404823,372.40616903448364 
0.264,0.0,0.0,0.0,1.045645736872128,-0.11324180179787113,-49.856115925636594,0.049064350426685444,-80.7691126163188,0.038293727369216574,-1.133417972392765,-0.30331057461692956,-2.94061612258254,3383.99039395595,-0.8499738073263985,773.9213584000343,-0.9063561587664193,266.76520472635804,-0.46074450509028253,115.23875256583977,1.9811969609201618,1.0495678580258154,3379.2719750248343,-0.9882222377722183,772.4965111685968,-1.088794984814745,580.2916934134389,-0.3714863044436467,265.9737070784433,-0.7560794483420619,114.74352456313191,1.5429420912671743,0.9495050133279692,1.846038712740484,158.11421584967738,0.6326970864192962,272.4087120684265,0.37465015169474497,687.4692417403182,372.6640565528073 
0.274,0.0,0.0,0.0,1.04589089724546,-0.11404176027600998,-49.501891385270326,0.04928634908041918,-80.68209972259544,0.038293727369216574,-1.133417972392765,-0.3034810971136186,-2.8860489236420506,3381.922029382263,-0.9105763439125947,773.23966169354,-0.9936412684327767,266.45856508085967,-0.5751622832613212,115.07290831018688,1.8344321329087476,1.07845300712886,3376.9783922273473,-1.0554236089262425,771.7808146119119,-1.180433468385167,579.7223612274942,-0.46923321367658977,265.65688679227554,-0.8742959730315136,114.57169031320532,1.3908763833675453,0.9940525294774115,1.8446440162663773,157.91920857042697,0.6323177959347458,272.18545976668025,0.37444455850144986,687.0371097491827,372.3805926954299 
0.263,0.0,0.0,0.0,1.0462131497261806,-0.11316344857446836,-49.89081101957527,0.04904767969691903,-80.77564674800409,0.038293727369216574,-1.133417972392765,-0.3032932616698337,-2.946156265653208,3384.198492349726,-0.8438765792638137,773.9902071338902,-0.8975406998860236,266.7962635054781,-0.4491554084036897,115.25559044962891,1.9960977430344418,1.046667607646992,3379.502571911381,-0.9814658098042495,772.5688388793282,-1.079534074349786,580.3492945885974,-0.3615969340919789,266.00585777732465,-0.7440829189087173,114.76101902093183,1.5584239123290544,0.9450207298967573,1.8461942314767361,158.1359605706199,0.6327397679081304,272.4338346090973,0.3746732720442695,687.5178379147131,372.6958776981434 
0.275,0.0,0.0,0.0,1.0464897300447895,-0.1141233454741295,-49.46576516110453,0.04931393555688146,-80.67128713835565,0.038293727369216574,-1.133417972392765,-0.3034978932703262,-2.880674153495608,3381.71644113212,-0.9166000254286488,773.172159011595,-1.002284377516649,266.4282876084926,-0.5864598475773808,115.05657141749688,1.8199747057494609,1.081329739068035,3376.7502688358063,-1.0621075641428002,771.7099897215144,-1.1895019562721654,579.6660830316661,-0.47889544573584963,265.62566251336096,-0.8859468233727741,114.55480973676107,1.3759378201425365,0.9984779219332252,1.8445201297218965,157.9018866810959,0.6322844690703495,272.1658434053701,0.37442648077087776,686.9991125490706,372.3556142118455 
0.262,0.0,0.0,0.0,1.0468910599252783,-0.11308540392343724,-49.92536947653901,0.04903204076986967,-80.78177646219112,0.038293727369216574,-1.133417972392765,-0.30327590047292285,-2.9517118486646865,3384.40682291328,-0.837772548687965,774.0591816422358,-0.8887091367175692,266.82739564464765,-0.43753893856430803,115.2724755326868,2.0110402944131023,1.0437652295957363,3379.7333949658514,-0.9747027551757603,772.641306971351,-1.0702551893276513,580.4070196787619,-0.3516862891502881,266.0380957513496,-0.7320538241232799,114.77857156633495,1.5739571383495132,0.9405310392252986,1.846352753754363,158.15812524847956,0.6327833409932022,272.45948194783296,0.37469687253939077,687.5674432969979,372.7283501644368 
0.276,0.0,0.0,0.0,1.0471894787945943,-0.11420521018164065,-49.42951516915767,0.049342476082191666,-80.66010061242923,0.038293727369216574,-1.133417972392765,-0.30351464368887104,-2.875314019561266,3381.5110775476833,-0.9226171242987635,773.1047755113864,-1.0109122264550074,266.3980789534412,-0.5977317337905963,115.04027849034692,1.8055561861477276,1.0842043176730236,3376.5223695558593,-1.0687849529487425,771.6392979539362,-1.198553398983837,579.6099216885725,-0.4885376157049648,265.5945195491141,-0.8975673324201017,114.53798278211949,1.3610467098402523,1.0028980019795797,1.8443989926134836,157.8849492195289,0.6322519518819538,272.14670362345794,0.3744088398797104,686.9620335324778,372.33122879182156 
0.261,0.0,0.0,0.0,1.0476800983815917,-0.11300767038102633,-49.959790173467695,0.049017440423188674,-80.78749910236353,0.038293727369216574,-1.133417972392765,-0.30325849081031697,-2.957282940698569,3384.6153863900095,-0.8316616938174759,774.1282825322071,-0.8798613915227738,266.85860155422193,-0.42589494245449666,115.28940810410664,2.02602487089083,1.0408607246713941,3379.96444450998,-0.9679330644600137,772.7139161196449,-1.0609582433233178,580.4648693321873,-0.3417542583216804,266.07042153630823,-0.7199919640640928,114.7961825958537,1.5895421202245075,0.9360359300787223,1.8465143011363179,158.18071289820114,0.6328278125925092,272.4856581566018,0.37472095681413886,687.6180655254634,372.7614788600888 
0.277,0.0,0.0,0.0,1.0479891984113678,-0.11428735208731888,-49.393142432848435,0.049371964464016926,-80.64854257191556,0.038293727369216574,-1.133417972392765,-0.30353134857208686,-2.869968456932206,3381.3059381088137,-0.9286276557628592,773.0375106957049,-1.0195248789110267,266.36793876622687,-0.6089780723034011,115.02402927744143,1.7911763517180823,1.0870767396738423,3376.2946943431807,-1.0754557766428197,771.5687387664882,-1.207587866006632,579.5538766631933,-0.4981598154399247,265.56345743874397,-0.9091576721104611,114.52120910010385,1.3462027434547386,1.0073127747309152,1.8442805842104428,157.86839328714785,0.6322202376656542,272.1280364749916,0.37439163226549577,686.9258652115617,372.3074316579004 
0.26,0.0,0.0,0.0,1.0485808676555155,-0.11293025050165184,-49.99407197925647,0.04900388548217016,-80.79281199333126,0.038293727369216574,-1.133417972392765,-0.3032410324651077,-2.9628696111655373,3384.8241835436024,-0.8255439922765229,774.1975104207469,-0.8709973853076924,266.88988164989553,-0.4142232649643529,115.30638845623612,2.0410517311824083,1.0379540934327443,3380.1957208925783,-0.961156727436907,772.7866670113066,-1.0516431483602373,580.5228442073567,-0.33180072855315546,266.1028356745328,-0.7078971363683628,114.81385250996854,1.6051792123615405,0.9315353906160407,1.8466788952350577,158.20372654165104,0.6328731896326416,272.51236731242994,0.3747455285026745,687.6697122386755,372.79526869758547 
0.278,0.0,0.0,0.0,1.0488879249871221,-0.11436976889641803,-49.35664796829882,0.04940239455255835,-80.63661542724276,0.038293727369216574,-1.133417972392765,-0.30354800812182714,-2.8646374010153153,3381.10102230971,-0.9346316346407813,772.9703640745784,-1.0281223976212117,266.3378667014589,-0.6201989919929485,115.00782353007624,1.7768349823683582,1.0899470016558248,3376.067243169697,-1.0821200360475514,771.4983116249389,-1.2166054257440662,579.4979474278563,-0.5077621355351503,265.53247572653413,-0.9207180124872649,114.50448834487298,1.3314056149318354,1.0117222449491736,1.8441648838583973,157.85221599604574,0.6321893197407176,272.10983802765776,0.3743748543757791,686.8906001194927,372.28421804773205 
0.259,0.0,0.0,0.0,1.049593941564419,-0.11285314685800696,-50.02821375470738,0.04899138282010007,-80.79771244109374,0.038293727369216574,-1.133417972392765,-0.30322352521935403,-2.968471929806711,3385.0332151585335,-0.8194194210801808,774.2668659348122,-0.8621170377961285,266.9212363528068,-0.40252374895269893,115.32341688473035,2.056121136929523,1.0350453361896328,3380.427224490414,-0.9543737330672708,772.8595603458513,-1.0423098148718002,580.5809449732244,-0.3218255849940177,266.1353387150092,-0.6957691361905938,114.83158171318351,1.6208687727287785,0.9270294083704922,1.8468465577105415,158.22716920733743,0.6329194790474728,272.5396134966304,0.3747705912385093,687.7223910738355,372.82972459260117 
0.279,0.0,0.0,0.0,1.0498846766717418,-0.11445245833054996,-49.320032784387436,0.04943376024020729,-80.6243215723024,0.038293727369216574,-1.133417972392765,-0.3035646225389688,-2.8593207875299775,3380.8963296585616,-0.9406290753424695,772.9033351651142,-1.0367048444155924,266.30786241775695,-0.6313946202399445,114.99166100209703,1.7625318602628504,1.0928151000652142,3375.8400160229785,-1.0887777315271463,771.4280160032827,-1.2256061455463985,579.4421334620665,-0.5173446653528257,265.50157396174694,-0.932248521736212,114.48782017387329,1.3166550211268113,1.0161264170578788,1.8440518709804996,157.8364144691557,0.6321591914503562,272.09210436323735,0.37435850266871007,686.8562308117303,372.26158321470774 
0.258,0.0,0.0,0.0,1.0507198648371605,-0.11277636204120345,-50.06221435246667,0.04897993935868605,-80.8021977326714,0.038293727369216574,-1.133417972392765,-0.30320596885407886,-2.974089966694766,3385.2424820405677,-0.8132879566197571,774.336349711598,-0.8532202674010225,266.952666089643,-0.39079623520783535,115.34049368860765,2.0712333527501237,1.0321344529946845,3380.6589557092007,-0.9475840694637916,772.9325968355253,-1.0329581516613007,580.6391723094696,-0.3118287109522222,266.16793121351094,-0.6836077561526377,114.84937061407366,1.6366111628970392,0.9225179702253982,1.8470173102673835,158.2510439300122,0.6329666877767054,272.56740079394734,0.3747961486534858,687.7761096646365,372.8648514628653 
0.28,0.0,0.0,0.0,1.050978454570403,-0.11453541812758328,-49.28329788279432,0.049466055461238945,-80.61166338456957,0.038293727369216574,-1.133417972392765,-0.3035811920234154,-2.8540185525070783,3380.691859677184,-0.9466199918785834,772.8364234913472,-1.0452722802372305,266.27792557767634,-0.6425650829565921,114.97554144985904,1.748266769786766,1.0956810312147929,3375.6130129055723,-1.0954288630069642,771.3578513835353,-1.2345900917368424,579.3864342523425,-0.5269074930510542,265.4707516985424,-0.9437493662155183,114.47120424780329,1.3019506617728105,1.020525295156638,1.8439415250791948,157.82098584049749,0.6321298461624497,272.07483157803085,0.3743425736134769,686.822749866936,372.2395224284881 
0.257,0.0,0.0,0.0,1.05195915281903,-0.11269989866088537,-50.096072616974396,0.04896956206842695,-80.80626513596086,0.038293727369216574,-1.133417972392765,-0.3031883631492647,-2.979723792235305,3385.4519850172633,-0.807149574648014,774.4059623987526,-0.8443069911968415,266.9841712927478,-0.3790405624075288,115.35761917030516,2.08638864628774,1.029221443635031,3380.8909149844953,-0.9407877238647666,773.0057772056472,-1.0235880658582386,580.6975269067382,-0.3018099878528524,266.2006137327127,-0.6714127863012176,114.86721962534118,1.65240674808953,0.918001062393321,1.8471911746527403,158.27535375037561,0.6330148227646133,272.5957332918156,0.3748222043769332,687.8308756394887,372.90065422722665 
0.281,0.0,0.0,0.0,1.0521682436523987,-0.1146186460415124,-49.24644425805898,0.04949927419144107,-80.59864322524838,0.038293727369216574,-1.133417972392765,-0.30359771677409975,-2.848730632288081,3380.4876119006667,-0.952604397870882,772.7696285840898,-1.0538247651613597,266.24805584763317,-0.6537105046144909,114.9594646321877,1.7340394975112527,1.0985447912894963,3375.3862338344206,-1.102073429990602,771.2878172555215,-1.2435573296387337,579.3308492920364,-0.5364507056146217,265.440008495887,-0.9552207104899235,114.4546402305706,1.2872922394430164,1.0249188830353795,1.8438338257373268,157.80592725533245,0.6321012772704072,272.0580157833652,0.3743270636908612,686.7901498881387,372.21803097561207 
0.256,0.0,0.0,0.0,1.0533122912242132,-0.11262375934535829,-50.12978738440724,0.048960257969018706,-80.8099118995758,0.038293727369216574,-1.133417972392765,-0.3031707078838497,-2.985373477168096,3385.6617249385017,-0.8010042502636483,774.4757046546086,-0.8353771248900577,267.01575240023124,-0.36725656707790044,115.37479363573595,2.101587288261908,1.0263063076233787,3381.1231027827366,-0.9339846826036724,773.0791021949096,-1.0141994628796835,580.7560094669067,-0.29176929519287853,266.233386842327,-0.6591840140571015,114.8851291638604,1.6682558972215933,0.9134786703909858,1.8473681726534126,158.3001017146708,0.6330638909585162,272.6246150794627,0.37484876203465245,687.8866966193867,372.9371378045068 
0.28200000000000003,0.0,0.0,0.0,1.0534530136690288,-0.11470213984235889,-49.20947289762401,0.04953341044781023,-80.5852634393911,0.038293727369216574,-1.133417972392765,-0.303614196988988,-2.8434569635238383,3380.283585877035,-0.9585823065621168,772.702949980781,-1.0623623584147257,266.2182528978334,-0.6648310082711162,114.94343031033895,1.71984983215836,1.1014063763515796,3375.1596788402894,-1.1087114315766367,771.2179131166655,-1.252507923602364,579.275378081191,-0.5459743888796997,265.4093439174721,-0.9666627173611664,114.43812778925363,1.2726794595164792,1.0293071841872692,1.8437287526193995,157.79123587033953,0.6320734781937086,272.04165310591304,0.3743119693936913,686.7584235036885,372.19710415998037 
0.255,0.0,0.0,0.0,1.0547797359405793,-0.11254794674171986,-50.163357482620675,0.048952034129760236,-80.8131352526879,0.038293727369216574,-1.133417972392765,-0.30315300283572355,-2.991039092568464,3385.8717026770155,-0.7948519578958257,774.5455771484085,-0.8264305827902052,267.0474098560809,-0.3554440835519035,115.39201739434685,2.116829552519328,1.0233890441893156,3381.3555196022085,-0.9271749310809096,773.1525725557455,-1.0047922463834236,580.814620703346,-0.2817065104958272,266.26625111922937,-0.646921224168151,114.90309965073769,1.6841589829537096,0.9089507790164042,1.8475483260933276,158.32529087433218,0.6331138993072979,272.6540502470369,0.37487582524791896,687.943580215813,372.974307112394 
0.28300000000000003,0.0,0.0,0.0,1.0548317200787902,-0.11478589731604538,-49.17238478189097,0.04956845828821077,-80.57152635603174,0.038293727369216574,-1.133417972392765,-0.30363063286508196,-2.838197483173772,3380.0797811669117,-0.9645537308259122,772.6363872253457,-1.0708851183936274,266.18851640220095,-0.6759267155966642,114.92743824796182,1.7056975645679762,1.104265782346045,3374.9333479671086,-1.1153428664779197,771.1481384718126,-1.2614419370278407,579.2200201263687,-0.5554786275630552,265.37875753162785,-0.9780755479000591,114.42166659406188,1.2581120301432547,1.0336902018224259,1.8436262854732832,157.77690885385408,0.6320464423787095,272.02573968816597,0.3742972872273395,686.7275633683012,372.1767373034404 
0.28400000000000003,0.0,0.0,0.0,1.0563033049769652,-0.11486991626429166,-49.13518088426639,0.04960441181105946,-80.55743428830972,0.038293727369216574,-1.133417972392765,-0.30364702459842274,-2.832952128504722,3379.876197343182,-0.9705186831766244,772.5699398680508,-1.0793931026823578,266.1588460383083,-0.6869977468998867,114.91148821106046,1.6915824876641228,1.107123005105748,3374.707241271507,-1.121967733035245,771.0784928329995,-1.27035943239443,579.1647749405047,-0.5649635052873747,265.3482489112447,-0.989459361475864,114.40525631829813,1.2435896622107423,1.0380679388807312,1.843526404130855,157.76294338595739,0.6320201632992511,272.0102716887939,0.37428301371013223,686.6975621639207,372.156925746224 
0.254,0.0,0.0,0.0,1.056361912884513,-0.11247246351597484,-50.19678173109804,0.04894489766994248,-80.81593240487437,0.038293727369216574,-1.133417972392765,-0.3031352477817231,-2.9967207098485993,3386.0819191289306,-0.7886926712882936,774.6155805605438,-0.8174672777792824,267.079144110276,-0.3436029439268684,115.40929075917799,2.1321157160867132,1.0204696522702894,3381.588165974112,-0.9203584537324283,773.2261890546437,-0.9953663182274419,580.8733613411881,-0.2716215092659846,266.29920714759413,-0.6346241986589063,114.92113151136249,1.700116381736727,0.9044173723242978,1.8477316568306827,158.35092428558565,0.6331648547599057,272.6840428847238,0.37490339763245784,688.0015340285836,373.01216706629765 
0.28500000000000003,0.0,0.0,0.0,1.057866698026981,-0.11495419450450273,-49.09786217121131,0.04964126515500311,-80.54298953359618,0.038293727369216574,-1.133417972392765,-0.303663372384094,-2.827720837089913,3379.6728339906804,-0.9764771757784785,772.503607465369,-1.0878863680705564,266.12924148730957,-0.698044221153149,114.89557996795742,1.6775043964224912,1.1099780403561688,3374.481358822184,-1.1285860292357452,771.0089757193001,-1.2792604712803968,579.109642042749,-0.5744291046083316,265.31781763369463,-1.0008143157855809,114.38889663832043,1.229112069310112,1.0424403980440333,1.8434290885096463,157.74933665870682,0.6319946344573246,271.99524528303584,0.37426914537378353,686.66841260063,372.13766484745753 
0.253,0.0,0.0,0.0,1.0580592179067347,-0.11239731235317718,-50.23005894088764,0.04893885575928003,-80.81830054594872,0.038293727369216574,-1.133417972392765,-0.30311744249762823,-3.002418400758966,3386.292375214324,-0.7825263634830382,774.6857155827937,-0.8084871212812206,267.11095561890363,-0.33173297802103763,115.42661404692218,2.147446059223168,1.0175481305021161,3381.82104246356,-0.9135352340005842,773.2999524725292,-0.985921578421356,580.9322321176029,-0.2615141649409125,266.3322555190248,-0.6222927167817915,114.93922517546044,1.7161284738588023,0.8998784336006892,1.8479181867553234,158.37700500908232,0.6332167642637349,272.7145970817955,0.37493148279743016,688.0605656437181,373.05072257819864 
0.28600000000000003,0.0,0.0,0.0,1.0595208173922344,-0.11503872986965114,-49.06042960229341,0.04967901249858997,-80.52819437362282,0.038293727369216574,-1.133417972392765,-0.30367967641622473,-2.822503546808086,3379.46969070587,-0.9824292204550167,772.4373895798402,-1.0963649705710399,266.09970243387187,-0.7090662560179539,114.87971328925721,1.6634630878382461,1.112830883720564,3374.255700699417,-1.1351977527273016,770.9395866566256,-1.288145114388528,579.0546209583345,-0.5838755070372459,265.2874632807471,-1.012140566885411,114.37258723350394,1.2146789677025982,1.046807581748217,1.8433343186137072,157.73608587625705,0.631969849383551,271.98065666298265,0.3742556787638599,686.6401074176282,372.1189499856226 
0.252,0.0,0.0,0.0,1.0598720167498619,-0.1123224959575504,-50.26318791454939,0.048933915618309065,-80.82023684580484,0.038293727369216574,-1.133417972392765,-0.30309958675815685,-3.008132237389809,3386.5030718777853,-0.7763530068038316,774.75598291857,-0.7994900232304758,267.14284484427696,-0.3198340133294897,115.4439875779863,2.162820865474613,1.0146244772096025,3382.05414967072,-0.9067052543006104,773.3738636051019,-0.9764579250829852,580.9912337820783,-0.25138434884330874,266.36539683269996,-0.6099265549627031,114.9573810771468,1.73219564349274,0.8953339453364695,1.8481079377855332,158.40353610944945,0.6332696347630491,272.74571692568077,0.37496008434425127,688.1206826309552,373.0899785553618 
0.28700000000000003,0.0,0.0,0.0,1.0612645706657609,-0.11512352020817396,-49.02288413023263,0.04971764805997125,-80.51305107459883,0.038293727369216574,-1.133417972392765,-0.30369593688799257,-2.8173001958423782,3379.266767096524,-0.9883748286983907,772.3712857799419,-1.1048289654363774,266.070228566112,-0.720063967868656,114.86388794781128,1.6494583608949398,1.1156815307245909,3374.0302669945418,-1.1418029008338215,770.8703251775343,-1.2970134215705142,578.9997112184141,-0.5933027930690282,265.2571854384985,-1.0234382692169808,114.35632778620528,1.2002900762878577,1.0511694921956405,1.8432420745346805,157.72318825500972,0.6319458016379694,271.96650203804063,0.3742426104401191,686.6126393839428,372.1007765589977 
0.251,0.0,0.0,0.0,1.061800645058859,-0.11224801705261545,-50.296167446098266,0.04893008451880476,-80.82173845425339,0.038293727369216574,-1.133417972392765,-0.30308168033696115,-3.0138622921724334,3386.714010088994,-0.7701725728393116,774.8263832831648,-0.7904758920403654,267.17481225505685,-0.30790587497878663,115.46141167655352,2.178240421728783,1.0116986903968117,3382.2874882318574,-0.8998684959901082,773.4479232632099,-0.9669752543905452,581.0503670967059,-0.24123193013196875,266.39863169550307,-0.5975254867525814,114.97559965498715,1.7483182787496832,0.8907838892029772,1.8483009318653374,158.43052065491347,0.6333234731972878,272.77740650096877,0.37498920586559087,688.1818925416516,373.12993989917794 
0.28800000000000003,0.0,0.0,0.0,1.0630968557950615,-0.11520856338386176,-48.98522670095032,0.049757166096583205,-80.49756188733559,0.038293727369216574,-1.133417972392765,-0.3037121539916271,-2.8121107226793285,3379.064062781438,-0.9943140116777549,772.3052956399551,-1.1132784071760327,266.04081957553063,-0.731037471816931,114.84810371868284,1.6354900165334918,1.1185299768010526,3373.8050578093844,-1.1484014705718026,770.801190821077,-1.3058654518467439,578.944912359934,-0.602711042203985,265.2269836972976,-1.0347075756352186,114.34011798172553,1.1859451165712631,1.0555261313658026,1.843152336453161,157.71064102380416,0.6319224848104182,271.95277763515617,0.3742299369768828,686.5860012992129,372.0831399860577 
0.25,0.0,0.0,0.0,1.063845408440646,-0.11217387838131665,-50.32899632094846,0.04892736978419432,-80.82280250085985,0.038293727369216574,-1.133417972392765,-0.3030637230066223,-3.0196086378808573,3386.9251908433102,-0.763985032425718,774.8969174040085,-0.7814446345699722,267.2068583263725,-0.29594838568188786,115.47888667064673,2.1937050182714524,1.0087707677372575,3382.5210588204927,-0.8930249393351075,773.5221322732339,-0.9574734605334312,581.1096328364708,-0.23105677575209205,266.4319607221726,-0.5850892827714116,114.99388135204715,1.7644967717231452,0.8862282460230375,1.848497190961271,158.45796171684822,0.6333782864993864,272.8096698884206,0.3750188509441371,688.2442029061838,373.17061150381755 
0.28900000000000003,0.0,0.0,0.0,1.0650165620010053,-0.11529385727574537,-48.94745825361938,0.04979756090482823,-80.48172904737154,0.038293727369216574,-1.133417972392765,-0.30372832791841264,-2.806935066107954,3378.86157739012,-1.0002467802484594,772.2394187398404,-1.1217133495722953,266.0114751569512,-0.7419868817346353,114.83236037911281,1.6215578576219691,1.1213762172943398,3373.5800732558428,-1.1549934586626787,770.732183132607,-1.3147012634305955,578.8902239254943,-0.6121003329717323,265.1968576516693,-1.0459486374368332,114.32395750827318,1.171643812631129,1.0598775010265937,1.8430650846392889,157.6984414239996,0.6318998925211272,271.9394796991641,0.37421765496343806,686.560185994533,372.0660357058989 

 norm weights 
Bx, Cx, Bc, H, JS, JC sig, JC gam, 
0.0, 0.0, 0.0, 0.0, 0.5, 0.5, 0.0, 
