c0,c1,c2,c3,sigma, SA MAPE X, SA MAPE C, SA MAPE XC,Bx,Bx err (%), Cx, Cx err (%),Bc, Bc error (%), H Exc,H Exc err (%),J.S. sigxc rs=2, % err,J.S. sigxc rs=3, % err,J.S. sigxc rs=4, % err,J.S. sigxc rs=5, % err,J.S. MAPE,J.C. sigxc rs=2, % err,J.C. sigxc rs=3, % err,J.C. sigxc rs=3.25, % err,J.C. sigxc rs=4, % err,J.C. sigxc rs=5, % err,J.C. MAPE,gamma_xc rs=2, % err,gamma_xc rs=3.25, % err,gamma_xc rs=4, % err,gamma_xc MAPE 
0.03131281972723695,0.0,0.0,0.0,4.828948163481031,5.01739122104404,83.85682115685236,2.958701356223828,-0.0761919211452059,-66.26193860702006,0.11308194303068975,-55.67726684162363,-0.005074630745190378,-113.10166001841064,-0.2940187037802469,-5.914014790320987,3319.906678486749,-2.7276097718503034,767.1761335589928,-1.7700213112685326,267.50763075801285,-0.18371986641311233,117.07064389180175,3.602339727258186,2.0709226691975333,3226.8931719564966,-5.452880985745779,730.5743483819516,-6.456549502951137,547.4282042869518,-6.013718674275747,248.16680183017385,-7.400447078293338,105.23240294315895,-6.873979696319521,6.439515187517105,3.0604517576858346,327.91416026598597,1.1645720086343163,585.4729872408958,0.7583350027356008,1493.928327235539,802.4384915808068 
0.031350145849430466,0.0,0.0,0.0,4.828948163481031,5.01739122104404,83.85682115685236,2.958701356223828,-0.0761919211452059,-66.26193860702006,0.11308194303068975,-55.67726684162363,-0.005074630745190378,-113.10166001841064,-0.2940187037802469,-5.914014790320987,3319.906678486749,-2.7276097718503034,767.1761335589928,-1.7700213112685326,267.50763075801285,-0.18371986641311233,117.07064389180175,3.602339727258186,2.0709226691975333,3226.8931719564966,-5.452880985745779,730.5743483819516,-6.456549502951137,547.4282042869518,-6.013718674275747,248.16680183017385,-7.400447078293338,105.23240294315895,-6.873979696319521,6.439515187517105,3.0604517576858346,327.91416026598597,1.1645720086343163,585.4729872408958,0.7583350027356008,1493.928327235539,802.4384915808068 
0.031387471971623976,0.0,0.0,0.0,4.828948163481031,5.01739122104404,83.85682115685236,2.958701356223828,-0.0761919211452059,-66.26193860702006,0.11308194303068975,-55.67726684162363,-0.005074630745190378,-113.10166001841064,-0.2940187037802469,-5.914014790320987,3319.906678486749,-2.7276097718503034,767.1761335589928,-1.7700213112685326,267.50763075801285,-0.18371986641311233,117.07064389180175,3.602339727258186,2.0709226691975333,3226.8931719564966,-5.452880985745779,730.5743483819516,-6.456549502951137,547.4282042869518,-6.013718674275747,248.16680183017385,-7.400447078293338,105.23240294315895,-6.873979696319521,6.439515187517105,3.0604517576858346,327.91416026598597,1.1645720086343163,585.4729872408958,0.7583350027356008,1493.928327235539,802.4384915808068 
0.031424798093817485,0.0,0.0,0.0,4.828948163481031,5.01739122104404,83.85682115685236,2.958701356223828,-0.0761919211452059,-66.26193860702006,0.11308194303068975,-55.67726684162363,-0.005074630745190378,-113.10166001841064,-0.2940187037802469,-5.914014790320987,3319.906678486749,-2.7276097718503034,767.1761335589928,-1.7700213112685326,267.50763075801285,-0.18371986641311233,117.07064389180175,3.602339727258186,2.0709226691975333,3226.8931719564966,-5.452880985745779,730.5743483819516,-6.456549502951137,547.4282042869518,-6.013718674275747,248.16680183017385,-7.400447078293338,105.23240294315895,-6.873979696319521,6.439515187517105,3.0604517576858346,327.91416026598597,1.1645720086343163,585.4729872408958,0.7583350027356008,1493.928327235539,802.4384915808068 

 norm weights 
SAXC, Bx, Cx, Bc, H, JS, JC sig, JC gam, 
0.0, 0.0, 0.0, 0.0, 0.0, 0.5, 0.5, 0.0, 
