c0,c1,c2,c3,sigma, SA MAPE X, SA MAPE C, SA MAPE XC,Bx,Bx err (%), Cx, Cx err (%),Bc, Bc error (%), H Exc,H Exc err (%),J.S. sigxc rs=2, % err,J.S. sigxc rs=3, % err,J.S. sigxc rs=4, % err,J.S. sigxc rs=5, % err,J.S. MAPE,J.C. sigxc rs=2, % err,J.C. sigxc rs=3, % err,J.C. sigxc rs=3.25, % err,J.C. sigxc rs=4, % err,J.C. sigxc rs=5, % err,J.C. MAPE,gamma_xc rs=2, % err,gamma_xc rs=3.25, % err,gamma_xc rs=4, % err,gamma_xc MAPE 
2.712032264656088,2.451804994152133,0.0,0.0,1.337084811558256,0.6897624779535094,5.5711795384245475,0.776365973883586,-0.1741274466851075,-22.894072070998998,0.1513335257804469,-40.68150192006842,0.0383198863034947,-1.0658809474218793,-0.31250000026188485,8.380315108524883e-08,3446.366735973597,0.9776365652973018,790.1564793057281,1.172404520579784,273.4227153807076,2.0234012614580577,118.83647464853448,5.165021812862358,2.3346160400493754,3560.7515918344684,4.329082679005802,832.9659440572461,6.653770045742147,630.1720834866761,8.192325967827841,297.4920444629432,11.004494202590752,119.16986790514578,5.460060093049357,7.127946597643179,-0.7089457735537132,-199.125213982706,-0.6358015143688188,-474.2359940951763,-0.6097969567122072,-1381.7193452225445,685.0268511001423 
2.7088071037449186,2.4547206916281556,0.0,0.0,1.764980004812902,0.6906569498438986,5.5711795384245475,0.77723724007428,-0.17406168974753067,-22.92319010945964,0.1512414291869293,-40.717601201953045,0.0383198863034947,-1.0658809474218793,-0.31250000026188485,8.380315108524883e-08,3446.494210103073,0.9813715236763221,790.2125287139874,1.1795811413556123,273.45330807801156,2.0348164470192387,118.85543381985535,5.181799840579959,2.3443922381577833,3560.86480384547,4.332399761074424,833.0100667625687,6.659419559867952,630.1409034320724,8.186972759204703,297.5323701729839,11.01954110932235,134.8530232725635,19.338958648286276,9.90745836755114,-0.7075797156490691,-198.93421096503957,-0.6379172920312971,-475.4813515517215,-0.6105297010424813,-1383.2594850557737,685.8916825241782 
2.7055819428337493,2.457636389104178,0.0,0.0,1.7867535702075517,0.6915276082905208,5.5711795384245475,0.7780856317444684,-0.17399770440690077,-22.951523661447247,0.15114947662052014,-40.753644029250275,0.0383198863034947,-1.0658809474218793,-0.31250000026188485,8.380315108524883e-08,3446.621195353624,0.9850921580317529,790.2683377679947,1.186726986939135,273.48376024938455,2.046179197531539,118.87430145469132,5.198496862558688,2.3541238012652785,3560.978993513172,4.33574548822655,833.0549226338521,6.665162949276837,630.1472887112351,8.188069028339218,297.57698305138524,11.036187705740751,135.40245176832855,19.825178556042957,10.010068745525263,-0.7062378500058155,-198.7465905235539,-0.6385114255974721,-475.83106158030404,-0.6113268420836955,-1384.9349789757562,686.5042103598713 
2.7152574255672572,2.4547206916281556,0.0,0.0,1.7873115499761987,0.7033624970342989,5.5711795384245475,0.8172028631470374,-0.1731448380486711,-23.329184123382635,0.15124970394114357,-40.71435773035982,0.0383198863034947,-1.0658809474218793,-0.31250000026188485,8.380315108524883e-08,3446.628724265581,0.9853127531667338,790.2829835247551,1.188602243886705,273.4960929269849,2.0507809429048063,118.8840831846391,5.20715326074257,2.3579623001752035,3560.1913228011626,4.312666944071575,832.5441930309289,6.599768633921754,630.4905958083922,8.24701037838631,296.0093653842688,10.451255740398802,135.33025840310887,19.76129062222025,9.87439846379974,-0.6958170009628895,-197.28954129666653,-0.5938846791566276,-449.5635324220849,-0.5644445132472,-1286.3940020860002,644.4156919349172 
2.712032264656088,2.457636389104178,0.0,0.0,1.7937983447830992,0.7042537112212421,5.5711795384245475,0.8188080909191375,-0.17307868625589284,-23.358477008929608,0.1511585737856711,-40.75007819563372,0.0383198863034947,-1.0658809474218793,-0.31250000026188485,8.380315108524883e-08,3446.755904710501,0.9890391066657234,790.3388915271263,1.1957607589150099,273.5266041691424,2.0621657347546174,118.90298994415707,5.223884906333698,2.367712626667262,3560.304436810311,4.315981154711723,832.5881927636409,6.605402402514837,629.7970445823794,8.127936680444957,296.67202921712675,10.69851836459954,135.38037248455387,19.80563936686184,9.91069559382658,-0.6944575076947423,-197.09945615032643,-0.623718918132739,-467.1241167066034,-0.5838277463595489,-1327.135210417056,663.7862610913286 
2.7184825864784266,2.4488892966761107,0.0,0.0,1.7976541790442404,0.6952230308184398,5.5711795384245475,0.7907332403520734,-0.1737330618974151,-23.06871085193223,0.151431997878821,-40.64290361907591,0.0383198863034947,-1.0658809474218793,-0.31250000026188485,8.380315108524883e-08,3446.306019246942,0.9758575812171655,790.1354188665625,1.1697079214548767,273.4133786607949,2.019917410744365,118.83175284947315,5.160843229622247,2.3315815357596636,3560.300975806935,4.315879748225471,832.6882655393127,6.618215818093831,629.289828518135,8.0408542989862,297.2773999519706,10.924402967153203,135.72481912804338,20.110459405348124,10.001962447561365,-0.7044358676203017,-198.49463628922405,-0.6571850131231062,-486.8224298501902,-0.6127888021934724,-1388.0078420558668,691.1083027317603 
2.7152574255672572,2.445973599200088,0.0,0.0,1.7993017426783098,0.6814372292276855,5.5711795384245475,0.7683493264432989,-0.1747366347237458,-22.624315580011118,0.15150594186773603,-40.613919649120426,0.0383198863034947,-1.0658809474218793,-0.31250000026188485,8.380315108524883e-08,3446.042799032952,0.9681452983578032,790.0082755579818,1.1534283684995872,273.33961380056905,1.9923932091675534,118.78388477654946,5.11848210314112,2.308112244791516,3560.8714018662063,4.3325930813421065,833.1181804960607,6.673262547510972,628.4967213296152,7.904688141017102,297.19355265163813,10.893116661059011,136.082786149313,20.427244379923003,10.046180962170439,-0.7177150429300807,-200.35133837166615,-0.7194953887212753,-523.4986327648277,-0.6119329802440794,-1386.209007974245,703.3529930369128 
2.7184825864784266,2.457636389104178,0.0,0.0,1.8024760954827608,0.736088433025181,5.5711795384245475,0.8632627006814969,-0.17220290797447957,-23.74628317236893,0.15114688587293124,-40.754659529649715,0.0383198863034947,-1.0658809474218793,-0.31250000026188485,8.380315108524883e-08,3446.889155422999,0.9929433174040048,790.4086480897913,1.204692457079548,273.56894929311903,2.0779661541489025,118.9313361900114,5.248970079656101,2.381143002072139,3559.650990113923,4.296835338819882,832.138624744832,6.547839275906786,629.1738583319691,8.020943730884245,296.80058398860234,10.746486562911329,135.11301274155085,19.569037824381287,9.836228546580704,-0.682961044427093,-195.4920139114967,-0.6214426636814822,-465.78430179876176,-0.5855043356211542,-1330.6591979787158,663.9785045629915 
2.7152574255672572,2.451804994152133,0.0,0.0,1.802821434569853,0.6961512163963512,5.5711795384245475,0.7924473173333169,-0.17366450324268534,-23.09906952766738,0.15134014800036688,-40.67890619557458,0.0383198863034947,-1.0658809474218793,-0.31250000026188485,8.380315108524883e-08,3446.4340791572577,0.9796097028203166,790.1917576767476,1.1769215975349079,273.4441411324253,2.0313959449347996,118.85082291171257,5.177719390896085,2.3414116590465275,3560.4126987333307,4.319153200507775,832.731249161462,6.623719482901658,630.1680965959818,8.19164147070568,297.3273069084838,10.943024965852178,135.75170432394563,20.134251614111175,10.042358146815692,-0.7030371259034534,-198.2990634017603,-0.6211583497607648,-465.6169531839029,-0.6141677399376517,-1390.9062021790483,684.9407395882372 
2.7184825864784266,2.4547206916281556,0.0,0.0,1.8028554383981243,0.7119141612665608,5.5711795384245475,0.839682181945281,-0.17270274970276178,-23.524946668500398,0.15124582020536614,-40.715880045868346,0.0383198863034947,-1.0658809474218793,-0.31250000026188485,8.380315108524883e-08,3446.695434814985,0.9872673546728716,790.3179121896288,1.1930745441266044,273.5172984149276,2.058693438405834,118.89827959228683,5.219716453351175,2.3646879476391214,3559.8625205014355,4.303033123393951,832.317710015745,6.5707695282644085,629.2920368767576,8.041233445353058,296.69877656306244,10.70849871756061,135.42706988896447,19.84696450350838,9.89409986361608,-0.6900423267285085,-196.48212295732853,-0.6297639263258717,-470.68223916989507,-0.5935233155599855,-1347.514122562084,671.5594948964358 
2.712032264656088,2.4547206916281556,0.0,0.0,1.8049033696338037,0.6970559203361038,5.5711795384245475,0.7940766018956602,-0.17359767305644214,-23.128662814780057,0.1512484722798364,-40.714840507051285,0.0383198863034947,-1.0658809474218793,-0.31250000026188485,8.380315108524883e-08,3446.56165035912,0.9833475053946605,790.2478562683924,1.184104515799289,273.474763181576,2.042822082677609,118.86980151861466,5.1945146182430735,2.351197180528658,3560.52538065468,4.322454751089366,832.7749503961736,6.629315031520311,629.959729379228,8.155867537796269,297.3916385821973,10.967029321715405,135.7802471129152,20.15951071939397,10.046835472303064,-0.7016623587674233,-198.10684265425195,-0.630662737163126,-471.2112837845769,-0.6164320785375685,-1395.6655676624305,688.3278980337531 
2.7152574255672572,2.457636389104178,0.0,0.0,1.8052704190272346,0.713615571235332,5.5711795384245475,0.8413441966356988,-0.17263560389688282,-23.554679716146822,0.1511550053557249,-40.7514769200989,0.0383198863034947,-1.0658809474218793,-0.31250000026188485,8.380315108524883e-08,3446.8227109048144,0.9909965105424634,790.3738686072048,1.2002392582848742,273.54783853199206,2.070089004474651,118.91720546166128,5.236465010319713,2.3744474459054254,3559.975128885421,4.306332519350153,832.3613073945561,6.576351779072476,629.1280259884203,8.013074915392359,296.7477893809186,10.72678708243231,135.46343948390086,19.879149985752974,9.900339256400054,-0.6886744409661636,-196.29086436752598,-0.637408015538493,-475.1815888266467,-0.5947878858837232,-1350.1720962195254,673.8815164712327 
2.7088071037449186,2.457636389104178,0.0,0.0,1.807894398877502,0.6979371545325574,5.5711795384245475,0.7956208885098931,-0.17353257359510588,-23.15748971409759,0.15115696603934303,-40.75070838710638,0.0383198863034947,-1.0658809474218793,-0.31250000026188485,8.380315108524883e-08,3446.6887338633164,0.9870710185559961,790.3037151528202,1.1912567417183384,273.50524511059723,2.0541959367900153,118.88868886809426,5.211229086809088,2.3609381959683597,3560.63902151945,4.325784398460297,832.8193696388622,6.635002514579025,629.940447243832,8.152557046689513,297.4904741764795,11.003908274805774,135.81078824372867,20.186538268786425,10.060758100664206,-0.7003115360457495,-197.91796982880658,-0.6323025931326255,-472.17651132029255,-0.620596322116153,-1404.4183032970384,691.5042614820459 
2.712032264656088,2.4488892966761107,0.0,0.0,1.8080551964333664,0.6823692064418935,5.5711795384245475,0.7692567869645311,-0.17466839498914633,-22.65453303371005,0.1514130991384297,-40.65031139530945,0.0383198863034947,-1.0658809474218793,-0.31250000026188485,8.380315108524883e-08,3446.1711579234716,0.9719061800020912,790.0647586039235,1.1606605126662561,273.37045947033386,2.0039027874380055,118.80300843144963,5.135405691548334,2.3179687929136716,3560.9831730166998,4.335867946577787,833.1612456313637,6.678776649342355,630.4901207975674,8.246928825224353,297.3099918337683,10.93656411707773,136.11151689296256,20.45266981678102,10.130161471000651,-0.716309010191295,-200.15474604923762,-0.6367975080351157,-474.8222410156309,-0.615764812387726,-1394.263055033839,689.7466806995691 
2.7088071037449186,2.451804994152133,0.0,0.0,1.8101006245815698,0.6832769961309798,5.5711795384245475,0.7701410191896269,-0.17460196370170777,-22.6839496831756,0.1513203831705905,-40.6866534545583,0.0383198863034947,-1.0658809474218793,-0.31250000026188485,8.380315108524883e-08,3446.2990247322505,0.9756526437811441,790.1209996255961,1.1678616678099996,273.4011636033302,2.0153595534814217,118.82203987468026,5.152247676708188,2.3277803854451884,3561.095940754041,4.3391720115453,833.2050583006018,6.684386466146197,630.3729004538375,8.226803621377288,297.3730794829534,10.960104284684103,136.14058641109193,20.478395054063657,10.13777228756331,-0.7149274791849594,-199.96157957341492,-0.6424917786282697,-478.1739175497634,-0.618898777380114,-1400.8502698662178,692.9952556631321 
2.7055819428337493,2.4547206916281556,0.0,0.0,1.8120863629718937,0.6841606043376081,5.5711795384245475,0.7710020307180154,-0.17453734358557993,-22.712564322118354,0.15122778818195926,-40.722948093350375,0.0383198863034947,-1.0658809474218793,-0.31250000026188485,8.380315108524883e-08,3446.426400471821,0.9793847193618754,790.1769991353037,1.175031899526724,273.43172650251205,2.0267636203403105,118.8409793045567,5.169008234120964,2.3375471183374685,3561.2097050947705,4.34250527672928,833.2496189153303,6.690092050618479,630.36114975061,8.224786178924258,297.3916045029024,10.967016605560588,136.17013205171583,20.50454163868658,10.145788350103837,-0.7135704204159439,-199.7718348201717,-0.6438232364226396,-478.9576203563955,-0.6227366139318242,-1408.9169374643157,695.8821308802943 
2.7088071037449186,2.445973599200088,0.0,0.0,1.822166288758535,0.6681992247349638,5.5711795384245475,0.755649803714889,-0.17571761319149637,-22.189925387802855,0.15145881987867504,-40.63239014733436,0.0383198863034947,-1.0658809474218793,-0.31250000026188485,8.380315108524883e-08,3445.906654560083,0.9641563012037224,789.9369053111251,1.1442900526408506,273.2962471098008,1.9762116081346148,118.75483165922122,5.092771379841787,2.294357335455244,3561.5746994522156,4.353199515154271,833.6081447380863,6.735998045849723,630.2662184745029,8.208487717221091,297.9760815860045,11.185105069404667,136.47663448076995,20.77578272634508,10.251714614794967,-0.7298669077251392,-202.0504192365693,-0.6763942937332018,-498.12910978490044,-0.6375973716768966,-1440.1524503294845,713.4439931169849 
2.7184825864784266,2.451804994152133,0.0,0.0,1.8269792606353907,0.7024481366830482,5.5711795384245475,0.8155150612300988,-0.17321268147150182,-23.299142161757235,0.15134102579635123,-40.678562124165786,0.0383198863034947,-1.0658809474218793,-0.31250000026188485,8.380315108524883e-08,3446.501057291676,0.9815721444968117,790.2268364551036,1.181413118451169,273.4654419659472,2.039344017144473,118.86508544357142,5.190341100505669,2.3481675951495307,3560.0791494588357,4.309380294721232,832.5008964160802,6.594224893224099,629.3380957232108,8.049141148438865,301.0664349706788,12.338222003984622,135.28831236979298,19.72417023875486,10.203027715824735,-0.6972001960459628,-197.48294044467497,-0.6413661028756111,-477.5113390959465,-0.7145361435768935,-1601.8684301427975,758.9542365611396 
2.7055819428337493,2.4488892966761107,0.0,0.0,1.8277653711779787,0.669108898233875,5.5711795384245475,0.7565362187151398,-0.17565167306713025,-22.219124543787707,0.15136483452584315,-40.66922976990146,0.0383198863034947,-1.0658809474218793,-0.31250000026188485,8.380315108524883e-08,3446.034817457437,0.9679114402999289,789.9932890113093,1.1515094764800615,273.32703347356784,1.9876990573014286,118.77391603415488,5.109660207216704,2.304195045324531,3561.6875664299314,4.356506487838607,833.6520677095247,6.74162198585464,631.3790745872091,8.399550594260985,297.9814166312481,11.1870957579284,136.5150660686235,20.809792981082744,10.298913561393075,-0.7284787432721733,-201.8563252683471,-0.6306094792284885,-471.17993589429653,-0.6403469653593585,-1445.9317632229343,706.3226747951926 
2.7088071037449186,2.4488892966761107,0.0,0.0,1.8533596285147846,0.6757927428392124,5.5711795384245475,0.7629467504959742,-0.1751537984109226,-22.439590002220843,0.15139311385379006,-40.65814506641709,0.0383198863034947,-1.0658809474218793,-0.31250000026188485,8.380315108524883e-08,3446.1031741080683,0.9699142721379506,790.029125844555,1.1560980594820691,273.34881038486503,1.9958247704720211,118.78850612600627,5.122571792925901,2.311102223754485,3561.3325369139056,4.346104216639479,833.4044043158366,6.709910923922746,630.7487231507372,8.291327475725318,298.4233024869398,11.351978539902907,137.06492932148853,21.296397629635866,10.399143757165263,-0.7223561070962006,-201.00025468619336,-0.6413332708200942,-477.49201398165064,-0.6382193949400043,-1441.459867889917,706.6507121859204 
2.7055819428337493,2.451804994152133,0.0,0.0,1.861907447106351,0.6766893585211209,5.5711795384245475,0.7638204388388831,-0.1750885270519018,-22.46849302009824,0.15129984224827808,-40.69470492005125,0.0383198863034947,-1.0658809474218793,-0.31250000026188485,8.380315108524883e-08,3446.2309423914903,0.9736578491500225,790.0853169000894,1.1632928169128531,273.3794846796481,2.007270402853778,118.80751780127724,5.1393962843161445,2.3209043383081998,3561.4458604919328,4.34942456759253,833.4486547939496,6.715576798200962,630.6155793500976,8.26846842205271,299.2645582420011,11.665879941045176,137.08426962758892,21.313512944768952,10.462572534732066,-0.7209836170563244,-200.8083523236052,-0.6477232322413807,-481.25317766352555,-0.6626239897972239,-1492.7553704281158,724.9389668050821 
2.712032264656088,2.445973599200088,0.0,0.0,1.8978738753581779,0.6748715600955996,5.5711795384245475,0.7620494789052829,-0.1752209219385814,-22.409866819663876,0.15148648056034997,-40.621547935839175,0.0383198863034947,-1.0658809474218793,-0.31250000026188485,8.380315108524883e-08,3445.9749125507365,0.9661562423304071,789.9726921112024,1.1488722293472975,273.3179941431851,1.9843261728302641,118.76940195689026,5.105665448575447,2.301255023270854,3561.2202292697493,4.342813632280973,833.3609166368108,6.704342719181922,629.074376994313,8.00386408296989,298.20098868772334,11.26902562974752,138.37349406625265,22.45441952765721,10.554893118367502,-0.7237533540948731,-201.19561858128483,-0.7106489180125247,-518.2915552648477,-0.6321171962344085,-1428.6337853008472,716.0403197156598 
2.7152574255672572,2.4488892966761107,0.0,0.0,1.906964054504483,0.6888441854083549,5.5711795384245475,0.775471824500909,-0.17419497252293992,-22.864170740195775,0.15142577173960525,-40.64534409104146,0.0383198863034947,-1.0658809474218793,-0.31250000026188485,8.380315108524883e-08,3446.2387719616067,0.9738872534897913,790.1001890357842,1.1651970596394667,273.3919818575451,2.0119335289347395,118.81742374447172,5.148162605727191,2.324795111947797,3560.6393574002063,4.325794239677894,832.9225540311244,6.648214344574188,630.4936493510083,8.247534631819198,297.454686073827,10.990554505159334,138.53327448221182,22.595818125851164,10.561583169416355,-0.7103360521978577,-199.31960355837919,-0.6215821984885966,-465.86643269350054,-0.6090542813437891,-1380.1583315499706,681.78145593395 
2.7055819428337493,2.445973599200088,0.0,0.0,1.9079188452466975,0.6614137822841232,5.5711795384245475,0.7491442926851222,-0.17622721637148953,-21.964266384486734,0.15142186123583734,-40.64687689885157,0.0383198863034947,-1.0658809474218793,-0.31250000026188485,8.380315108524883e-08,3445.838021986676,0.9621453849011363,789.9009134011897,1.1396816134685794,273.2743715658583,1.9680490917381777,118.74017308439474,5.07979918972985,2.287418819959436,3561.9349321513696,4.363754238246975,833.8598533264585,6.768227058445397,630.733393600434,8.28869559191643,298.1773733552147,11.26021393851293,138.61606853189275,22.66908719636527,10.6699956046974,-0.736057130950911,-202.91593987967792,-0.672777844825687,-496.0004496269551,-0.631301228868713,-1426.918720727024,708.6117034112191 

 norm weights 
SAXC, Bx, Cx, Bc, H, JS, JC sig, JC gam, 
0.9615384615384617, 0.0, 0.0, 0.0, 0.0, 0.019230769230769235, 0.019230769230769235, 0.0, 
