SCF iter., E[n] (hartree), E[n_i]/E[n_(i-1)]-1, T, V_ext, U_H, Ex, Ec, Virial Theorem 
0,-2.017763617856346,-1.0,2.1386195013175793,-103.20920209505593,50.10162799131809,-3.552024514337639,-1.0217160782777879,-1.943488833152987
1,-2.374151783207701,0.1766253302406049,2.2732999849618816,-106.7964075966657,53.34777515647128,-3.6813665026288924,-1.0423844025256122,-2.044363611891505
2,-2.387503933349194,0.0056239665197197475,2.2205247046107806,-106.23134259918443,52.77174646279187,-3.6376923133459242,-1.0356717654008365,-2.0751980954734215
3,-2.3910753291363847,0.001495870116611897,2.210838091563632,-106.24902516138968,52.78544125658928,-3.628952407966716,-1.0343086851122452,-2.0815243948711206
4,-2.3921787412624695,0.00046147108484584365,2.1999520314161742,-106.16718696146235,52.702437514068954,-3.6194769879345476,-1.032835914530048,-2.0873776823772623
5,-2.392542555252952,0.00015208478539108228,2.195199886841959,-106.14569938878529,52.680387048287116,-3.6151932022498117,-1.0321684765262762,-2.089897357226498
6,-2.392667983234496,5.242455615617203e-05,2.191917146431732,-106.12499465273335,52.65947562529135,-3.612280685633449,-1.0317169937701267,-2.091586872765504
7,-2.3927146240550456,1.949322717420543e-05,2.1901259922521223,-106.11556580993341,52.64994121134251,-3.610677691227729,-1.031469903667875,-2.092500902925039
8,-2.3927333947940923,7.8449552061155e-06,2.188992704030462,-106.10914050052071,52.64346870083418,-3.609669959455308,-1.0313159168620596,-2.093075089007151
9,-2.392741563286613,3.4138749174239535e-06,2.188318381226321,-106.10561706635556,52.63991923421039,-3.609068595617954,-1.0312250939291518,-2.0934156491185405
10,-2.392745348442915,1.5819327754407198e-06,2.1878947102776047,-106.10339319470032,52.63768101730992,-3.6086906458809342,-1.0311688126285328,-2.0936291116766412
11,-2.392747186975626,7.683779270628577e-07,2.187631691142117,-106.10207458683986,52.636353149946366,-3.6084547171571093,-1.0311343012464853,-2.093761439214852
