Weight,n up,n down,|grad n up|,|grad n down|,|grad n|,tau up,tau down,lap n up,lap n down
6.052469800233899e-09,0.31794560040147507,0.0,0.6358912008029501,0.0,0.6358912008029501,0.15897280020073754,0.0,-2220.0019582376267,0.0
3.9081641603627463e-07,0.31639555771115246,0.0,0.6327911154223049,0.0,0.6327911154223049,0.15819777885557623,0.0,-418.34343855920974,0.0
3.703523668125945e-06,0.3136274862339838,0.0,0.6272549724679676,0.0,0.6272549724679676,0.1568137431169919,0.0,-168.05123460567583,0.0
1.7372198729916464e-05,0.3096755514828139,0.0,0.6193511029656278,0.0,0.6193511029656278,0.15483777574140695,0.0,-88.847905922429,0.0
5.641266736377902e-05,0.304588892550379,0.0,0.609177785100758,0.0,0.609177785100758,0.1522944462751895,0.0,-54.082991794608816,0.0
0.00014603336393746207,0.298430046700644,0.0,0.596860093401288,0.0,0.596860093401288,0.149215023350322,0.0,-35.82669230234678,0.0
0.0003240995943278098,0.2912735404171768,0.0,0.5825470808343536,0.0,0.5825470808343536,0.1456367702085884,0.0,-25.086831925773776,0.0
0.0006434223816500626,0.2832042860854503,0.0,0.5664085721709006,0.0,0.5664085721709006,0.14160214304272514,0.0,-18.255292140697293,0.0
0.0011738388275273498,0.2743158034851049,0.0,0.5486316069702099,0.0,0.5486316069702099,0.13715790174255246,0.0,-13.656313562449569,0.0
0.0020040530706256134,0.2647083158403792,0.0,0.5294166316807584,0.0,0.5294166316807584,0.1323541579201896,0.0,-10.425453570080478,0.0
0.0032432093968436495,0.25448677593496755,0.0,0.5089735518699351,0.0,0.5089735518699351,0.12724338796748377,0.0,-8.079943114761651,0.0
0.00502217182873029,0.2437588783720446,0.0,0.4875177567440892,0.0,0.4875177567440892,0.1218794391860223,0.0,-6.332820146088609,0.0
0.007494487569376431,0.2326331119500385,0.0,0.465266223900077,0.0,0.465266223900077,0.11631655597501925,0.0,-5.00468962436176,0.0
0.0108370149695732,0.22121690196583574,0.0,0.4424338039316715,0.0,0.4424338039316715,0.11060845098291787,0.0,-3.978622745102946,0.0
0.01525020019544639,0.2096148864398271,0.0,0.4192297728796542,0.0,0.4192297728796542,0.10480744321991355,0.0,-3.175676570824957,0.0
0.02095799046404032,0.1979273631624683,0.0,0.3958547263249366,0.0,0.3958547263249366,0.09896368158123416,0.0,-2.540925041354973,0.0
0.028207375551579015,0.18624893648978297,0.0,0.37249787297956594,0.0,0.37249787297956594,0.09312446824489148,0.0,-2.0351438738355627,0.0
0.037267553227172893,0.17466738437315485,0.0,0.3493347687463097,0.0,0.3493347687463097,0.08733369218657742,0.0,-1.6296783112478217,0.0
0.048428718286090744,0.1632627575929513,0.0,0.3265255151859026,0.0,0.3265255151859026,0.08163137879647565,0.0,-1.303174138099577,0.0
0.06200047891327841,0.15210671494102188,0.0,0.30421342988204375,0.0,0.30421342988204375,0.07605335747051094,0.0,-1.039437149599355,0.0
0.07830990816094162,0.1412620904816973,0.0,0.2825241809633946,0.0,0.2825241809633946,0.07063104524084865,0.0,-0.8259966857510989,0.0
0.09769924233492722,0.13078268227267867,0.0,0.26156536454535734,0.0,0.26156536454535734,0.06539134113633933,0.0,-0.6531201400407312,0.0
0.12052324201513345,0.12071324623714698,0.0,0.24142649247429396,0.0,0.24142649247429396,0.06035662311857349,0.0,-0.5131231642461198,0.0
0.1471462352471239,0.11108967436760238,0.0,0.22217934873520476,0.0,0.22217934873520476,0.05554483718380119,0.0,-0.3998778647374014,0.0
0.17793886609889198,0.10193933316300309,0.0,0.20387866632600618,0.0,0.20387866632600618,0.050969666581501545,0.0,-0.30845610831801373,0.0
0.21327457524269522,0.09328153614337549,0.0,0.18656307228675098,0.0,0.18656307228675098,0.046640768071687745,0.0,-0.23486663854807777,0.0
0.2535258424630956,0.08512812338511237,0.0,0.17025624677022475,0.0,0.17025624677022475,0.042564061692556186,0.0,-0.17585837853236552,0.0
0.29906022397668985,0.07748412116623626,0.0,0.15496824233247253,0.0,0.15496824233247253,0.03874206058311813,0.0,-0.1287711351181021,0.0
0.3502362201470953,0.07034845586168408,0.0,0.14069691172336815,0.0,0.14069691172336815,0.03517422793084204,0.0,-0.09142073653290027,0.0
0.4073990115627531,0.06371469802074668,0.0,0.12742939604149336,0.0,0.12742939604149336,0.03185734901037334,0.0,-0.06200952681038563,0.0
0.4708761034909793,0.05757181491885882,0.0,0.11514362983771764,0.0,0.11514362983771764,0.02878590745942941,0.0,-0.03905578213939311,0.0
0.5409729204079702,0.0519049126308735,0.0,0.103809825261747,0.0,0.103809825261747,0.02595245631543675,0.0,-0.021337431860468523,0.0
0.6179683936118797,0.046695951658378546,0.0,0.09339190331675709,0.0,0.09339190331675709,0.023347975829189273,0.0,-0.007846732557209742,0.0
0.7021105858415579,0.04192442321056001,0.0,0.08384884642112002,0.0,0.08384884642112002,0.020962211605280005,0.0,0.002246565163112237,0.0
0.7936123973332412,0.037567976257803046,0.0,0.07513595251560609,0.0,0.07513595251560609,0.018783988128901523,0.0,0.009625383840523607,0.0
0.892647397845992,0.033602988343899264,0.0,0.06720597668779853,0.0,0.06720597668779853,0.016801494171949632,0.0,0.014850191968532827,0.0
0.9993458288675958,0.030005075774856706,0.0,0.06001015154971341,0.0,0.06001015154971341,0.015002537887428353,0.0,0.018379624600245927,0.0
1.113790819477952,0.02674954114217274,0.0,0.05349908228434548,0.0,0.05349908228434548,0.01337477057108637,0.0,0.020587653160659407,0.0
1.2360148581978192,0.023811758150632623,0.0,0.04762351630126525,0.0,0.04762351630126525,0.011905879075316312,0.0,0.021777928399930792,0.0
1.365996561595953,0.021167495389730798,0.0,0.042334990779461595,0.0,0.042334990779461595,0.010583747694865399,0.0,0.02219578838205984,0.0
1.5036577784777387,0.018793182015073566,0.0,0.03758636403014713,0.0,0.03758636403014713,0.009396591007536783,0.0,0.022038324178013727,0.0
1.6488610661468364,0.01666611930663353,0.0,0.03333223861326706,0.0,0.03333223861326706,0.008333059653316766,0.0,0.02146282054850549,0.0
1.8014075725374363,0.014764642769823302,0.0,0.029529285539646604,0.0,0.029529285539646604,0.007382321384911651,0.0,0.020593830942301432,0.0
1.961035354980188,0.013068239875493513,0.0,0.026136479750987027,0.0,0.026136479750987027,0.006534119937746757,0.0,0.019529100992362502,0.0
2.127418163010288,0.011557628732854762,0.0,0.023115257465709523,0.0,0.023115257465709523,0.005778814366427381,0.0,0.018344519043264954,0.0
2.300164708986961,0.010214802993444466,0.0,0.02042960598688893,0.0,0.02042960598688893,0.005107401496722233,0.0,0.017098243689692334,0.0
2.478818446390242,0.009023048132786074,0.0,0.01804609626557215,0.0,0.01804609626557215,0.004511524066393037,0.0,0.015834135109638808,0.0
2.662857871532807,0.007966933985617921,0.0,0.015933867971235843,0.0,0.015933867971235843,0.003983466992808961,0.0,0.014584597875801976,0.0
2.8516973601089646,0.007032288053751199,0.0,0.014064576107502398,0.0,0.014064576107502398,0.0035161440268755995,0.0,0.013372927005752853,0.0
3.0446885455216095,0.00620615369220669,0.0,0.01241230738441338,0.0,0.01241230738441338,0.003103076846103345,0.0,0.012215235593720319,0.0
3.2411222413439855,0.005476736834528205,0.0,0.01095347366905641,0.0,0.01095347366905641,0.0027383684172641023,0.0,0.011122030959131158,0.0
3.4402309056008296,0.004833344463004576,0.0,0.009666688926009153,0.0,0.009666688926009153,0.002416672231502288,0.0,0.01009949648114345,0.0
3.6411916398498407,0.004266317580666549,0.0,0.008532635161333098,0.0,0.008532635161333098,0.0021331587903332745,0.0,0.009150527886646527,0.0
3.843129711345337,0.003766961012138207,0.0,0.007533922024276414,0.0,0.007533922024276414,0.0018834805060691036,0.0,0.008275565508552941,0.0
4.045122581911938,0.0033274719589467304,0.0,0.006654943917893461,0.0,0.006654943917893461,0.0016637359794733652,0.0,0.007473257764740772,0.0
4.246204422587589,0.0029408688678699327,0.0,0.0058817377357398655,0.0,0.0058817377357398655,0.0014704344339349664,0.0,0.00674098569175883,0.0
4.445371088655861,0.002600921841861125,0.0,0.00520184368372225,0.0,0.00520184368372225,0.0013004609209305625,0.0,0.00607527369120146,0.0
4.641585525416193,0.002302085533442158,0.0,0.004604171066884316,0.0,0.004604171066884316,0.001151042766721079,0.0,0.005472107617717782,0.0
4.8337835709701915,0.0020394352099305404,0.0,0.004078870419861081,0.0,0.004078870419861081,0.0010197176049652702,0.0,0.004927177876195375,0.0
5.020880118477853,0.0018086064669404827,0.0,0.0036172129338809655,0.0,0.0036172129338809655,0.0009043032334702414,0.0,0.004436062232067102,0.0
5.2017755967899255,0.0016057388888503664,0.0,0.0032114777777007327,0.0,0.0032114777777007327,0.0008028694444251832,0.0,0.003994360511309378,0.0
5.375362725121585,0.0014274238093564939,0.0,0.0028548476187129877,0.0,0.0028548476187129877,0.0007137119046782469,0.0,0.003597791220623818,0.0
5.540533494532905,0.0012706562085008815,0.0,0.002541312417001763,0.0,0.002541312417001763,0.0006353281042504407,0.0,0.003242258304410161,0.0
5.6961863264515555,0.0011327906912114395,0.0,0.002265581382422879,0.0,0.002265581382422879,0.0005663953456057197,0.0,0.0029238947294894894,0.0
5.84123335632903,0.001011501422998365,0.0,0.00202300284599673,0.0,0.00202300284599673,0.0005057507114991825,0.0,0.0026390883118376433,0.0
5.974607788793714,0.0009047458477296015,0.0,0.001809491695459203,0.0,0.001809491695459203,0.0004523729238648007,0.0,0.0023844941368477263,0.0
6.095271269365134,0.0008107319773045851,0.0,0.0016214639546091702,0.0,0.0016214639546091702,0.00040536598865229255,0.0,0.0021570370448287333,0.0
6.202221216938054,0.0007278890207766632,0.0,0.0014557780415533263,0.0,0.0014557780415533263,0.0003639445103883316,0.0,0.001953906929193986,0.0
6.294498060843381,0.0006548411085588523,0.0,0.0013096822171177046,0.0,0.0013096822171177046,0.00032742055427942616,0.0,0.0017725490020958168,0.0
6.371192326352242,0.0005903838636102757,0.0,0.0011807677272205515,0.0,0.0011807677272205515,0.00029519193180513786,0.0,0.0016106507001996907,0.0
6.431451513012174,0.0005334635740686394,0.0,0.0010669271481372788,0.0,0.0010669271481372788,0.0002667317870343197,0.0,0.0014661265137395755,0.0
6.474486711184816,0.00048315872907971313,0.0,0.0009663174581594263,0.0,0.0009663174581594263,0.00024157936453985657,0.0,0.0013371017093584815,0.0
6.4995789035978335,0.00043866369025377243,0.0,0.0008773273805075449,0.0,0.0008773273805075449,0.00021933184512688622,0.0,0.0012218956681726064,0.0
6.5060849006057415,0.000399274284164425,0.0,0.00079854856832885,0.0,0.00079854856832885,0.0001996371420822125,0.0,0.0011190053636652689,0.0
6.493442860176056,0.000364375115720748,0.0,0.000728750231441496,0.0,0.000728750231441496,0.000182187557860374,0.0,0.001027089349840641,0.0
6.4611773463505475,0.00033342841739509655,0.0,0.0006668568347901931,0.0,0.0006668568347901931,0.00016671420869754827,0.0,0.0009449525105071566,0.0
6.408903883065489,0.0003059642646388393,0.0,0.0006119285292776786,0.0,0.0006119285292776786,0.00015298213231941966,0.0,0.0008715317289095017,0.0
6.3363329637153285,0.0002815720029604507,0.0,0.0005631440059209014,0.0,0.0005631440059209014,0.00014078600148022534,0.0,0.0008058825676238748,0.0
6.243273480695021,0.0002598927467780815,0.0,0.000519785493556163,0.0,0.000519785493556163,0.00012994637338904075,0.0,0.0007471669970902231,0.0
6.129635543319255,0.00024061282408428914,0.0,0.0004812256481685783,0.0,0.0004812256481685783,0.00012030641204214457,0.0,0.00069464217362266,0.0
5.9954326569599,0.0002234580540381187,0.0,0.0004469161080762374,0.0,0.0004469161080762374,0.00011172902701905935,0.0,0.0006476502411590005,0.0
5.840783240935032,0.00020818875674999068,0.0,0.00041637751349998136,0.0,0.00041637751349998136,0.00010409437837499534,0.0,0.0006056091129104606,0.0
5.665911467586504,0.00019459540571259383,0.0,0.00038919081142518765,0.0,0.00038919081142518765,9.729770285629691e-05,0.0,0.0005680041774669905,0.0
5.471147410049779,0.00018249484355426738,0.0,0.00036498968710853475,0.0,0.00036498968710853475,9.124742177713369e-05,0.0,0.0005343808672179167,0.0
5.256926491423048,0.00017172699107273698,0.0,0.00034345398214547396,0.0,0.00034345398214547396,8.586349553636849e-05,0.0,0.0005043380239064782,0.0
5.023788233337713,0.00016215198788664635,0.0,0.0003243039757732927,0.0,0.0003243039757732927,8.107599394332317e-05,0.0,0.0004775219957647037,0.0
4.772374307272952,0.00015364771057186608,0.0,0.00030729542114373216,0.0,0.00030729542114373216,7.682385528593304e-05,0.0,0.0004536214022040535,0.0
4.503425897323858,0.0001461076208882566,0.0,0.0002922152417765132,0.0,0.0002922152417765132,7.30538104441283e-05,0.0,0.00043236250487570206,0.0
4.217780388492052,0.00013943890271341877,0.0,0.00027887780542683755,0.0,0.00027887780542683755,6.971945135670939e-05,0.0,0.00041350512761133615,0.0
3.9163673999354534,0.0001335608516473067,0.0,0.0002671217032946134,0.0,0.0002671217032946134,6.678042582365335e-05,0.0,0.0003968390719720889,0.0
3.6002041880571753,0.0001284034859990853,0.0,0.0002568069719981706,0.0,0.0002568069719981706,6.420174299954265e-05,0.0,0.0003821809796194783,0.0
3.2703904501481555,0.00012390635207678482,0.0,0.00024781270415356963,0.0,0.00024781270415356963,6.195317603839241e-05,0.0,0.0003693715972964727,0.0
2.9281025663378872,0.00012001750042934045,0.0,0.0002400350008586809,0.0,0.0002400350008586809,6.0008750214670225e-05,0.0,0.00035827340474036974,0.0
2.574587328783495,0.00011669261299248156,0.0,0.00023338522598496313,0.0,0.00023338522598496313,5.834630649624078e-05,0.0,0.0003487685702498855,0.0
2.211155232441051,0.00011389426400802913,0.0,0.00022778852801605827,0.0,0.00022778852801605827,5.694713200401457e-05,0.0,0.0003407572028193074,0.0
1.839173483549079,0.00011159130013655943,0.0,0.00022318260027311886,0.0,0.00022318260027311886,5.5795650068279714e-05,0.0,0.00033415587361189896,0.0
1.4600592327274946,0.00010975832726897691,0.0,0.00021951665453795382,0.0,0.00021951665453795382,5.4879163634488454e-05,0.0,0.00032889638265510803,0.0
1.075275581443025,0.00010837529240499519,0.0,0.00021675058480999037,0.0,0.00021675058480999037,5.4187646202497594e-05,0.0,0.0003249247467059577,0.0
0.6863513479351009,0.00010742714206462287,0.0,0.00021485428412924574,0.0,0.00021485428412924574,5.3713571032311435e-05,0.0,0.00032220036235329177,0.0
0.29532949367839156,0.00010690341518779468,0.0,0.00021380683037558937,0.0,0.00021380683037558937,5.345170759389734e-05,0.0,0.00032069494158002587,0.0
5571.607052173184,1.9360976968940924e-12,0.0,3.872195393788185e-12,0.0,3.872195393788185e-12,9.680488484470462e-13,0.0,7.1446459021952904e-12,0.0
2550.0624080134576,1.4757416701628193e-10,0.0,2.9514833403256387e-10,0.0,2.9514833403256387e-10,7.378708350814097e-11,0.0,5.353648090483217e-10,0.0
1321.152627343585,2.778467611596748e-09,0.0,5.556935223193496e-09,0.0,5.556935223193496e-09,1.389233805798374e-09,0.0,9.916038014875013e-09,0.0
752.9532232412392,2.223347422287203e-08,0.0,4.446694844574406e-08,0.0,4.446694844574406e-08,1.1116737111436015e-08,0.0,7.813894183869562e-08,0.0
462.50746842542526,1.0236505539771253e-07,0.0,2.0473011079542507e-07,0.0,2.0473011079542507e-07,5.1182527698856266e-08,0.0,3.546828998059547e-07,0.0
301.62977560752023,3.2459072782356004e-07,0.0,6.491814556471201e-07,0.0,6.491814556471201e-07,1.6229536391178002e-07,0.0,1.1101394184581993e-06,0.0
206.50059750595804,7.930529309346409e-07,0.0,1.5861058618692819e-06,0.0,1.5861058618692819e-06,3.9652646546732047e-07,0.0,2.6804968107389406e-06,0.0
147.12861060664108,1.6060013158029647e-06,0.0,3.2120026316059295e-06,0.0,3.2120026316059295e-06,8.030006579014824e-07,0.0,5.37063349021812e-06,0.0
108.36166945973228,2.8313967391631274e-06,0.0,5.662793478326255e-06,0.0,5.662793478326255e-06,1.4156983695815637e-06,0.0,9.37793834141577e-06,0.0
82.06378345774895,4.496268429377541e-06,0.0,8.992536858755083e-06,0.0,8.992536858755083e-06,2.2481342146887707e-06,0.0,1.4764116331955878e-05,0.0
63.63361570389854,6.588849815664205e-06,0.0,1.317769963132841e-05,0.0,1.317769963132841e-05,3.2944249078321023e-06,0.0,2.146816379912064e-05,0.0
50.35001056189105,9.067934159156442e-06,0.0,1.8135868318312884e-05,0.0,1.8135868318312884e-05,4.533967079578221e-06,0.0,2.934041403416146e-05,0.0
40.54009145972174,1.1874193518017725e-05,0.0,2.374838703603545e-05,0.0,2.374838703603545e-05,5.937096759008863e-06,0.0,3.81804050784211e-05,0.0
33.13993106893152,1.4940262481320663e-05,0.0,2.9880524962641325e-05,0.0,2.9880524962641325e-05,7.470131240660331e-06,0.0,4.77689312768768e-05,0.0
27.45234720659756,1.8198295640934115e-05,0.0,3.639659128186823e-05,0.0,3.639659128186823e-05,9.099147820467057e-06,0.0,5.789097983313044e-05,0.0
23.008208159821145,2.1584895460097513e-05,0.0,4.3169790920195026e-05,0.0,4.3169790920195026e-05,1.0792447730048756e-05,0.0,6.834989567209215e-05,0.0
19.484285478435826,2.5043854395046446e-05,0.0,5.008770879009289e-05,0.0,5.008770879009289e-05,1.2521927197523223e-05,0.0,7.897461247715026e-05,0.0
16.65310889743615,2.8527302783811315e-05,0.0,5.705460556762263e-05,0.0,5.705460556762263e-05,1.4263651391905658e-05,0.0,8.962204327236406e-05,0.0
14.351514900016443,3.199580598543662e-05,0.0,6.399161197087325e-05,0.0,6.399161197087325e-05,1.599790299271831e-05,0.0,0.00010017642781870948,0.0
12.460431038605035,3.5417836692143164e-05,0.0,7.083567338428633e-05,0.0,7.083567338428633e-05,1.7708918346071582e-05,0.0,0.00011054698066807249,0.0
10.891590275357114,3.8768925036433797e-05,0.0,7.753785007286759e-05,0.0,7.753785007286759e-05,1.9384462518216898e-05,0.0,0.00012066475619273749,0.0
9.578621287378539,4.2030685744546e-05,0.0,8.4061371489092e-05,0.0,8.4061371489092e-05,2.1015342872273e-05,0.0,0.00013047930871781896,0.0
8.470961910228972,4.5189844205268e-05,0.0,9.0379688410536e-05,0.0,9.0379688410536e-05,2.2594922102634e-05,0.0,0.00013995548342238942,0.0
7.529630080945375,4.823732952814996e-05,0.0,9.647465905629992e-05,0.0,9.647465905629992e-05,2.411866476407498e-05,0.0,0.000149070511470846,0.0
6.724239220515387,5.116746738897864e-05,0.0,0.00010233493477795728,0.0,0.00010233493477795728,2.558373369448932e-05,0.0,0.0001578114805518,0.0
6.030861341699628,5.397728357470869e-05,0.0,0.00010795456714941739,0.0,0.00010795456714941739,2.6988641787354346e-05,0.0,0.0001661731913628067,0.0
5.430476601784282,5.666591640395644e-05,0.0,0.00011333183280791289,0.0,0.00011333183280791289,2.833295820197822e-05,0.0,0.00017415637739559738,0.0
4.907834385474308,5.923412943668479e-05,0.0,0.00011846825887336958,0.0,0.00011846825887336958,2.9617064718342394e-05,0.0,0.0001817662494807368,0.0
4.450607031864826,6.16839128605651e-05,0.0,0.0001233678257211302,0.0,0.0001233678257211302,3.084195643028255e-05,0.0,0.0001890113210360853,0.0
4.048754252495695,6.401816114333942e-05,0.0,0.00012803632228667884,0.0,0.00012803632228667884,3.200908057166971e-05,0.0,0.000195902470326541,0.0
3.694040998156924,6.62404149893477e-05,0.0,0.0001324808299786954,0.0,0.0001324808299786954,3.312020749467385e-05,0.0,0.00020245219945131537,0.0
3.3796682967297995,6.835465671750156e-05,0.0,0.00013670931343500313,0.0,0.00013670931343500313,3.417732835875078e-05,0.0,0.00020867405451402313,0.0
3.099988107117429,7.036514951369957e-05,0.0,0.00014073029902739913,0.0,0.00014073029902739913,3.518257475684978e-05,0.0,0.00021458217650676529,0.0
2.8502812515478815,7.227631238686397e-05,0.0,0.00014455262477372795,0.0,0.00014455262477372795,3.6138156193431986e-05,0.0,0.00022019095731242743,0.0
2.626583131081891,7.409262395775483e-05,0.0,0.00014818524791550966,0.0,0.00014818524791550966,3.7046311978877415e-05,0.0,0.00022551477963646968,0.0
2.4255459435264872,7.581854937767875e-05,0.0,0.0001516370987553575,0.0,0.0001516370987553575,3.7909274688839375e-05,0.0,0.00023056782352008398,0.0
2.2443290082007823,7.745848569040802e-05,0.0,0.00015491697138081604,0.0,0.00015491697138081604,3.872924284520401e-05,0.0,0.0002353639253516074,0.0
2.0805108957456517,7.901672181556164e-05,0.0,0.0001580334436311233,0.0,0.0001580334436311233,3.950836090778082e-05,0.0,0.00023991647802079917,0.0
1.9320185944190178,8.049741005641893e-05,0.0,0.00016099482011283785,0.0,0.00016099482011283785,4.024870502820946e-05,0.0,0.00024423836311069204,0.0
1.7970700768358017,8.190454663537667e-05,0.0,0.00016380909327075335,0.0,0.00016380909327075335,4.095227331768834e-05,0.0,0.0002483419078603221,0.0
1.67412747447788,8.324195925308195e-05,0.0,0.0001664839185061639,0.0,0.0001664839185061639,4.162097962654098e-05,0.0,0.000252238861123171,0.0
1.5618587002344262,8.451330006915513e-05,0.0,0.00016902660013831027,0.0,0.00016902660013831027,4.225665003457757e-05,0.0,0.00025594038374925163,0.0
1.4591058377529669,8.572204282842842e-05,0.0,0.00017144408565685683,0.0,0.00017144408565685683,4.286102141421421e-05,0.0,0.0002594570497849239,0.0
1.3648589806949627,8.687148311994924e-05,0.0,0.00017374296623989848,0.0,0.00017374296623989848,4.343574155997462e-05,0.0,0.0002627988556575105,0.0
1.2782344842259283,8.796474096795057e-05,0.0,0.00017592948193590114,0.0,0.00017592948193590114,4.3982370483975285e-05,0.0,0.00026597523512833607,0.0
1.1984568064499832,8.900476512408393e-05,0.0,0.00017800953024816785,0.0,0.00017800953024816785,4.450238256204196e-05,0.0,0.0002689950782882418,0.0
1.124843284646326,8.999433856636869e-05,0.0,0.00017998867713273737,0.0,0.00017998867713273737,4.499716928318434e-05,0.0,0.0002718667532588085,0.0
1.0567913216341356,9.093608481903543e-05,0.0,0.00018187216963807087,0.0,0.00018187216963807087,4.5468042409517717e-05,0.0,0.00027459812957059685,0.0
0.9937675599982645,9.183247479406458e-05,0.0,0.00018366494958812915,0.0,0.00018366494958812915,4.591623739703229e-05,0.0,0.00027719660243300724,0.0
0.9352987027154649,9.268583392408853e-05,0.0,0.00018537166784817705,0.0,0.00018537166784817705,4.6342916962044263e-05,0.0,0.0002796691173020443,0.0
0.8809637028112731,9.349834941093532e-05,0.0,0.00018699669882187063,0.0,0.00018699669882187063,4.674917470546766e-05,0.0,0.0002820221943028318,0.0
0.8303870957577749,9.427207745728639e-05,0.0,0.00018854415491457278,0.0,0.00018854415491457278,4.7136038728643194e-05,0.0,0.0002842619521816309,0.0
0.783233289223421,9.500895038299292e-05,0.0,0.00019001790076598584,0.0,0.00019001790076598584,4.750447519149646e-05,0.0,0.00028639413155411996,0.0
0.7392016576856755,9.571078355436557e-05,0.0,0.00019142156710873115,0.0,0.00019142156710873115,4.7855391777182787e-05,0.0,0.0002884241172881303,0.0
0.6980223159943939,9.63792820757203e-05,0.0,0.0001927585641514406,0.0,0.0001927585641514406,4.818964103786015e-05,0.0,0.00029035695991426344,0.0
0.6594524675326948,9.70160472087857e-05,0.0,0.0001940320944175714,0.0,0.0001940320944175714,4.850802360439285e-05,0.0,0.0002921973960001584,0.0
0.6232732401808302,9.762258249822779e-05,0.0,0.00019524516499645558,0.0,0.00019524516499645558,4.8811291249113894e-05,0.0,0.0002939498674564423,0.0
0.5892869376447137,9.820029959126502e-05,0.0,0.00019640059918253004,0.0,0.00019640059918253004,4.910014979563251e-05,0.0,0.0002956185397666644,0.0
0.5573146454910006,9.875052374675192e-05,0.0,0.00019750104749350383,0.0,0.00019750104749350383,4.937526187337596e-05,0.0,0.00029720731915154765,0.0
0.5271941409328864,9.927449903467866e-05,0.0,0.00019854899806935733,0.0,0.00019854899806935733,4.963724951733933e-05,0.0,0.0002987198686910254,0.0
0.49877806342865677,9.977339323116194e-05,0.0,0.00019954678646232388,0.0,0.00019954678646232388,4.988669661558097e-05,0.0,0.0003001596234368575,0.0
0.471932309803016,0.00010024830241698999,0.0,0.00020049660483397998,0.0,0.00020049660483397998,5.0124151208494995e-05,0.0,0.0003015298045549758,0.0
0.44653462313117454,0.00010070025528988612,0.0,0.00020140051057977224,0.0,0.00020140051057977224,5.035012764494306e-05,0.0,0.00030283343254078863,0.0
0.4224733492399411,0.00010113021720206679,0.0,0.00020226043440413357,0.0,0.00020226043440413357,5.056510860103339e-05,0.0,0.00030407333955301247,0.0
0.39964633854174425,0.00010153909393553703,0.0,0.00020307818787107407,0.0,0.00020307818787107407,5.076954696776852e-05,0.0,0.00030525218091257994,0.0
0.3779599741584918,0.00010192773522802923,0.0,0.00020385547045605846,0.0,0.00020385547045605846,5.0963867614014615e-05,0.0,0.0003063724458131879,0.0
0.3573283100204497,0.00010229693806263421,0.0,0.00020459387612526843,0.0,0.00020459387612526843,5.114846903131711e-05,0.0,0.0003074364672893029,0.0
0.33767230492730066,0.00010264744973408393,0.0,0.00020529489946816785,0.0,0.00020529489946816785,5.132372486704196e-05,0.0,0.00030844643148617023,0.0
0.3189191405067287,0.0001029799707043774,0.0,0.0002059599414087548,0.0,0.0002059599414087548,5.14899853521887e-05,0.0,0.0003094043862747206,0.0
0.30100161265813247,0.00010329515726004776,0.0,0.00020659031452009553,0.0,0.00020659031452009553,5.164757863002388e-05,0.0,0.0003103122492523604,0.0
0.2838575874742744,0.0001035936239828878,0.0,0.0002071872479657756,0.0,0.0002071872479657756,5.17968119914439e-05,0.0,0.00031117181516856834,0.0
0.2674295138309957,0.0001038759460454055,0.0,0.000207751892090811,0.0,0.000207751892090811,5.193797302270275e-05,0.0,0.0003119847628120649,0.0
0.2516639858581266,0.00010414266134170359,0.0,0.00020828532268340718,0.0,0.00020828532268340718,5.2071330670851794e-05,0.0,0.0003127526613941297,0.0
0.23651134938027857,0.0001043942724638769,0.0,0.0002087885449277538,0.0,0.0002087885449277538,5.219713623193845e-05,0.0,0.00031347697646046937,0.0
0.22192534716714005,0.00010463124853341331,0.0,0.00020926249706682663,0.0,0.00020926249706682663,5.231562426670666e-05,0.0,0.0003141590753618827,0.0
0.20786279847833566,0.00010485402689648185,0.0,0.0002097080537929637,0.0,0.0002097080537929637,5.2427013448240925e-05,0.0,0.00031480023231188913,0.0
0.1942833089436703,0.00010506301469139988,0.0,0.00021012602938279976,0.0,0.00021012602938279976,5.253150734569994e-05,0.0,0.0003154016330574755,0.0
0.18114900729861744,0.00010525859029599069,0.0,0.00021051718059198138,0.0,0.00021051718059198138,5.2629295147995346e-05,0.0,0.0003159643791871756,0.0
0.16842430590890925,0.00010544110466198768,0.0,0.00021088220932397535,0.0,0.00021088220932397535,5.272055233099384e-05,0.0,0.00031648949209885574,0.0
0.15607568237628242,0.00010561088254310067,0.0,0.00021122176508620133,0.0,0.00021122176508620133,5.280544127155033e-05,0.0,0.00031697791664782587,0.0
0.14407147982758722,0.00010576822362285379,0.0,0.00021153644724570758,0.0,0.00021153644724570758,5.2884111811426895e-05,0.0,0.00031743052449423515,0.0
0.13238172375902757,0.00010591340354780275,0.0,0.0002118268070956055,0.0,0.0002118268070956055,5.295670177390137e-05,0.0,0.00031784811716711994,0.0
0.12097795354202606,0.00010604667487128565,0.0,0.0002120933497425713,0.0,0.0002120933497425713,5.3023337435642827e-05,0.0,0.000318231428861013,0.0
0.10983306690346091,0.00010616826791241354,0.0,0.0002123365358248271,0.0,0.0002123365358248271,5.308413395620677e-05,0.0,0.0003185811289796038,0.0
0.0989211758775311,0.00010627839153459967,0.0,0.00021255678306919933,0.0,0.00021255678306919933,5.313919576729983e-05,0.0,0.0003188978244396567,0.0
0.0882174729017784,0.00010637723384755145,0.0,0.0002127544676951029,0.0,0.0002127544676951029,5.318861692377572e-05,0.0,0.00031918206174720825,0.0
0.07769810591987378,0.0001064649628363341,0.0,0.0002129299256726682,0.0,0.0002129299256726682,5.323248141816705e-05,0.0,0.0003194343288570689,0.0
0.06734006163565873,0.00010654172692093194,0.0,0.0002130834538418639,0.0,0.0002130834538418639,5.327086346046597e-05,0.0,0.0003196550568260414,0.0
0.05712105669184024,0.00010660765544988877,0.0,0.00021321531089977755,0.0,0.00021321531089977755,5.3303827724944386e-05,0.0,0.0003198446212706427,0.0
0.04701943857854801,0.0001066628591329408,0.0,0.0002133257182658816,0.0,0.0002133257182658816,5.33314295664704e-05,0.0,0.00032000334364387374,0.0
0.037014106828071526,0.00010670743042357453,0.0,0.00021341486084714906,0.0,0.00021341486084714906,5.3353715211787264e-05,0.0,0.00032013149236282545,0.0
0.027084516069115255,0.00010674144389320626,0.0,0.00021348288778641253,0.0,0.00021348288778641253,5.337072194660313e-05,0.0,0.0003202292839072955,0.0
0.01721128334596429,0.00010676495685867515,0.0,0.0002135299137173503,0.0,0.0002135299137173503,5.3382478429337574e-05,0.0,0.00032029688464202605,0.0
0.007387518979937298,0.00010677801365654959,0.0,0.00021355602731309918,0.0,0.00021355602731309918,5.3389006828274796e-05,0.0,0.00032033442311906217,0.0
