Weight,n up,n down,|grad n up|,|grad n down|,|grad n|,tau up,tau down,lap n up,lap n down
6.052469800233899e-09,52278.39198287087,52278.39198287087,5646821.050036643,5646821.050036643,11293642.100073285,82508479.83542107,82508479.83542107,-19112914934.057526,-19112914934.057526
3.9081641603627463e-07,40158.269371507995,40158.269371507995,4330796.968392232,4330796.968392232,8661593.936784465,64135066.05352807,64135066.05352807,-2400849333.158677,-2400849333.158677
3.703523668125945e-06,25036.976697492453,25036.976697492453,2681947.7384876963,2681947.7384876963,5363895.476975393,40892093.25911006,40892093.25911006,-430416512.98479384,-430416512.98479384
1.7372198729916464e-05,12787.57198274158,12787.57198274158,1334748.5297423925,1334748.5297423925,2669497.059484785,21507526.82012579,21507526.82012579,-46334604.14148661,-46334604.14148661
5.641266736377902e-05,5567.323145561014,5567.323145561014,529200.6826956369,529200.6826956369,1058401.3653912737,9424892.322720267,9424892.322720267,11580774.854385793,11580774.854385793
0.00014603336393746207,2362.0460195481464,2362.0460195481464,166606.05715271315,166606.05715271315,333212.1143054263,3510190.5077460296,3510190.5077460296,8447405.898425277,8447405.898425277
0.0003240995943278098,1245.673001423411,1245.673001423411,45738.160068554556,45738.160068554556,91476.32013710911,1168208.4531838705,1168208.4531838705,2279174.4152478697,2279174.4152478697
0.0006434223816500626,857.1316870767487,857.1316870767487,17796.10375452433,17796.10375452433,35592.20750904866,395646.16621384246,395646.16621384246,60834.29577568226,60834.29577568226
0.0011738388275273498,622.0018412443221,622.0018412443221,12932.644879144205,12932.644879144205,25865.28975828841,167913.3414244251,167913.3414244251,-188355.48801485347,-188355.48801485347
0.0020040530706256134,417.2609050649095,417.2609050649095,9937.653514971997,9937.653514971997,19875.307029943993,93278.50445944369,93278.50445944369,-29563.632509087853,-29563.632509087853
0.0032432093968436495,258.0716557325954,258.0716557325954,6279.282451581714,6279.282451581714,12558.564903163428,56679.77319447157,56679.77319447157,60304.45773745507,60304.45773745507
0.00502217182873029,158.19722960941326,158.19722960941326,3230.0968618686775,3230.0968618686775,6460.193723737355,32977.87578335259,32977.87578335259,60100.6052233761,60100.6052233761
0.007494487569376431,106.36930818078376,106.36930818078376,1439.0242417974557,1439.0242417974557,2878.0484835949114,17825.586664519797,17825.586664519797,30899.12541485694,30899.12541485694
0.0108370149695732,81.44014271317381,81.44014271317381,683.2285407105218,683.2285407105218,1366.4570814210435,9197.429497359608,9197.429497359608,8011.4452453501735,8011.4452453501735
0.01525020019544639,66.6172144068737,66.6172144068737,473.3734391937095,473.3734391937095,946.746878387419,4822.372620726442,4822.372620726442,-1725.5732782680861,-1725.5732782680861
0.02095799046404032,53.680133994246965,53.680133994246965,438.10032026603136,438.10032026603136,876.2006405320627,2754.330134311676,2754.330134311676,-3009.6676581506204,-3009.6676581506204
0.028207375551579015,40.79609600807937,40.79609600807937,403.7939080770735,403.7939080770735,807.587816154147,1751.371015097405,1751.371015097405,-1299.9576540433166,-1299.9576540433166
0.037267553227172893,28.908869112597255,28.908869112597255,331.928683536069,331.928683536069,663.857367072138,1188.2452204664878,1188.2452204664878,411.6272714190929,411.6272714190929
0.048428718286090744,19.24727241511776,19.24727241511776,240.151709147703,240.151709147703,480.303418295406,811.1328027964174,811.1328027964174,1240.5472647937056,1240.5472647937056
0.06200047891327841,12.333852870506314,12.333852870506314,153.74029807176606,153.74029807176606,307.4805961435321,536.2586232771768,536.2586232771768,1314.6086033429476,1314.6086033429476
0.07830990816094162,7.954818923913125,7.954818923913125,87.4551051646396,87.4551051646396,174.9102103292792,338.01594806238035,338.01594806238035,1010.512423423063,1010.512423423063
0.09769924233492722,5.490525537476939,5.490525537476939,44.39020206646368,44.39020206646368,88.78040413292736,202.9769168865476,202.9769168865476,625.6352076556108,625.6352076556108
0.12052324201513345,4.245527061233297,4.245527061233297,20.624982574654602,20.624982574654602,41.249965149309205,117.39897674195281,117.39897674195281,311.483203747938,311.483203747938
0.1471462352471239,3.6471105309934178,3.6471105309934178,9.903033107052874,9.903033107052874,19.806066214105748,67.0437926877961,67.0437926877961,109.82919360118214,109.82919360118214
0.17793886609889198,3.31275985629592,3.31275985629592,6.498270612671757,6.498270612671757,12.996541225343513,39.39917135069768,39.39917135069768,5.889052122913554,5.889052122913554
0.21327457524269522,3.0344885512313517,3.0344885512313517,6.339783138393333,6.339783138393333,12.679566276786666,25.030382094865665,25.030382094865665,-32.85955554590201,-32.85955554590201
0.2535258424630956,2.7286870234751,2.7286870234751,7.052569583355537,7.052569583355537,14.105139166711075,17.69361590740776,17.69361590740776,-36.49328937808022,-36.49328937808022
0.29906022397668985,2.3836033373611762,2.3836033373611762,7.533789371577056,7.533789371577056,15.067578743154112,13.719978225597425,13.719978225597425,-25.810693973701042,-25.810693973701042
0.3502362201470953,2.019253771602334,2.019253771602334,7.456000376066378,7.456000376066378,14.912000752132757,11.197921106061274,11.197921106061274,-12.478253526230008,-12.478253526230008
0.4073990115627531,1.6627476306026547,1.6627476306026547,6.874238192611436,6.874238192611436,13.748476385222872,9.261413657098755,9.261413657098755,-1.648665861973622,-1.648665861973622
0.4708761034909793,1.3362171942437744,1.3362171942437744,5.976673851324176,5.976673851324176,11.953347702648353,7.58851462648888,7.58851462648888,5.3025477205442675,5.3025477205442675
0.5409729204079702,1.0529518532032676,1.0529518532032676,4.954726046658835,4.954726046658835,9.90945209331767,6.09854101763891,6.09854101763891,8.775243815981218,8.775243815981218
0.6179683936118797,0.8178811813220117,0.8178811813220117,3.951616427395966,3.951616427395966,7.903232854791932,4.793264007810515,4.793264007810515,9.753897213915193,9.753897213915193
0.7021105858415579,0.62977643298984,0.62977643298984,3.053620180669011,3.053620180669011,6.107240361338022,3.6863275358584766,3.6863275358584766,9.221363176424454,9.221363176424454
0.7936123973332412,0.4836893437833429,0.4836893437833429,2.2998818785423794,2.2998818785423794,4.599763757084759,2.779440806553279,2.779440806553279,7.938909485858447,7.938909485858447
0.892647397845992,0.3729629014143076,0.3729629014143076,1.6972139276299227,1.6972139276299227,3.3944278552598455,2.059671125324426,2.059671125324426,6.412792465357179,6.412792465357179
0.9993458288675958,0.2906293018018174,0.2906293018018174,1.233564808731092,1.233564808731092,2.467129617462184,1.5040769541912271,1.5040769541912271,4.937153058343503,4.937153058343503
1.113790819477952,0.2302450319489624,0.2302450319489624,0.8880399465432239,0.8880399465432239,1.7760798930864479,1.0853530005065966,1.0853530005065966,3.655701603463883,3.655701603463883
1.2360148581978192,0.1862979378642424,0.1862979378642424,0.6374038567559638,0.6374038567559638,1.2748077135119276,0.7761785796549131,0.7761785796549131,2.617196396458822,2.617196396458822
1.365996561595953,0.15432852495684296,0.15432852495684296,0.4597748108413828,0.4597748108413828,0.9195496216827656,0.551845085472742,0.551845085472742,1.8170025958511293,1.8170025958511293
1.5036577784777387,0.13088279697102032,0.13088279697102032,0.3363679607015771,0.3363679607015771,0.6727359214031542,0.39146066262539664,0.39146066262539664,1.2248577919840555,1.2248577919840555
1.6488610661468364,0.11338104841725208,0.11338104841725208,0.2520216562338513,0.2520216562338513,0.5040433124677026,0.27819780036846375,0.27819780036846375,0.8017340591821108,0.8017340591821108
1.8014075725374363,0.09995729590773754,0.09995729590773754,0.19504733261680446,0.19504733261680446,0.3900946652336089,0.19899488122874923,0.19899488122874923,0.5090720245690589,0.5090720245690589
1.961035354980188,0.08930119534821011,0.08930119534821011,0.1567611579610728,0.1567611579610728,0.3135223159221456,0.14400674287442358,0.14400674287442358,0.313133214360488,0.313133214360488
2.127418163010288,0.08051849982462074,0.08051849982462074,0.13091416712732012,0.13091416712732012,0.26182833425464025,0.10598915620260725,0.10598915620260725,0.18647473862803007,0.18647473862803007
2.300164708986961,0.07301611641891752,0.07301611641891752,0.11313916527494712,0.11313916527494712,0.22627833054989424,0.07971878909755348,0.07971878909755348,0.1078827203030512,0.1078827203030512
2.478818446390242,0.06641205919240639,0.06641205919240639,0.10046967514385934,0.10046967514385934,0.20093935028771867,0.061494843696396934,0.061494843696396934,0.061592460786370914,0.061592460786370914
2.662857871532807,0.06046767704873443,0.06046767704873443,0.0909489646185921,0.0909489646185921,0.1818979292371842,0.04873541384628438,0.04873541384628438,0.03627189181146957,0.03627189181146957
2.8516973601089646,0.055038383619157506,0.055038383619157506,0.08332718710166533,0.08332718710166533,0.16665437420333065,0.03966393541016149,0.03966393541016149,0.02401865024473436,0.02401865024473436
3.0446885455216095,0.05003897398853959,0.05003897398853959,0.07683540139190673,0.07683540139190673,0.15367080278381345,0.033073203000035585,0.033073203000035585,0.0194844840799674,0.0194844840799674
3.2411222413439855,0.045419983177125436,0.045419983177125436,0.07102219737344763,0.07102219737344763,0.14204439474689526,0.02815218008782848,0.02815218008782848,0.019163619486646837,0.019163619486646837
3.4402309056008296,0.04115211947203172,0.04115211947203172,0.06563891092338935,0.06563891092338935,0.1312778218467787,0.024361520197760736,0.024361520197760736,0.020841934707941753,0.020841934707941753
3.6411916398498407,0.037216419462078654,0.037216419462078654,0.06056118054347259,0.06056118054347259,0.12112236108694518,0.02134569124278737,0.02134569124278737,0.023186060986619267,0.023186060986619267
3.843129711345337,0.03359833331011021,0.03359833331011021,0.055736860931705504,0.055736860931705504,0.11147372186341101,0.018871923293008932,0.018871923293008932,0.025446034150359138,0.025446034150359138
4.045122581911938,0.03028442207658709,0.03028442207658709,0.05115253255434529,0.05115253255434529,0.10230506510869058,0.016788410795574943,0.016788410795574943,0.027245832966311855,0.027245832966311855
4.246204422587589,0.027260726372056333,0.027260726372056333,0.04681278976654745,0.04681278976654745,0.0936255795330949,0.014996093168014342,0.014996093168014342,0.028439564502016783,0.028439564502016783
4.445371088655861,0.024512154544775087,0.024512154544775087,0.04272807527266677,0.04272807527266677,0.08545615054533354,0.013429860997448513,0.013429860997448513,0.029015283694063202,0.029015283694063202
4.641585525416193,0.022022452469220622,0.022022452469220622,0.038908062346832646,0.038908062346832646,0.07781612469366529,0.01204621049290188,0.01204621049290188,0.029032509947145922,0.029032509947145922
4.8337835709701915,0.019774470676874635,0.019774470676874635,0.03535851278674775,0.03535851278674775,0.0707170255734955,0.01081524823877281,0.01081524823877281,0.028583019589044297,0.028583019589044297
5.020880118477853,0.017750551942653847,0.017750551942653847,0.03208021461159586,0.03208021461159586,0.06416042922319172,0.009715590593183502,0.009715590593183502,0.027767334875960274,0.027767334875960274
5.2017755967899255,0.01593293534857996,0.01593293534857996,0.02906908440493786,0.02906908440493786,0.05813816880987572,0.008731162047844503,0.008731162047844503,0.026681528188764146,0.026681528188764146
5.375362725121585,0.014304120830784637,0.014304120830784637,0.026316853247825494,0.026316853247825494,0.05263370649565099,0.007849220771277147,0.007849220771277147,0.025410604976725173,0.025410604976725173
5.540533494532905,0.012847168652559679,0.012847168652559679,0.023811981794719807,0.023811981794719807,0.047623963589439613,0.007059164250331305,0.007059164250331305,0.024025927800648234,0.024025927800648234
5.6961863264515555,0.01154592665336372,0.01154592665336372,0.02154059994549628,0.02154059994549628,0.04308119989099256,0.006351821663023376,0.006351821663023376,0.022584997706855195,0.022584997706855195
5.84123335632903,0.010385188515771792,0.010385188515771792,0.019487362927548203,0.019487362927548203,0.038974725855096405,0.005719043379942897,0.005719043379942897,0.021132504692422005,0.021132504692422005
5.974607788793714,0.009350791515050182,0.009350791515050182,0.01763617541677147,0.01763617541677147,0.03527235083354294,0.005153467104535438,0.005153467104535438,0.019701965916250074,0.019701965916250074
6.095271269365134,0.008429664236487644,0.008429664236487644,0.015970770769940103,0.015970770769940103,0.03194154153988021,0.004648385561625237,0.004648385561625237,0.018317542461899004,0.018317542461899004
6.202221216938054,0.007609834888376138,0.007609834888376138,0.014475152048658244,0.014475152048658244,0.028950304097316488,0.004197670023395084,0.004197670023395084,0.016995803269707965,0.016995803269707965
6.294498060843381,0.006880409969870781,0.006880409969870781,0.013133911144789071,0.013133911144789071,0.026267822289578142,0.003795722660570957,0.003795722660570957,0.015747317880147705,0.015747317880147705
6.371192326352242,0.0062315317200351645,0.0062315317200351645,0.01193244590312806,0.01193244590312806,0.02386489180625612,0.00343744237842113,0.00343744237842113,0.014578029031296607,0.014578029031296607
6.431451513012174,0.005654321307583749,0.005654321307583749,0.01085709525911968,0.01085709525911968,0.02171419051823936,0.003118195913147997,0.003118195913147997,0.013490396798953358,0.013490396798953358
6.474486711184816,0.005140813307153288,0.005140813307153288,0.009895210713692067,0.009895210713692067,0.019790421427384134,0.002833790173743173,0.002833790173743173,0.012484328113494798,0.012484328113494798
6.4995789035978335,0.004683885742352823,0.004683885742352823,0.00903517996884775,0.00903517996884775,0.0180703599376955,0.002580444204191788,0.002580444204191788,0.011557916077251366,0.011557916077251366
6.5060849006057415,0.004277188896523433,0.004277188896523433,0.008266415844467261,0.008266415844467261,0.016532831688934522,0.0023547604171768807,0.0023547604171768807,0.010708017150762804,0.010708017150762804
6.493442860176056,0.003915075203925402,0.003915075203925402,0.007579321017944117,0.007579321017944117,0.015158642035888233,0.002153695364855017,0.002153695364855017,0.009930693971211029,0.009930693971211029
6.4611773463505475,0.0035925318237359006,0.0035925318237359006,0.006965236834642873,0.006965236834642873,0.013930473669285745,0.00197453054865172,0.00197453054865172,0.00922154920797392,0.00922154920797392
6.408903883065489,0.003305116945085557,0.003305116945085557,0.0064163824883848395,0.0064163824883848395,0.012832764976769679,0.0018148438028465002,0.0018148438028465002,0.008575972610784898,0.008575972610784898
6.3363329637153285,0.0030489004489828303,0.0030489004489828303,0.005925789269148041,0.005925789269148041,0.011851578538296083,0.0016724817203470407,0.0016724817203470407,0.00798931994685042,0.00798931994685042
6.243273480695021,0.002820409238537526,0.002820409238537526,0.005487233291721331,0.005487233291721331,0.010974466583442663,0.0015455334836418557,0.0015455334836418557,0.007457039228283933,0.007457039228283933
6.129635543319255,0.002616577320811122,0.002616577320811122,0.005095169112721979,0.005095169112721979,0.010190338225443959,0.0014323063523070513,0.0014323063523070513,0.006974756682797318,0.006974756682797318
5.9954326569599,0.0024347005632479146,0.0024347005632479146,0.004744665869327633,0.004744665869327633,0.009489331738655266,0.0013313029570140036,0.0013313029570140036,0.006538332386408041,0.006538332386408041
5.840783240935032,0.0022723959394052255,0.0022723959394052255,0.004431346988450611,0.004431346988450611,0.008862693976901223,0.0012412004655584091,0.0012412004655584091,0.006143893359307687,0.006143893359307687
5.665911467586504,0.0021275650099177273,0.0021275650099177273,0.004151334081683387,0.004151334081683387,0.008302668163366774,0.0011608316205205611,0.0011608316205205611,0.005787850193120716,0.005787850193120716
5.471147410049779,0.001998361345171851,0.001998361345171851,0.003901195326544459,0.003901195326544459,0.007802390653088918,0.0010891675995673403,0.0010891675995673403,0.005466901882471795,0.005466901882471795
5.256926491423048,0.0018831615780784759,0.0018831615780784759,0.00367789841134337,0.00367789841134337,0.00735579682268674,0.0010253026157152371,0.0010253026157152371,0.005178032424866016,0.005178032424866016
5.023788233337713,0.0017805397724643777,0.0017805397724643777,0.00347876796751171,0.00347876796751171,0.00695753593502342,0.0009684401533435789,0.0009684401533435789,0.004918501881130142,0.004918501881130142
4.772374307272952,0.001689244800262694,0.001689244800262694,0.00330144731215353,0.00330144731215353,0.00660289462430706,0.0009178807237348619,0.0009178807237348619,0.00468583390978079,0.00468583390978079
4.503425897323858,0.0016081804353405113,0.0016081804353405113,0.0031438642612700756,0.0031438642612700756,0.006287728522540151,0.0008730110190950525,0.0008730110190950525,0.004477801264494282,0.004477801264494282
4.217780388492052,0.0015363878908413787,0.0015363878908413787,0.0030042007401179724,0.0030042007401179724,0.006008401480235945,0.0008332943444260206,0.0008332943444260206,0.004292410342361643,0.004292410342361643
3.9163673999354534,0.0014730305484357774,0.0014730305484357774,0.0028808659034594056,0.0028808659034594056,0.005761731806918811,0.0007982622107235558,0.0007982622107235558,0.0041278855655708935,0.0041278855655708935
3.6002041880571753,0.001417380650500985,0.001417380650500985,0.002772472479014052,0.002772472479014052,0.005544944958028104,0.0007675069795421432,0.0007675069795421432,0.003982654149361285,0.003982654149361285
3.2703904501481555,0.0013688077490437648,0.0013688077490437648,0.002677816057714219,0.002677816057714219,0.005355632115428438,0.0007406754570802944,0.0007406754570802944,0.0038553316376101375,0.0038553316376101375
2.9281025663378872,0.0013267687274922907,0.0013267687274922907,0.0025958570710636736,0.0025958570710636736,0.005191714142127347,0.0007174633449153453,0.0007174633449153453,0.0037447084608435346,0.0037447084608435346
2.574587328783495,0.0012907992328878223,0.0012907992328878223,0.002525705216544721,0.002525705216544721,0.005051410433089442,0.000697610463853894,0.000697610463853894,0.003649737679238643,0.003649737679238643
2.211155232441051,0.0012605063761800387,0.0012605063761800387,0.002466606114712818,0.002466606114712818,0.004933212229425636,0.0006808966766784164,0.0006808966766784164,0.0035695240068796402,0.0035695240068796402
1.839173483549079,0.0012355625768197666,0.0012355625768197666,0.002417930004490389,0.002417930004490389,0.004835860008980778,0.0006671384444511558,0.0006671384444511558,0.00350331416586427,0.00350331416586427
1.4600592327274946,0.0012157004430986159,0.0012157004430986159,0.0023791623024203325,0.0023791623024203325,0.004758324604840665,0.0006561859585044591,0.0006561859585044591,0.003450488580825345,0.003450488580825345
1.075275581443025,0.0012007085830863101,0.0012007085830863101,0.002349895849824199,0.002349895849824199,0.004699791699648398,0.0006479207914563823,0.0006479207914563823,0.003410554369101013,0.003410554369101013
0.6863513479351009,0.0011904281613029095,0.0011904281613029095,0.0023298245093049995,0.0023298245093049995,0.004659649018609999,0.0006422539661950574,0.0006422539661950574,0.0033831393157446477,0.0033831393157446477
0.29532949367839156,0.0011847486727182312,0.0011847486727182312,0.0023187351429773233,0.0023187351429773233,0.0046374702859546466,0.0006391236009804886,0.0006391236009804886,0.0033679828910802897,0.0033679828910802897
5571.607052173184,1.1755507962878897e-11,1.1755507962878897e-11,2.7039141725888482e-11,2.7039141725888482e-11,5.4078283451776963e-11,7.844858328530308e-12,7.844858328530308e-12,5.7460183250885415e-11,5.7460183250885415e-11
2550.0624080134576,1.52281902443611e-09,1.52281902443611e-09,3.326000166463992e-09,3.326000166463992e-09,6.652000332927984e-09,9.213309032025246e-10,9.213309032025246e-10,6.552660709738685e-09,6.552660709738685e-09
1321.152627343585,3.5077471995216046e-08,3.5077471995216046e-08,7.327914623298089e-08,7.327914623298089e-08,1.4655829246596178e-07,1.9549036986079232e-08,1.9549036986079232e-08,1.3492579596956783e-07,1.3492579596956783e-07
752.9532232412392,2.969792953058028e-07,2.969792953058028e-07,5.999237224574309e-07,5.999237224574309e-07,1.1998474449148617e-06,1.5595475335279912e-07,1.5595475335279912e-07,1.0474315240375593e-06,1.0474315240375593e-06
462.50746842542526,1.3643398609155367e-06,1.3643398609155367e-06,2.695597507579907e-06,2.695597507579907e-06,5.391195015159814e-06,6.907615394255179e-07,6.907615394255179e-07,4.534852751707048e-06,4.534852751707048e-06
301.62977560752023,4.233363940141398e-06,4.233363940141398e-06,8.25758619754948e-06,8.25758619754948e-06,1.651517239509896e-05,2.1047490216570542e-06,2.1047490216570542e-06,1.3564391615560825e-05,1.3564391615560825e-05
206.50059750595804,1.0087119383434525e-05,1.0087119383434525e-05,1.9552468082645393e-05,1.9552468082645393e-05,3.9104936165290786e-05,4.986160953429853e-06,4.986160953429853e-06,3.164335161936498e-05,3.164335161936498e-05
147.12861060664108,1.9969368840587807e-05,1.9969368840587807e-05,3.861875730227608e-05,3.861875730227608e-05,7.723751460455216e-05,9.885488014035625e-06,9.885488014035625e-06,6.190065295129846e-05,6.190065295129846e-05
108.36166945973228,3.454911853292049e-05,3.454911853292049e-05,6.680681181239778e-05,6.680681181239778e-05,0.00013361362362479556,1.7191417583653473e-05,1.7191417583653473e-05,0.00010635116318394705,0.00010635116318394705
82.06378345774895,5.403883785183152e-05,5.403883785183152e-05,0.00010459271347869864,0.00010459271347869864,0.00020918542695739728,2.7069909619602454e-05,2.7069909619602454e-05,0.00016559399357621543,0.00016559399357621543
63.63361570389854,7.823767108500572e-05,7.823767108500572e-05,0.00015163737101888474,0.00015163737101888474,0.00030327474203776947,3.94681219338023e-05,3.94681219338023e-05,0.00023892260508483223,0.00023892260508483223
50.35001056189105,0.00010664031442659398,0.00010664031442659398,0.00020698684599504194,0.00020698684599504194,0.0004139736919900839,5.4160398898349976e-05,5.4160398898349976e-05,0.0003246724667688155,0.0003246724667688155
40.54009145972174,0.00013856030405751257,0.00013856030405751257,0.00026931226713898597,0.00026931226713898597,0.0005386245342779719,7.080966038554159e-05,7.080966038554159e-05,0.0004206275323681566,0.0004206275323681566
33.13993106893152,0.00017323726093449956,0.00017323726093449956,0.0003371242600987979,0.0003371242600987979,0.0006742485201975958,8.902528685184135e-05,8.902528685184135e-05,0.0005243731386695206,0.0005243731386695206
27.45234720659756,0.00020991616447617868,0.00020991616447617868,0.00040893411205883385,0.00040893411205883385,0.0008178682241176677,0.00010840837044822268,0.00010840837044822268,0.0006335513079008496,0.0006335513079008496
23.008208159821145,0.0002478983094638786,0.0002478983094638786,0.00048335869335534105,0.00048335869335534105,0.0009667173867106821,0.00012858233484994497,0.00012858233484994497,0.0007460181855728683,0.0007460181855728683
19.484285478435826,0.0002865689644019555,0.0002865689644019555,0.0005591782314188294,0.0005591782314188294,0.0011183564628376589,0.00014921070994648985,0.00014921070994648985,0.000859922930588085,0.000859922930588085
16.65310889743615,0.00032540815039254603,0.00032540815039254603,0.0006353595794034131,0.0006353595794034131,0.0012707191588068262,0.00017000518951979624,0.00017000518951979624,0.0009737316757334426,0.0009737316757334426
14.351514900016443,0.0003639903839848724,0.0003639903839848724,0.0007110567779818621,0.0007110567779818621,0.0014221135559637243,0.00019072709610885928,0.00019072709610885928,0.001086217253916096,0.001086217253916096
12.460431038605035,0.0004019779447021692,0.0004019779447021692,0.0007855982184082741,0.0007855982184082741,0.0015711964368165482,0.00021118481208452788,0.00021118481208452788,0.0011964302167273729,0.0011964302167273729
10.891590275357114,0.0004391108949603863,0.0004391108949603863,0.0008584670286314617,0.0008584670286314617,0.0017169340572629234,0.0002312290486286403,0.0002312290486286403,0.001303661666068964,0.001303661666068964
9.578621287378539,0.0004751959654133137,0.0004751959654133137,0.0009292790288198564,0.0009292790288198564,0.0018585580576397128,0.00025074721270775294,0.00025074721270775294,0.001407404442828991,0.001407404442828991
8.470961910228972,0.0005100955860212141,0.0005100955860212141,0.0009977608939901446,0.0009977608939901446,0.001995521787980289,0.00026965765870269165,0.00026965765870269165,0.001507316381459702,0.001507316381459702
7.529630080945375,0.0005437177660125641,0.0005437177660125641,0.0010637299750869207,0.0010637299750869207,0.0021274599501738415,0.00028790427483024034,0.00028790427483024034,0.0016031874652908712,0.0016031874652908712
6.724239220515387,0.0005760071493092106,0.0005760071493092106,0.001127076455588774,0.001127076455588774,0.002254152911177548,0.00030545163004391134,0.00030545163004391134,0.0016949115566638447,0.0016949115566638447
6.030861341699628,0.0006069373401375125,0.0006069373401375125,0.001187748044359617,0.001187748044359617,0.002375496088719234,0.00032228076572957977,0.00032228076572957977,0.0017824627052672592,0.0017824627052672592
5.430476601784282,0.0006365044603100366,0.0006365044603100366,0.0012457371319828548,0.0012457371319828548,0.0024914742639657096,0.00033838563287283847,0.00033838563287283847,0.001865875685369073,0.001865875685369073
4.907834385474308,0.0006647218305049156,0.0006647218305049156,0.0013010701959889296,0.0013010701959889296,0.002602140391977859,0.00035377012991750514,0.00035377012991750514,0.0019452302561948599,0.0019452302561948599
4.450607031864826,0.0006916156385172728,0.0006916156385172728,0.0013537991801762898,0.0013537991801762898,0.0027075983603525797,0.00036844567523078346,0.00036844567523078346,0.002020638598025831,0.002020638598025831
4.048754252495695,0.0007172214515950359,0.0007172214515950359,0.001403994561064075,0.001403994561064075,0.00280798912212815,0.00038242924136105863,0.00038242924136105863,0.0020922353975076596,0.0020922353975076596
3.694040998156924,0.0007415814370393299,0.0007415814370393299,0.0014517398287235957,0.0014517398287235957,0.0029034796574471913,0.0003957417798278701,0.0003957417798278701,0.0021601701070630944,0.0021601701070630944
3.3796682967297995,0.0007647421686506956,0.0007647421686506956,0.0014971271363116488,0.0014971271363116488,0.0029942542726232976,0.0004084069710308973,0.0004084069710308973,0.002224600966248264,0.002224600966248264
3.099988107117429,0.0007867529123760649,0.0007867529123760649,0.0015402539044907057,0.0015402539044907057,0.0030805078089814115,0.0004204502415676005,0.0004204502415676005,0.0022856904367997734,0.0022856904367997734
2.8502812515478815,0.0008076643003974833,0.0008076643003974833,0.0015812201989749367,0.0015812201989749367,0.0031624403979498734,0.00043189799938200525,0.00043189799938200525,0.0023436017625344204,0.0023436017625344204
2.626583131081891,0.0008275273177090166,0.0008275273177090166,0.0016201267292740512,0.0016201267292740512,0.0032402534585481025,0.0004427770449483011,0.0004427770449483011,0.002398496417782316,0.002398496417782316
2.4255459435264872,0.0008463925384073993,0.0008463925384073993,0.0016570733432247156,0.0016570733432247156,0.003314146686449431,0.0004531141237370953,0.0004531141237370953,0.0024505322529862193,0.0024505322529862193
2.2443290082007823,0.0008643095603085671,0.0008643095603085671,0.0016921579147767118,0.0016921579147767118,0.0033843158295534235,0.00046293559137069686,0.00046293559137069686,0.0024998621837417035,0.0024998621837417035
2.0805108957456517,0.0008813265961392379,0.0008813265961392379,0.001725475541835122,0.001725475541835122,0.003450951083670244,0.00047226716813246575,0.00047226716813246575,0.002546633300586611,0.002546633300586611
1.9320185944190178,0.0008974901875887034,0.0008974901875887034,0.0017571179870588501,0.0017571179870588501,0.0035142359741177002,0.0004811337639108735,0.0004811337639108735,0.002590986302143196,0.002590986302143196
1.7970700768358017,0.0009128450151338398,0.0009128450151338398,0.0017871733077750931,0.0017871733077750931,0.0035743466155501863,0.0004895593583214758,0.0004895593583214758,0.0026330551746579956,0.0026330551746579956
1.67412747447788,0.0009274337819712456,0.0009274337819712456,0.001815725631999273,0.001815725631999273,0.003631451263998546,0.0004975669237599432,0.0004975669237599432,0.002672967057395124,0.002672967057395124
1.5618587002344262,0.0009412971547954202,0.0009412971547954202,0.0018428550463384236,0.0018428550463384236,0.003685710092676847,0.0005051783815953032,0.0005051783815953032,0.002710842246444696,0.002710842246444696
1.4591058377529669,0.00095447374772343,0.00095447374772343,0.0018686375686523893,0.0018686375686523893,0.0037372751373047786,0.0005124145837056257,0.0005124145837056257,0.0027467942999321836,0.0027467942999321836
1.3648589806949627,0.0009670001385338498,0.0009670001385338498,0.0018931451840529406,0.0018931451840529406,0.003786290368105881,0.0005192953131683588,0.0005192953131683588,0.0027809302158755245,0.0027809302158755245
1.2782344842259283,0.0009789109086887052,0.0009789109086887052,0.0019164459273937743,0.0019164459273937743,0.0038328918547875486,0.0005258392992135647,0.0005258392992135647,0.0028133506604654224,0.0028133506604654224
1.1984568064499832,0.0009902387004476964,0.0009902387004476964,0.0019386039990576995,0.0019386039990576995,0.003877207998115399,0.0005320642425881156,0.0005320642425881156,0.0028441502296881675,0.0028441502296881675
1.124843284646326,0.0010010142858530142,0.0010010142858530142,0.0019596799037594577,0.0019596799037594577,0.003919359807518915,0.0005379868483112519,0.0005379868483112519,0.0028734177312545943,0.0028734177312545943
1.0567913216341356,0.0010112666435321803,0.0010112666435321803,0.0019797306043974876,0.0019797306043974876,0.003959461208794975,0.0005436228634662727,0.0005436228634662727,0.002901236476968798,0.002901236476968798
0.9937675599982645,0.001021023040194967,0.001021023040194967,0.0019988096848241885,0.0019988096848241885,0.003997619369648377,0.0005489871182023549,0.0005489871182023549,0.0029276845781490376,0.0029276845781490376
0.9352987027154649,0.0010303091144361243,0.0010303091144361243,0.002016967516857174,0.002016967516857174,0.004033935033714348,0.0005540935685410656,0.0005540935685410656,0.0029528352386455777,0.0029528352386455777
0.8809637028112731,0.0010391489610369908,0.0010391489610369908,0.002034251428000598,0.002034251428000598,0.004068502856001196,0.0005589553399155156,0.0005589553399155156,0.0029767570415012243,0.0029767570415012243
0.8303870957577749,0.001047565214417147,0.001047565214417147,0.0020507058672479647,0.0020507058672479647,0.0041014117344959295,0.0005635847706337288,0.0005635847706337288,0.002999514226461809,0.002999514226461809
0.783233289223421,0.0010555791302471005,0.0010555791302471005,0.0020663725670455363,0.0020663725670455363,0.004132745134091073,0.0005679934546656248,0.0005679934546656248,0.00302116695643803,0.00302116695643803
0.7392016576856755,0.0010632106645144565,0.0010632106645144565,0.002081290700048298,0.002081290700048298,0.004162581400096596,0.000572192283316277,0.000572192283316277,0.0030417715717045626,0.0030417715717045626
0.6980223159943939,0.0010704785495553564,0.0010704785495553564,0.002095497029730472,0.002095497029730472,0.004190994059460944,0.0005761914854759084,0.0005761914854759084,0.003061380831142358,0.003061380831142358
0.6594524675326948,0.001077400366732749,0.001077400366732749,0.002109026054244892,0.002109026054244892,0.004218052108489784,0.0005800006662365487,0.0005800006662365487,0.0030800441402212882,0.0030800441402212882
0.6232732401808302,0.00108399261557375,0.00108399261557375,0.002121910143180877,0.002121910143180877,0.004243820286361754,0.0005836288437423303,0.0005836288437423303,0.0030978077657113534,0.0030978077657113534
0.5892869376447137,0.0010902707792779882,0.0010902707792779882,0.0021341796670644266,0.0021341796670644266,0.004268359334128853,0.0005870844841995748,0.0005870844841995748,0.0031147150373234222,0.0031147150373234222
0.5573146454910006,0.0010962493865839876,0.0010962493865839876,0.0021458631195906495,0.0021458631195906495,0.004291726239181299,0.0005903755350178717,0.0005903755350178717,0.0031308065366326284,0.0031308065366326284
0.5271941409328864,0.0011019420700365606,0.0011019420700365606,0.0021569872326866607,0.0021569872326866607,0.004313974465373321,0.000593509456087268,0.000593509456087268,0.0031461202737430717,0.0031461202737430717
0.49877806342865677,0.0011073616207389152,0.0011073616207389152,0.0021675770845817994,0.0021675770845817994,0.004335154169163599,0.0005964932492217616,0.0005964932492217616,0.003160691852221841,0.003160691852221841
0.471932309803016,0.0011125200397021741,0.0011125200397021741,0.0021776562011175515,0.0021776562011175515,0.004355312402235103,0.0005993334858175165,0.0005993334858175165,0.003174554622872638,0.003174554622872638
0.44653462313117454,0.0011174285859245632,0.0011174285859245632,0.0021872466505668425,0.0021872466505668425,0.004374493301133685,0.000602036332786914,0.000602036332786914,0.0031877398269401797,0.0031877398269401797
0.4224733492399411,0.0011220978213453184,0.0011220978213453184,0.002196369132256279,0.002196369132256279,0.004392738264512558,0.0006046075768382319,0.0006046075768382319,0.003200276729342853,0.003200276729342853
0.39964633854174425,0.0011265376528252265,0.0011265376528252265,0.0022050430592974305,0.0022050430592974305,0.004410086118594861,0.0006070526471759296,0.0006070526471759296,0.003212192742524819,0.003212192742524819
0.3779599741584918,0.001130757371308796,0.001130757371308796,0.002213286635738357,0.002213286635738357,0.004426573271476714,0.0006093766366994082,0.0006093766366994082,0.003223513541505206,0.003223513541505206
0.3573283100204497,0.0011347656883226895,0.0011347656883226895,0.00222111692844508,0.00222111692844508,0.00444223385689016,0.0006115843217789401,0.0006115843217789401,0.0032342631706817554,0.0032342631706817554
0.33767230492730066,0.0011385707699625414,0.0011385707699625414,0.0022285499340169933,0.0022285499340169933,0.004457099868033987,0.0006136801806869514,0.0006136801806869514,0.0032444641429226428,0.0032444641429226428
0.3189191405067287,0.0011421802685159963,0.0011421802685159963,0.002235600641031156,0.002235600641031156,0.004471201282062312,0.0006156684107612369,0.0006156684107612369,0.003254137531453735,0.003254137531453735
0.30100161265813247,0.001145601351864223,0.001145601351864223,0.002242283087898918,0.002242283087898918,0.004484566175797836,0.0006175529443742606,0.0006175529443742606,0.0032633030550204864,0.0032633030550204864
0.2838575874742744,0.0011488407307980203,0.0011488407307980203,0.002248610416605696,0.002248610416605696,0.004497220833211392,0.0006193374637798655,0.0006193374637798655,0.003271979156775642,0.003271979156775642
0.2674295138309957,0.0011519046843776264,0.0011519046843776264,0.0022545949225905443,0.0022545949225905443,0.0045091898451810886,0.0006210254149053364,0.0006210254149053364,0.0032801830773149126,0.0032801830773149126
0.2516639858581266,0.0011547990834583674,0.0011547990834583674,0.002260248101008102,0.002260248101008102,0.004520496202016204,0.0006226200201533378,0.0006226200201533378,0.003287930922255239,0.003287930922255239
0.23651134938027857,0.0011575294124969691,0.0011575294124969691,0.0022655806896007395,0.0022655806896007395,0.004531161379201479,0.0006241242902745648,0.0006241242902745648,0.0032952377247226702,0.0032952377247226702
0.22192534716714005,0.0011601007897461993,0.0011601007897461993,0.002270602708394402,0.002270602708394402,0.004541205416788804,0.0006255410353683313,0.0006255410353683313,0.003302117503090864,0.003302117503090864
0.20786279847833566,0.0011625179859383443,0.0011625179859383443,0.0022753234964173175,0.0022753234964173175,0.004550646992834635,0.0006268728750646129,0.0006268728750646129,0.003308583314285783,0.003308583314285783
0.1942833089436703,0.001164785441551172,0.001164785441551172,0.0022797517456270076,0.0022797517456270076,0.004559503491254015,0.0006281222479375478,0.0006281222479375478,0.0033146473029485083,0.0033146473029485083
0.18114900729861744,0.001166907282743283,0.001166907282743283,0.0022838955322176534,0.0022838955322176534,0.004567791064435307,0.000629291420196867,0.000629291420196867,0.003320320746725208,0.003320320746725208
0.16842430590890925,0.0011688873360393391,0.0011688873360393391,0.0022877623454670166,0.0022877623454670166,0.004575524690934033,0.0006303824937003678,0.0006303824937003678,0.00332561409793185,0.00332561409793185
0.15607568237628242,0.0011707291418394795,0.0011707291418394795,0.0022913591142698837,0.0022913591142698837,0.004582718228539767,0.000631397413327299,0.000631397413327299,0.003330537021821068,0.003330537021821068
0.14407147982758722,0.0011724359668214281,0.0011724359668214281,0.002294692231493427,0.002294692231493427,0.004589384462986854,0.0006323379737494584,0.0006323379737494584,0.003335098431659658,0.003335098431659658
0.13238172375902757,0.0011740108152981038,0.0011740108152981038,0.002297767576278617,0.002297767576278617,0.004595535152557234,0.0006332058256337826,0.0006332058256337826,0.0033393065208070535,0.0033393065208070535
0.12097795354202606,0.0011754564395883794,0.0011754564395883794,0.0023005905344015256,0.0023005905344015256,0.004601181068803051,0.0006340024813074741,0.0006340024813074741,0.0033431687919686782,0.0033431687919686782
0.10983306690346091,0.0011767753494535986,0.0011767753494535986,0.002303166016798413,0.002303166016798413,0.004606332033596826,0.0006347293199140126,0.0006347293199140126,0.003346692083782228,0.003346692083782228
0.0989211758775311,0.001177969820647785,0.001177969820647785,0.0023054984763492274,0.0023054984763492274,0.004610996952698455,0.0006353875920859126,0.0006353875920859126,0.0033498825948804476,0.0033498825948804476
0.0882174729017784,0.001179041902625359,0.001179041902625359,0.0023075919230059563,0.0023075919230059563,0.004615183846011913,0.000635978424157892,0.000635978424157892,0.0033527459055609785,0.0033527459055609785
0.07769810591987378,0.0011799934254464863,0.0011799934254464863,0.002309449937344989,0.002309449937344989,0.004618899874689978,0.0006365028219421311,0.0006365028219421311,0.0033552869971823183,0.0033552869971823183
0.06734006163565873,0.00118082600591816,0.00118082600591816,0.002311075682618572,0.002311075682618572,0.004622151365237144,0.000636961674086262,0.000636961674086262,0.0033575102693980973,0.0033575102693980973
0.05712105669184024,0.0011815410530106336,0.0011815410530106336,0.002312471915383337,0.002312471915383337,0.004624943830766674,0.0006373557550356023,0.0006373557550356023,0.0033594195553443814,0.0033594195553443814
0.04701943857854801,0.001182139772603175,0.001182139772603175,0.002313640994811773,0.002313640994811773,0.004627281989623546,0.0006376857276291062,0.0006376857276291062,0.003361018134931916,0.003361018134931916
0.037014106828071526,0.001182623171678256,0.001182623171678256,0.0023145848909197258,0.0023145848909197258,0.0046291697818394515,0.0006379521453944506,0.0006379521453944506,0.003362308746567824,0.003362308746567824
0.027084516069115255,0.0011829920624169285,0.0011829920624169285,0.0023153051925942736,0.0023153051925942736,0.004630610385188547,0.0006381554547916003,0.0006381554547916003,0.003363293598521029,0.003363293598521029
0.01721128334596429,0.0011832470690338287,0.0011832470690338287,0.0023158031209647165,0.0023158031209647165,0.004631606241929433,0.0006382959989690737,0.0006382959989690737,0.0033639743875134584,0.0033639743875134584
0.007387518979937298,0.0011833886741557033,0.0011833886741557033,0.0023160796199802767,0.0023160796199802767,0.0046321592399605534,0.0006383740433169335,0.0006383740433169335,0.0033643524227929007,0.0033643524227929007
