N,18
density_mixing,linear
ell_order,[0, 1, 2, 0, 3, 1, 4, 2, 5, 0, 3]
enforce_order,near_degen
max_scf_steps,HKS,100
max_scf_steps,ESP,1
min_scf,HKS,5
min_scf,ESP,2
minimal_basis,True
nproc,4
rgrid,(3000, 0)
rs,5
scf_conv,HKS,1e-06
scf_conv,CHG,1e-05
scf_conv,ESP,0.01
scf_conv,BV,1e-06
