Iteration, sigma_tot, 1-sigma_i/sigma_(i-1), KE, ESP, XC, Surf. charge, SL sum rule-pi/4, Delta Phi error, Budd-Vann.
0,19.283356737475117,1.0,30.11724870329365,-72.73412427122764,61.9002323054091,-0.0012040730984975573,-0.23076154667029958,0.5313406366513354,1.022652714022558
1,17.09590629006033,0.11343722346658214,31.075866864034975,-77.14289636180729,63.16293578783264,-0.0012722696240036607,-0.2439125588555071,0.5377038881422262,1.040613946413791
2,15.094760618534794,0.11705408520453897,32.01749996777181,-81.16593012596995,64.24319077673293,-0.0013350953043189118,-0.2560278374816909,0.5396540168042396,1.054029096628792
3,13.290300618150853,0.11954214087822301,32.932192299927806,-84.78251112675866,65.14061944498171,-0.0013922904335578884,-0.26705726017819,0.5371038358346623,1.0630454113972603
4,11.69148830595878,0.12029918345176793,33.81089279806402,-87.97493488783168,65.85553039572645,-0.0014436299902760713,-0.2769574204320654,0.5297314809578892,1.0678120095465853
5,10.305814227852249,0.11851990455315231,34.64533822988679,-90.72842469214979,66.38890069011524,-0.0014889217112220438,-0.28569123985109457,0.5169253413978194,1.0684798701187046
6,9.139254086340307,0.11319436928711801,35.428018692096046,-93.0310786259605,66.74231402020477,-0.0015280047594519036,-0.2932277052676595,0.4976795983656931,1.0652017922364523
7,8.196239319549235,0.1031829028805008,36.15217150434316,-94.87381844893766,66.91788626414373,-0.001560748598003217,-0.2995416487060152,0.470407007627735,1.0581323329498113
8,7.479642696417449,0.0874299291655134,36.811785724809546,-96.25033236877395,66.91818934038186,-0.001587051954900373,-0.3046135456037218,0.43259936105854224,1.0474277280588604
9,6.990779019929511,0.06535922855273435,37.40160952719898,-97.15700873574944,66.74617822847998,-0.0016068418324801798,-0.3084293226227411,0.3801834866551732,1.033245800039234
10,6.729420368843187,0.03738619835375079,37.91715657274281,-97.59286040745019,66.40512420355056,-0.0016200725521831605,-0.31098017233737063,0.3062124361315234,1.0157458565010857
11,6.693825130911857,0.0052894953770660225,38.354709346049454,-97.5594401502347,65.89855593509711,-0.0016267248327853367,-0.31226237474202023,0.1979389346517325,0.9950885820217272
12,6.880779873879396,-0.027929433367505974,38.7113183925334,-97.06074808574861,65.2302095670946,-0.0016268049084208758,-0.31227712667481744,0.029349174972335912,0.9714359256607966
13,7.285653017290118,-0.058841170743986204,38.98479694517263,-96.10313239243179,64.40398846454927,-0.0016203436948475786,-0.3110303807065443,-0.26190184905930325,0.9449509859864279
14,7.902459225877313,-0.0846603876307872,39.17371075124745,-94.69518453182803,63.423933006457894,-0.0016073960127236664,-0.308532695144283,-0.8714468788808878,0.9157978949918253
15,8.723933442627644,-0.1039517184802854,39.27736309597254,-92.84763022591355,62.29420057256865,-0.0015880398756635272,-0.3047990966438056,-2.8915222260839633,0.8841417018657426
16,9.741613518486243,-0.11665381018221921,39.2957751292485,-90.57321727722442,61.01905566646217,-0.0015623758486045941,-0.29984895667930206,26.99565960762062,0.8501482571898895
17,10.945930383656815,-0.12362601563747022,39.22966164053932,-87.88660135735108,59.60287010046858,-0.0015305264825686699,-0.29370588272061376,3.8521669089463613,0.8139840977723963
18,12.32630479658333,-0.12610845899289913,39.08040245000028,-84.80423060951077,58.05013295609382,-0.0014926358275157564,-0.28639762460829177,2.4750026038075217,0.7758163319847977
19,13.871249741599529,-0.12533723370563066,38.85000956370373,-81.34422979922162,56.36546997711742,-0.0014488690232322549,-0.2779559961340289,1.9814491321591272,0.7358125251543206
20,15.568477590563607,-0.12235579926689177,38.541090224725316,-77.52628462276763,54.55367198860592,-0.0013994119661557836,-0.26841681138024054,1.729042893484995,0.6941405842704607
21,17.40501118451268,-0.11796488020525775,38.1568059586281,-73.37152663007082,52.6197318559554,-0.001344471047394602,-0.25781983487788473,1.5765810720740956,0.6509686409952401
22,19.36729801831593,-0.11274263561228448,37.70082768995227,-68.90241911170897,50.568889440072624,-0.00128427295511159,-0.2462087441537808,1.4750593213800642,0.6064649317223327
23,21.44132675793143,-0.107089214905149,37.17728698320946,-64.14264403664822,48.40668381137019,-0.0012190645296683983,-0.23363110272547583,1.402987901026537,0.5607976732125854
24,23.612745276230378,-0.10127258181426235,36.59072346095399,-59.116990224808085,46.139012040084474,-0.00114911266064939,-0.22013834109758956,1.3494629980541128,0.5141349321398375
25,25.866979411819283,-0.09546683832049463,35.94602845513454,-53.851242680031284,43.772193636716025,-0.0010747042097402348,-0.20578574280360606,1.3083670066841306,0.4666444867184637
26,28.189351630244126,-0.0897813456086678,35.24838498448181,-48.37207293810934,41.31303958387166,-0.0009961459410559176,-0.19063243204871383,1.2760051573524636,0.4184936784509363
