SCF iter., E[n] (hartree), E[n_i]/E[n_(i-1)]-1, T, V_ext, U_H, Ex, Ec, Virial Theorem 
0,3.559178033667486,-1.0,2.390380523245255,-26.082967322415033,10.104131448950364,-1.71909416151954,-0.3332724545935575,0.48895876579325304
1,2.664838048236412,-0.25127711425818133,3.5302141381408614,-30.22067839090965,12.68157541596074,-2.152963068570958,-0.37331004638457926,-0.24513416354968953
2,2.5488115095651622,-0.04353980863791551,3.957432083552563,-31.418383891301392,13.484908847166565,-2.290809880159224,-0.38433564969335315,-0.3559430823441678
3,2.5268448327240307,-0.008618399892928563,4.141688911778847,-31.891721788138177,13.812612029756117,-2.347091976914038,-0.38864234375871715,-0.3898998967455629
4,2.5219051939388706,-0.0019548643118837417,4.228391876268628,-32.10630368571222,13.963346969309134,-2.3729472666725098,-0.39058269925416,-0.4035781763528634
5,2.5207152308951493,-0.0004718508239648367,4.270464076185014,-32.20861968695489,14.035701536879262,-2.3853284861317667,-0.3915022090824697,-0.4097327161812796
6,2.5204166478901904,-0.00011845170025526208,4.2911460407583695,-32.25850111417361,14.071079385002195,-2.3913603329470927,-0.3919473307496677,-0.41264719868523514
7,2.52033879081052,-3.089055920002526e-05,4.3013716048499315,-32.283081176309146,14.088533565753064,-2.394320289992613,-0.39216491349071736,-0.4140616011951268
8,2.5203173721830012,-8.498312844551492e-06,4.306438873709345,-32.29526214900284,14.097188973191264,-2.3957765189826183,-0.3922718067321497,-0.41475603251460225
9,2.5203109552192657,-2.5460935223486914e-06,4.308950382534762,-32.30131934117329,14.101497343029202,-2.3964929176258427,-0.3923245115455653,-0.41509863621667353
10,2.5203087728161258,-8.659261411247954e-07,4.3101928671253615,-32.3043386328803,14.103649777425305,-2.3968446307789626,-0.39235060807527533,-0.41526775007239625
