# KPAR, NCORE, Avg. runtime (s), Std. dev rtime (s)
1.000000000000000000e+00,2.000000000000000000e+00,2.812566666666666606e+02,3.207353252898836882e+00
1.000000000000000000e+00,4.000000000000000000e+00,1.565933333333333337e+02,3.485141444603331973e+00
1.000000000000000000e+00,5.000000000000000000e+00,2.844583333333333144e+02,1.669657317040350863e-01
1.000000000000000000e+00,8.000000000000000000e+00,4.452296666666666738e+02,4.717426723208457240e+00
1.000000000000000000e+00,1.000000000000000000e+01,2.552480000000000189e+02,1.896211134512989727e+00
1.000000000000000000e+00,2.000000000000000000e+01,3.529773333333333198e+02,2.010877972985176232e+00
1.000000000000000000e+00,4.000000000000000000e+01,2.528385999999999967e+03,3.637894262723477379e+00
2.000000000000000000e+00,2.000000000000000000e+00,4.816999999999999460e+01,5.049798675858191421e-01
2.000000000000000000e+00,4.000000000000000000e+00,5.042466666666666697e+01,2.098925651105706391e-01
2.000000000000000000e+00,5.000000000000000000e+00,6.413166666666666060e+01,2.512387089799225093e-01
2.000000000000000000e+00,1.000000000000000000e+01,7.086700000000000443e+01,2.215463382680896931e+00
2.000000000000000000e+00,2.000000000000000000e+01,1.229489999999999981e+02,4.269800932094870993e-01
4.000000000000000000e+00,2.000000000000000000e+00,4.724233333333333462e+01,5.208539995727334837e-02
4.000000000000000000e+00,5.000000000000000000e+00,5.416599999999999682e+01,2.447256967849680831e-01
4.000000000000000000e+00,1.000000000000000000e+01,6.233333333333333570e+01,2.574960625355919297e-01
5.000000000000000000e+00,2.000000000000000000e+00,8.203866666666665708e+01,4.443692858673224499e+00
5.000000000000000000e+00,4.000000000000000000e+00,8.099533333333333474e+01,2.601998505422743246e+00
5.000000000000000000e+00,8.000000000000000000e+00,3.250716666666666583e+02,3.796573396572771042e+00
8.000000000000000000e+00,5.000000000000000000e+00,5.411966666666666725e+01,4.715277180494099163e+00
1.000000000000000000e+01,2.000000000000000000e+00,4.652933333333333366e+01,2.428515779019087550e-01
1.000000000000000000e+01,4.000000000000000000e+00,4.668100000000000449e+01,1.132460448154688770e-01
2.000000000000000000e+01,2.000000000000000000e+00,5.027066666666667061e+01,4.919016997553651294e+00
