SCF iter., E[n] (hartree), E[n_i]/E[n_(i-1)]-1, T, V_ext, U_H, Ex, Ec, Virial Theorem 
0,-0.11654406309182969,-1.0,0.06512527132390222,-0.6390955628432399,0.3281489936807986,-0.14069352695427306,-0.04750944869265746,-2.7895366993896236
1,-0.11669093490714261,0.0012602256298306358,0.06403988061747025,-0.6370633599682937,0.32580186232723235,-0.1396577453490246,-0.04729178292816685,-2.8221604066405614
2,-0.1167779348933658,0.0007455590812810442,0.06318793980844825,-0.6353991365305067,0.3238872915239894,-0.13881831819124,-0.04711592189769664,-2.8481048004947382
3,-0.11682518485810034,0.0004046138063469318,0.06255606692952462,-0.6341453279839606,0.32246048046301784,-0.1381923683790979,-0.04698424628122415,-2.867527653068648
4,-0.1168499008261698,0.000211563697497974,0.062101126578994026,-0.6332414932090247,0.32144482829957177,-0.13774508220220316,-0.04688949068714767,-2.881606780152919
5,-0.11686271257169567,0.00010964275908897925,0.06177859372909497,-0.6326059789210193,0.3207401366445927,-0.13743290244497214,-0.046822771973031786,-2.8916376291138945
6,-0.11686940888250741,5.730066215625662e-05,0.061551517196164314,-0.6321652575327682,0.3202582583426941,-0.1372178086218677,-0.0467763286603699,-2.8987250713909347
7,-0.11687297355864157,3.0501361889756495e-05,0.06139187134465551,-0.6318616349837424,0.31993124201094775,-0.1370705099106975,-0.046744152413444824,-2.903720655500363
8,-0.11687491493372182,1.6610983883946773e-05,0.06127936228468441,-0.6316527925715343,0.3197099464774159,-0.13696977875425922,-0.04672186276366857,-2.907247572041599
9,-0.1168759970147335,9.258453897542651e-06,0.06119967049293875,-0.6315088434624359,0.31956008773196,-0.13690075054343906,-0.046706371627397145,-2.9097487955955357
10,-0.11687661287545681,5.269351612380291e-06,0.06114283622253508,-0.6314091462516828,0.3194582562292339,-0.13685322542719036,-0.046695544041992595,-2.911534042190543
11,-0.1168769695272166,3.0515237481321122e-06,0.06110198052680365,-0.6313396271585296,0.31938867303179047,-0.1368202864448893,-0.046687919876031596,-2.9128180219288646
12,-0.1168771788973158,1.7913717309525623e-06,0.061072361327519545,-0.6312907532382313,0.31934077945715417,-0.136797271371581,-0.0466825054658172,-2.9137491388375434
13,-0.11687730306975042,1.0624181365770369e-06,0.06105070365712285,-0.6312560807215257,0.31930753260428496,-0.13678104391834853,-0.046678625084923875,-2.914430073175974
14,-0.11687737726501002,6.348132413069862e-07,0.06103473534573273,-0.6312312483085136,0.3192842351980771,-0.13676949181323866,-0.046675818080707476,-2.914932154664969
