Solid (struc), B0 (GPa), B0 error
Li (bcc), 13.683364393481366, 0.5833643934813662
Na (bcc), 8.025278914491901, 0.12527891449190065
K (bcc), 3.723060287855617, -0.07693971214438289
Rb (bcc), 2.9516803151531343, -0.6483196848468658
Cs (bcc), 2.03496003642675, -0.2650399635732499
Ca (fcc), 17.984457408141626, 2.084457408141626
Sr (fcc), 12.39875616724964, 0.39875616724964047
Ba (bcc), 9.437664683523712, -1.1623353164762875
Al (fcc), 82.06484029591591, 4.96484029591592
Cu (fcc), 164.94310740526842, 20.64310740526841
Rh (fcc), 298.16303440562336, 21.06303440562334
Pd (fcc), 204.7011504647128, 17.501150464712822
Ag (fcc), 118.55745135543711, 12.857451355437107
C (ds), 451.14834447208943, -3.5516555279105546
SiC (zb), 220.84622230742985, -8.25377769257014
Si (ds), 93.55805514659939, -7.741944853400611
Ge (ds), 67.45098748805634, -11.949012511943664
GaAs (zb), 70.20312150738724, -6.496878492612765
LiF (rs), 72.7332647331181, -3.566735266881892
LiCl (rs), 35.10928195194635, -3.5907180480536525
NaF (rs), 52.14127414519776, -0.958725854802239
NaCl (rs), 26.854093087650135, -0.7459069123498665
MgO (rs), 160.659706111205, -9.140293888795014
====
ME (metals), 6.00529277948318
MAE (metals), 6.336467345181763
====
ME (alkalis), -0.05633121051824634
MAE (alkalis), 0.3397885337075531
====
ME (insulators), -5.5995649049320395
MAE (insulators), 5.5995649049320395
====
ME (total), 0.959702481911346
MAE (total), 6.016074979855796
====
ME (LC20), 1.1531728222262725
MAE (LC20), 6.86897125880594