Solid (struc), a0, a0 error
Li (bcc), 3.4747746508807067, 0.023774650880706627
Na (bcc), 4.213679190819636, 0.00667919081963575
Ca (fcc), 5.578200853200483, 0.023200853200483706
Sr (fcc), 6.102688506894847, 0.06068850689484684
Ba (bcc), 5.077118719291543, 0.07311871929154368
Al (fcc), 3.987125448104837, -0.031874551895163084
Cu (fcc), 3.5819798819773996, -0.013020118022600613
Rh (fcc), 3.8053225870408918, 0.01232258704089162
Pd (fcc), 3.9127996636818114, 0.036799663681811534
Ag (fcc), 4.107278148478375, 0.044278148478375634
C (ds), 3.562422451861509, 0.007422451861508694
SiC (zb), 4.355077078272135, 0.007077078272135218
Si (ds), 5.439810396103212, 0.017810396103212334
Ge (ds), 5.6790412498089164, 0.03504124980891632
GaAs (zb), 5.669112611809476, 0.028112611809476107
LiF (rs), 3.983785936764138, 0.009785936764137748
LiCl (rs), 5.088155866270704, 0.016155866270703534
NaF (rs), 4.580997728312518, 0.010997728312517552
NaCl (rs), 5.590909663400034, 0.025909663400033978
MgO (rs), 4.195800933185902, 0.007800933185902359
====
ME (metals), 0.02359676503705317
MAE (metals), 0.032575699020605905
====
ME (insulators), 0.016611391578854384
MAE (insulators), 0.016611391578854384
====
ME (total), 0.020104078307953778
MAE (total), 0.024593545299730145