Solid (struc), a0, a0 error
Li (bcc), 3.4385372001093755, -0.012462799890624598
Na (bcc), 4.1511668093197605, -0.0558331906802394
Ca (fcc), 5.509105526002396, -0.04589447399760349
Sr (fcc), 6.019264640433458, -0.022735359566541824
Ba (bcc), 4.997771252033296, -0.006228747966703807
Al (fcc), 3.9902834005184946, -0.02871659948150551
Cu (fcc), 3.5668435573650306, -0.028156442634969636
Rh (fcc), 3.787081285211693, -0.005918714788307078
Pd (fcc), 3.8817438725064597, 0.005743872506459802
Ag (fcc), 4.065453910560397, 0.002453910560396899
C (ds), 3.5779426881153573, 0.022942688115357157
SiC (zb), 4.370316857239214, 0.02231685723921384
Si (ds), 5.430845583307594, 0.008845583307594218
Ge (ds), 5.6575047262964855, 0.013504726296485359
GaAs (zb), 5.643540416011942, 0.0025404160119419927
LiF (rs), 3.9757428358303635, 0.0017428358303632763
LiCl (rs), 5.051267291891111, -0.020732708108889497
NaF (rs), 4.589503264265636, 0.019503264265635423
NaCl (rs), 5.542594525654374, -0.022405474345626786
MgO (rs), 4.19086617148804, 0.002866171488040692
====
ME (metals), -0.019774854593963866
MAE (metals), 0.021414411207335206
====
ME (insulators), 0.005112436010011568
MAE (insulators), 0.013740072500914824
====
ME (total), -0.007331209291976148
MAE (total), 0.017577241854125014