Iteration, sigma_tot, 1-sigma_i/sigma_(i-1), KE, ESP, XC, Surf. charge, SL sum rule-pi/4, Delta Phi error, Budd-Vann.
0,55.87684642262664,1.0,53.57603869872822,-126.55136805947681,128.85217578337523,-0.0020780969061158783,-0.2777228166094483,-0.02846082505751668,1.9513890283476005
1,45.99558359072942,0.1768400234537203,65.12834934212756,-145.04289919765804,125.91013344625989,-0.002341051438734809,-0.3129592155360314,-3.6692321333301754,2.0769887625223236
2,55.6753955143824,-0.21045089915119575,64.7763790696983,-116.00281727249126,106.90183371717538,-0.002004246099815171,-0.2678414623333969,2.2353065893123607,1.6353131643181336
3,74.93147972926832,-0.34586344716512274,54.411276125689454,-57.88635615097883,78.40655975455769,-0.0012393104491631723,-0.16536042002364815,1.5923314263948847,0.8842758771008671
4,92.86856193047423,-0.23937979426021738,39.22992665334699,5.371573645607476,48.26706163151975,-0.0003090481722838323,-0.04071877414844183,1.4932456422107283,0.06241188445358059
5,103.9503815536331,-0.11932799854761655,23.361121144554506,53.48798451236157,27.10127589671702,0.00048811283893590574,0.06609906232963547,1.6198623825261274,-0.6306094858251503
6,108.56286631372721,-0.04437198489468086,8.107698858499658,74.68586428099994,25.769303174227634,0.0008995489380631272,0.12123675174236348,2.8869652042697256,-1.05682297286577
7,95.533521775148,0.12001658560604633,-19.688892562512883,66.85427889173444,48.368135445926455,0.0008196361735227087,0.12632523145241148,-0.21116384737852711,-1.1622075255052668
8,39.11805340050539,0.5905306046125317,-84.84338819904987,37.00252633466075,86.9589152648945,0.00034808704557354186,0.12682505265181687,0.4707367380733095,-0.9848809618488086
9,-27.516342293742785,1.7034179848373356,-151.91318055995856,-0.5359103513360844,124.93274861755187,-0.00025651604729132194,0.12188169752335609,0.545402063746518,-0.6360035397043082
10,94.67219454180336,4.440580638631314,-23.41826922561218,-28.959919386286728,147.05038315370228,-0.0007099459046038259,-0.09442098496814089,0.38857689559780284,-0.25524672312748664
11,90.83025726797123,0.04058147476591656,-19.87654321748076,-36.584435799211846,147.29123628466385,-0.0008357550977914352,-0.11127749301140966,-1.1092902908381497,0.03989650055327443
12,90.8359126490791,-6.226318495583527e-05,-16.255641593825317,-22.562091688101685,129.6536459310061,-0.000627864241648235,-0.08341898543640602,2.336870068485106,0.18839343354509785
13,93.66284246631334,-0.03112127940141174,-14.219533235451898,3.5579595282707057,104.32441617349451,-0.00022872764889619868,-0.02993363654433212,1.6757532029338722,0.19259083774176877
14,97.06486912651215,-0.03632205227406349,-13.838327888038563,27.859428848503573,83.04376816604712,0.00015157607823820807,0.021028675325108548,1.7157315470338483,0.10152704265290524
15,99.3054124049266,-0.023082947502810702,-14.754637767751857,39.28530850196769,74.77474167071077,0.00033604185484803484,0.04574904138537739,2.8160850714877865,-0.017538921513095218
16,88.99037309929184,0.10387187420937616,-27.22121340919623,34.186272707180926,82.02531380130716,0.00025928146309028843,0.04796648520338298,-0.5420918080372155,-0.10709485657592843
17,40.178174190899036,0.5485110041501922,-76.52785726600754,16.97573583189942,99.73029562500716,-1.098823745002142e-05,0.06786479643227128,0.38239490143046106,-0.13774628133671207
18,-0.35478992414030797,1.0088304143054034,-115.92798419332506,-2.629821381611023,118.20301565079578,-0.000319305845176282,0.073311536327345,0.47288782456208645,-0.1123530118045184
19,39.99899655151349,113.73994504898955,-73.9529083620966,-14.569202347455759,128.52110726106585,-0.0005077973449009732,-0.0011381568312118784,0.2671586082049553,-0.056803397634791475
20,93.9422776920716,-1.348615860177547,-19.430940332347383,-13.414051568524457,126.78726959294345,-0.0004934376360271331,-0.06539733581688312,-2.332557857735984,-0.003526801196960916
21,95.34650557373179,-0.014947773421707167,-19.089477991821123,-0.7485303691720515,115.18451393472496,-0.0002998576066242098,-0.039458742888367926,2.3027620816665015,0.0239677100656297
22,97.45959560862951,-0.022162217924847516,-19.013733671923582,16.258772604487756,100.21455667606534,-3.554121244522812e-05,-0.00404135712793563,1.758018367781189,0.019257355364277418
23,99.14174430963779,-0.017259959786446233,-19.242668167578003,28.94382957254352,89.44058290467227,0.0001648365008465047,0.02280869356766002,1.9148241631213132,-0.007944590769120907
24,99.66632676408874,-0.005291236886175721,-19.76895276855635,31.47349506504928,87.9617844675958,0.0002070319521597641,0.028462614794864005,5.767323241912377,-0.03952872839397381
25,82.11501881989851,0.17610068028025527,-37.25880435518209,23.37083775212359,96.00298542295701,8.112575716656689e-05,0.03126320079947564,-0.1271323666491726,-0.05892398131957988
26,39.17605845419651,0.5229123853686168,-79.15978323405349,9.365396859382352,108.97044482886764,-0.00013832080050629747,0.050799750113861064,0.3947484510818279,-0.05853965561710628
27,12.280611625938247,0.6865276367632447,-104.64189346605272,-3.176356349435963,120.09886144142695,-0.0003348820800849195,0.055391806397090626,0.415847117541322,-0.041793494215758065
28,94.81328609358896,-6.720567100528688,-21.24604409936472,-8.0138901624839,124.07322035543757,-0.000411301937890185,-0.05439513579337818,0.04702092049380069,-0.01963203735129393
29,95.29518075159069,-0.005082564668479783,-21.09949487506016,-3.112891186888007,119.50756681353884,-0.00033617588667322895,-0.044329130978159825,-195.8833802641047,-0.004026587197656584
30,96.73028250027532,-0.015059541703641433,-21.064642223070894,8.566357773072752,109.22856695027347,-0.00015461581703923866,-0.020000986351138894,2.1131665853809434,-0.0019901625762621666
31,98.31191159958175,-0.01635091988180548,-21.192174670837694,20.878454048621723,98.62563222179772,3.861209068828364e-05,0.005890981229200842,1.8228592354486244,-0.012855975639398665
32,99.25934261539099,-0.009636991086777735,-21.47032282582689,27.752252308884326,92.97741313233355,0.00014800406142592704,0.020549268665394305,2.258490677024748,-0.02960521581940645
33,98.44905740106977,0.00816331433365336,-22.59129334096343,26.14504990605247,94.89530083598073,0.0001242776114527555,0.018223170032362512,-5.786025017362908,-0.04306046112410944
34,73.0745458909039,0.2577425541698497,-47.34523440888893,17.332941639643234,103.08683866014958,-1.3248571573809542e-05,0.028394345876725846,0.11976377921112957,-0.04661702671860346
35,38.651153366232485,0.4710722742781537,-80.57876441584649,6.073617860877303,113.15629992120168,-0.00018953440470773075,0.04393348721199264,0.4041785335349338,-0.039208487752507626
36,28.12877378788422,0.2722397305623776,-90.00400780901735,-1.8812503355085586,120.01403193241012,-0.00031424607784133474,0.03911940361806954,0.33801424478114517,-0.025270532496687093
37,95.40620647067803,-2.39176557037733,-22.382861428135907,-2.692398555071132,120.48146645388506,-0.00032759754218511516,-0.04318177479744756,-0.37518531500278574,-0.012032701694496328
38,96.1455651914783,-0.00774958724543251,-22.284655969684803,3.72243586035588,114.70778530080722,-0.00022811626829083442,-0.029851232072914846,4.663248868974621,-0.005734669416504801
39,97.4125900773545,-0.013178193745627897,-22.29183959394064,13.83643903074418,105.86799064055096,-7.008375453781968e-05,-0.008674656016117277,2.01098963812769,-0.008710848374435143
40,98.53595341205386,-0.011532013816769604,-22.41825130363589,22.474430457635137,98.47977425805463,6.593777698979397e-05,0.009552416106345385,1.9365740798404958,-0.01864423614237065
41,98.98180074749058,-0.004524717323962868,-22.648075226235193,25.463530054247567,96.1663459194782,0.00011394308145071252,0.015984852796525395,3.0999009011313428,-0.03011297092644072
42,92.19852328254368,0.06853055221991278,-29.314169261791456,21.622829755850965,99.88986278848417,5.4579364367313143e-05,0.015492238072677966,-1.0705900927849572,-0.037467433028670394
43,67.36201401406092,0.2693807708001019,-53.37663805304167,13.195507965929309,107.54314410117328,-7.71165501289861e-05,0.025858065751951598,0.2460307341315361,-0.03754993481416835
44,38.35107345884337,0.43067210771284103,-81.38966979435261,4.601800960812376,115.1389422923836,-0.00021161608889838646,0.04097084217948155,0.38811060717471013,-0.030975454589217133
45,58.83015836929262,-0.5339898746882918,-60.254530915179124,0.16206926457493964,118.92262001989681,-0.0002812868000891533,0.007016994463053705,0.20719465736139264,-0.021486146257254868
46,95.95369559592748,-0.6310290207549758,-23.21373883379674,1.93802139926464,117.22941303045958,-0.0002539666417497033,-0.03331801561737535,-1.4714665110318244,-0.013864304616433065
47,96.78424329882041,-0.008655713547401689,-23.17888124967008,8.791438620178583,111.1716859283119,-0.00014711476225762188,-0.018997239378143238,2.998355416360317,-0.011544089180238304
48,97.8341967796075,-0.010848392723858513,-23.21738884237928,17.103305284132286,103.94828033785448,-1.6830832265918305e-05,-0.0015359643438254134,1.9994589572912231,-0.015096892886920399
49,98.56868468406944,-0.007507476206060515,-23.332868332703605,22.69926168628626,99.20229133048677,7.152470214674689e-05,0.010305916600496512,2.175388130696262,-0.022227676309978683
50,98.64830493114223,-0.0008077641223274146,-23.50952350429742,22.941565173448954,99.21626326199069,7.608574194525874e-05,0.01091673920723879,8.436198163627491,-0.029138857221791215
51,87.38510757882138,0.11417527508640624,-34.382105414948974,17.956748191284955,103.8104648024854,-1.5581107014328577e-06,0.013010470652447315,-0.27927851230454137,-0.03248707325545763
52,61.125987424720556,0.30049880216048364,-59.843757093896485,10.458219707227862,110.51152481138918,-0.00011883065315529406,0.027130976463904277,0.30330939740164164,-0.030946992297590903
53,51.200407581016194,0.16237905123296648,-69.00156256082676,4.304964484323946,115.897005657519,-0.00021516571725094247,0.02511960113291367,0.33470510281670396,-0.025666372953145222
54,96.03064267860253,-0.8755835591083898,-23.866974543161668,2.5350893719382124,117.36252784982598,-0.00024306072039623206,-0.03186721900720946,-0.03998729650212063,-0.019489655803486494
55,96.41081138423034,-0.003958827047530811,-23.832459812530406,5.872748790931953,114.3705224058288,-0.00019113372905435466,-0.024906892513214207,-9.614296070310473,-0.015435347317502623
56,97.22813795825918,-0.008477540664723948,-23.83570035654838,12.458404854284924,108.60543346052263,-8.815060295946919e-05,-0.01109975026968446,2.5235829905780385,-0.015231206049255208
57,98.04874348313166,-0.008440000416594984,-23.89358665641576,18.89292148402529,103.04940865552211,1.293103825869557e-05,0.0024555386812030733,2.094822892890214,-0.01860661612374348
58,98.46722306109527,-0.004268076908457319,-24.0032709643064,21.99992997920729,100.47056404619438,6.218611801295237e-05,0.009064677954555345,2.8027199899278994,-0.023609173075115786
59,97.14679814070718,0.013409791393922288,-25.297918195972297,20.389679888461377,102.0550364482181,3.746061327158934e-05,0.007101069209669353,-3.3726860776697194,-0.02769704831002584
60,80.86388768714491,0.16761139600275998,-41.065832078746126,15.071656615612783,106.85806315027826,-4.557754287684568e-05,0.014294088938080263,0.03198059591314362,-0.029011390721661368
61,60.856036076560436,0.24742628858005256,-60.36089426363594,8.862037494596784,112.3548928455996,-0.00014272713352919686,0.023933423684951438,0.31013696256042866,-0.027199813114347604
62,67.25149432020493,-0.1050916007016729,-53.445578655917515,4.91526809734997,115.78180487877246,-0.00020455529904592207,0.007610369361242486,0.21447452698349245,-0.023433957243040204
63,96.308937467855,-0.43207133821144117,-24.355530136382644,5.131295142104599,115.53317246213304,-0.0002013473675053501,-0.026292026903375953,-0.6561290292865294,-0.01968884332610532
64,96.80528379561,-0.005153689167432196,-24.343324634869372,9.247447803778893,111.90116062670049,-0.0001370851984279775,-0.017682986222854136,5.8233049923054985,-0.017707734266270148
65,97.53463669344896,-0.007534226121157506,-24.365981530596578,15.057662308586739,106.8429559154588,-4.604912895167512e-05,-0.00547389002677745,2.348732427136672,-0.018189613023195772
66,98.11952716794121,-0.005996746328492231,-24.4300705942003,19.601087036739347,102.94851072540216,2.5464990950824218e-05,0.004128786986335786,2.3767859323634184,-0.020572593514556203
67,98.27770993660813,-0.0016121436092551011,-24.52911005629768,20.673410950131967,102.13340904277383,4.271295924054841e-05,0.006461774733960257,6.717807535609645,-0.02345600439550477
68,91.56962872625957,0.06825638504067166,-31.022617375369723,17.893712170418077,104.6985339312112,-5.03446071414837e-07,0.0081482422166117,-0.604117844173613,-0.02538618691280825
69,76.6775650060147,0.16263103746727592,-45.37423805839317,12.823534650128119,109.22826841427975,-7.975130558987575e-05,0.014271250283488857,0.20194569876603863,-0.025578786314658375
70,61.43567998821525,0.19877893901043753,-60.05062344028805,8.115702804763709,113.37060062373959,-0.00015342164889270427,0.02166660848992563,0.2793601588293144,-0.02422283206973641
71,85.51880681764874,-0.3920055387041077,-35.69089663180203,6.142849876831351,115.06685357261942,-0.00018436626268777956,-0.011106866912739322,-0.04321924085647799,-0.022256393325994273
72,96.60992510759596,-0.12969215430702552,-24.773050999113078,7.808686844916268,113.57428926179276,-0.00015841818403108943,-0.02054628644876233,-4.253393052269891,-0.02078437807379907
73,97.14470925294488,-0.005535499015792977,-24.777543495760565,12.143494662997938,109.77875808570751,-9.060546254988089e-05,-0.0114746949624287,2.9410809031633995,-0.020478097121950256
74,97.74188780193866,-0.006147309036036663,-24.811521812603427,16.86581044796996,105.68759916657213,-1.649491264996139e-05,-0.0015397256631857204,2.2708861867086974,-0.02127344782470919
75,98.09715710807643,-0.0036347702518051417,-24.876402368250307,19.585381791042735,103.388177685284,2.643571775043374e-05,0.004236406686530136,3.0951215827953105,-0.022498172891050938
76,95.53471825898832,0.026121438425223742,-27.471602171427676,19.011679689103484,103.99464074131251,1.7780190842892063e-05,0.006042308185617129,-2.866573887549487,-0.023320174387651882
77,86.94156978519285,0.08994791244895917,-35.73110621077361,15.564424298956524,107.10825169700995,-3.600272348538991e-05,0.008436185684177255,0.03993058656839421,-0.023245906472874722
78,76.41612902732811,0.12106338525828353,-45.75397175812058,11.105901703706259,111.06419908174243,-0.000105722868734337,0.010811872080034535,0.3162618545318895,-0.02238899055950072
79,72.82259577239671,0.04702584782390995,-48.95623681616594,7.954533686530045,113.82429890203261,-0.00015504448478251276,0.008002177371171815,0.2275853710022563,-0.021370467968855555
80,96.58192587650927,-0.3262631584621225,-25.14033470975575,7.692435101484927,114.02982548478009,-0.00015920576139807907,-0.020600571142677104,-0.6302869184867719,-0.020922758232483796
81,96.90442309367212,-0.0033391052646352115,-25.139569960546034,10.378768709087264,111.6652243451309,-0.00011722557035417913,-0.01501480677497613,5.215594719641787,-0.021433401013080777
82,97.42707094696826,-0.005393436507959093,-25.15595794170989,14.563997695038413,108.01903119363973,-5.165965557954455e-05,-0.0062610341781143,2.223386606609412,-0.022693024920698468
83,97.87402614889147,-0.004587587387970604,-25.196272994796136,18.075011055558868,104.99528808812873,3.532680204837435e-06,0.0011242360360510517,2.2237096730962884,-0.023992683513106128
84,98.019990110118,-0.0014913452217084622,-25.258820710303176,19.143497834887114,104.13531298553404,2.055939095768622e-05,0.0034221792309756527,5.55148627645688,-0.024518607761488953
85,91.41906435430415,0.06734264866174966,-31.714139461445754,17.29361275281905,105.83959106293085,-8.178874692815752e-06,0.007071531309897905,-0.4629791381110775,-0.02382656270239525
86,83.85034418172282,0.08279148584640894,-38.884056682247405,13.551191863417694,109.18320900055254,-6.665645356618288e-05,0.007606208998213071,0.30379746045863243,-0.022131128136610778
87,71.76941494402165,0.14407727667186487,-50.53722118561871,9.888329069538468,112.41830706010188,-0.00012394990090738855,0.013621150943451954,0.3934340981092195,-0.02024084054523656
88,82.21762531480333,-0.14558026394573553,-39.872392455405084,8.19794653519919,113.89207123500923,-0.00015040676257857544,-0.002421276419334095,0.1644589652269861,-0.019158526374873253
89,96.75578151646563,-0.17682529927125845,-25.46085793291975,9.325906840861963,112.89073260852342,-0.00013278636289520973,-0.01703550068963955,-2.4162603741619337,-0.019549084212090673
90,97.16636790538763,-0.004243533383605724,-25.468618102961397,12.656177937943617,109.97880807040542,-8.066665701955689e-05,-0.010093703081914374,2.622549550344882,-0.02135635883477538
91,97.64440289679514,-0.004919757748617082,-25.4931719353095,16.454041720764252,106.68353311134041,-2.110466452809323e-05,-0.0021551744861060262,1.9361765543670741,-0.023781164241941433
92,97.94239623910521,-0.003051822055023745,-25.536559402111173,18.77496619745761,104.70398944375877,1.54601269714838e-05,0.002719593457157443,2.219223213527282,-0.025648199675584182
93,97.91187948091509,0.0003115786356259198,-25.59477347999447,18.46043218575651,105.04622077515305,1.0775760827391734e-05,0.002095715087507055,-44.255369390652966,-0.025986805272403046
94,89.24517132428964,0.08851538957859306,-33.98570622967939,15.713927081277443,107.51695047269159,-3.20720459459356e-05,0.006129899734611199,0.04794014123573309,-0.024534774852428054
95,80.31577651578004,0.1000546547898139,-42.49527585331023,11.977178752517757,110.83387361657252,-9.050744130575938e-05,0.008272084356640397,0.4297384955825305,-0.021905405851809334
96,71.64539132633158,0.10795369933010546,-50.83183487324842,9.18132681762641,113.2958993819536,-0.0001342488263960384,0.012231227969763947,0.43605880898631166,-0.01932119217111916
97,96.66949502306151,-0.3492772282134624,-25.74882319286105,8.757941910143279,113.6603763057793,-0.00014087048976796357,-0.01809238268834301,0.07839907364040666,-0.018033293768896286
98,96.92894826450983,-0.002683920521012517,-25.754204969977724,10.913882910695714,111.76927032379184,-0.0001071252112964105,-0.013583576508360062,-58.22794721958202,-0.018707221298830623
99,97.38126269129913,-0.004666453468111342,-25.768670653168154,14.53851019921935,108.61142314524793,-5.034386617810971e-05,-0.006012003214259765,2.1014791459636184,-0.021079482957511164
100,97.7922827423457,-0.004220730350863455,-25.798504895839717,17.78429507821821,105.80649255996721,6.068358278932262e-07,0.0007705661612225079,1.8154117559487266,-0.02406164800260191
101,97.95295086853848,-0.0016429530192692,-25.842710865235833,19.014420015833448,104.78124171794086,2.007381903618155e-05,0.0033462690418389895,2.301834915974376,-0.026249403511220626
102,97.05456126820764,0.009171644063449946,-26.625872445203324,17.6295495276491,106.05088418576186,-1.4213568480525574e-06,0.0013126244068991655,-2.9329992653839505,-0.026593831950432856
103,86.69607675272665,0.10672846675238268,-36.62686558997312,14.35911104987151,108.96383129282826,-5.251962012650657e-05,0.006135886273166857,0.2564397251897863,-0.024910178605584754
104,80.14694540117904,0.07554126549724927,-42.77238797802737,10.879938285104458,112.03939509410195,-0.00010695084935180565,0.00605361313346775,0.49170295237945616,-0.021975972301066182
105,76.04055227702034,0.051235803231226895,-46.64726537989839,8.96190070324441,113.72591695367433,-0.00013696393110335103,0.006606643955709091,0.4475550334198063,-0.019167775047893798
106,96.74478109886071,-0.2722787802278659,-26.016684446248878,9.573629444220236,113.18783610088936,-0.00012737462417886092,-0.016290419335154294,-0.06166081184237249,-0.017808505640225514
107,97.09274686356498,-0.0035967393874063447,-26.025986871143576,12.399531471659067,110.7192022630495,-8.310643670850215e-05,-0.010362844303495766,5.570000014277223,-0.018537806314314675
108,97.54623542706794,-0.004670673949931592,-26.045431937141085,16.0097780244934,107.58188933971562,-2.6508228579302795e-05,-0.002808528085592288,1.9046079502271427,-0.02100789933005598
109,97.87492455132828,-0.003369572621857664,-26.078282511434953,18.591359053726556,105.36184800903666,1.4054535514479438e-05,0.0025852873076035454,1.7815346231291174,-0.024050835253859093
110,97.91440397896613,-0.0004033661105624642,-26.12157900700518,18.864024020953767,105.17195896501755,1.8500293357676112e-05,0.003146395406670055,2.5428643724742077,-0.02623578011174188
111,95.13941982729061,0.028340918587132946,-28.67672993520087,16.717485240830335,107.09866452166114,-1.4964676509243713e-05,0.001581381497895662,-1.0560630199051104,-0.02654792294859476
112,83.72786032510548,0.11994564947842723,-39.69318980149597,13.254792925512541,110.16625720108891,-6.910427559453369e-05,0.007201012414097874,0.3639672051680197,-0.02486434950900418
113,76.18326296219142,0.09010856522093447,-46.87981391617441,10.228396314809636,112.83468056355619,-0.00011646355415312337,0.009304361260444982,0.5189921164325755,-0.022002422673824462
114,76.03805916861575,0.0019059802367317191,-46.89656167577256,9.157297512224089,113.77732333216422,-0.0001332240676257257,0.007097333533860994,0.43109477390549233,-0.019322408106776212
115,96.84624781856157,-0.27365491541286313,-26.266777943106685,10.569276203278305,112.54374955838996,-0.00011109525399832787,-0.014117734604099708,-0.30991140860448607,-0.01807828494059005
116,97.24152948686296,-0.004081538285736652,-26.279799898545242,13.746221901737277,109.77510748367094,-6.130004574611547e-05,-0.007444537391375627,3.376450701900318,-0.0188279456935716
117,97.66399644315231,-0.004344511635292925,-26.302763037918393,17.095469836336417,106.8712896447343,-8.760398760021548e-06,-0.00042787060804871935,1.8213373942054547,-0.02118173948397639
118,97.9021221414292,-0.0024382137425176253,-26.33689408389039,18.954405266677764,105.28461095864182,2.048480858390933e-05,0.0034543399252411344,1.8087057791824477,-0.024003474247867862
119,97.83891827995748,0.0006455821394802941,-26.37797215521812,18.420541603975593,105.79634883119999,1.2270481568626979e-05,0.002320858578109375,3.143542149144782,-0.025960822684618856
120,93.99497807509363,0.0392884577266559,-29.932830849620725,15.79242832647808,108.13538059823628,-2.8769607402584496e-05,0.0009152768319448112,-0.3930217484545968,-0.026157514339143262
121,83.59625050501985,0.11063067179787112,-39.935466371665164,12.40707769508941,111.12463918159561,-8.171939806439488e-05,0.005513498327000876,0.4250433925790209,-0.024546015759957074
122,79.97760629059417,0.043287159323113444,-43.26209162113329,9.962780739789872,113.27691717193758,-0.0001199745604114899,0.004297948325281853,0.5240682319523996,-0.021930105404996736
123,79.93210551299116,0.0005689189726143518,-43.27653313389868,9.670559531839537,113.53807911505031,-0.0001245408425544492,0.00372079335668285,0.386572444744231,-0.01956550340746266
124,96.96210538123995,-0.21305581479373092,-26.501852456347567,11.658330590469538,111.80562724711798,-9.338265222880171e-05,-0.011752205269895954,-0.7890173775098333,-0.018556806739037146
125,97.37043277911752,-0.004211205978583932,-26.51804096366,14.920865857398761,108.96760788537875,-4.2222708450501134e-05,-0.004894126517576369,2.6977372976278216,-0.019340701702224683
126,97.73894970501618,-0.0037846902327591803,-26.543309626871668,17.833217044615754,106.44904228727209,3.4904445148919994e-06,0.001212160599172507,1.7971256805925337,-0.02149780322919792
127,97.88530207162448,-0.0014973801851769775,-26.577403871706665,18.964882358061136,105.49782358527001,2.133668333517691e-05,0.003571810749949833,1.8972078558168668,-0.023974014633606044
128,97.7394981324295,0.0014895386345978867,-26.61535871260549,17.786494503287443,106.56836234174754,3.00164468464148e-06,0.001085594417852609,5.167013821896483,-0.025595974768115815
129,90.9966466404722,0.06898798971549092,-33.03108767586226,14.919984016445573,109.1077502998889,-4.179762251288466e-05,0.002532082693579296,-0.06374933408034744,-0.025628386839759987
130,83.49819200982952,0.08240363691938113,-40.16057798305956,11.814435007373955,111.84433498551513,-9.038124409330162e-05,0.004357827285391469,0.4593488364236499,-0.024107963995793513
131,79.96104894458624,0.042361912037890415,-43.48288076083674,10.016507208717108,113.42742249670587,-0.00011852087866764949,0.004493434673262686,0.5118979017161441,-0.021802392538072146
132,86.10936292522662,-0.07689136225440474,-37.38999688217611,10.403324932629282,113.09603487477344,-0.00011245014732919056,-0.0018333899925263575,0.30893925709984005,-0.019825021296589362
133,97.08138659731382,-0.12741963590666439,-26.723705297888433,12.75875152291524,111.046340372287,-7.551967344948673e-05,-0.009365028148017318,-1.9055188728812325,-0.019098061762105045
134,97.4756919681816,-0.004061595993713141,-26.74238524862498,15.89720221265896,108.32087500414761,-2.6285497189026952e-05,-0.002764884698723047,2.390435342560843,-0.019922925867186025
135,97.77609458001905,-0.0030818207675358256,-26.768955084983578,18.264555099013936,106.2804945659887,1.0897198871734348e-05,0.002201158678629911,1.8159241241929704,-0.0218578669690761
136,97.83560406287656,-0.0006086301883208023,-26.80202644897674,18.711560683616266,105.92606982823705,1.800724745884552e-05,0.003126465754980101,2.072621297884446,-0.023951465632155555
137,97.62805964978553,0.0021213587331423422,-26.836332377546764,17.055260215376,107.4091318119563,-7.83502024728766e-06,-0.0003617961927433466,-83.41659309849071,-0.025210056494790356
138,90.87912732169359,0.06912902245831709,-33.246729170046414,14.154205328409745,109.97165116333025,-5.3194832186020946e-05,0.0010114530152249834,0.12397731181444371,-0.025069674775345163
139,83.43260336839894,0.0819387704608503,-40.37126469527757,11.467401813022992,112.33646625065352,-9.523243272105408e-05,0.0037134184440125173,0.475157247965728,-0.023648279232584057
140,79.97849149883392,0.04140002505151741,-43.690902330607,10.323401271990956,113.34599255744996,-0.00011313417644204238,0.005217589911429843,0.48354507238595446,-0.021665975820626793
141,93.36442749918498,-0.16736919826183794,-30.432219273379374,11.266544004152218,112.53010276841214,-9.834370384592672e-05,-0.008338651958337828,0.18598737964896506,-0.02008253836126972
142,97.19505708983804,-0.04102879108519675,-26.93354302672183,13.802434318232484,110.3261657983274,-5.85727120140378e-05,-0.007099262964268327,-6.3872888255997395,-0.019633956913244877
143,97.55514013999988,-0.00370474652665731,-26.954038810049756,16.660470358735754,107.84870859131388,-1.3719779024951029e-05,-0.0010871115693540379,2.240113071556986,-0.02049137111470034
144,97.78086156031056,-0.0023137829537915877,-26.981086355934885,18.43387794973445,106.328069966511,1.4158053631030398e-05,0.0026338828920775548,1.877620231814855,-0.022200113724297088
145,97.76321421531621,0.00018047851811431315,-27.012434696939682,18.275295628466644,106.50035328378925,1.1769054559962466e-05,0.0022899941114064015,2.4130050485109384,-0.0239182329476737
146,97.51459085343153,0.002543117714369658,-27.042910308325652,16.304681531080572,108.25281963067661,-1.9013788153138256e-05,-0.001856402761116649,-2.700453668958429,-0.024830659871028615
147,88.83308922556118,0.08902771935862397,-35.396308329949036,13.533083943832683,110.69631361167754,-6.23611137648139e-05,0.002070496789363774,0.23758444873933693,-0.024535644760207198
148,83.3972055369701,0.061192104608548736,-40.56953720322792,11.347618246095236,112.61912449410279,-9.655617557080554e-05,0.003541635011913402,0.4760998568363739,-0.023220411422099074
149,83.32514181758837,0.0008641023271431791,-40.58420717223529,10.820013643895887,113.08933534592776,-0.00010480441231222604,0.0024556703019789072,0.4374523069392132,-0.0215500922682883
150,96.97617288683125,-0.1638284768734879,-27.115422887715628,12.184359456388677,111.9072363181582,-8.34078574281083e-05,-0.010446011842268565,-0.006988111566940569,-0.02033339711128268
151,97.29638816083097,-0.0033019994960350463,-27.132219957673474,14.73859750509855,109.6900106134059,-4.333761117231161e-05,-0.005061913738084622,19.82210170462997,-0.020132365161654064
152,97.60833766340289,-0.0032061776235339234,-27.153897945684154,17.20892805789382,107.55330755119324,-4.552804931196031e-06,0.00013575125719922365,2.180336887633767,-0.021004004390256847
153,97.75901775647262,-0.0015437215372864355,-27.180755877925755,18.387879500749413,106.55189413364897,1.4007422436679295e-05,0.0026093829701615556,1.9950207508483682,-0.022492092423817445
154,97.67712607740295,0.0008376892582295792,-27.20993868207945,17.727230205243366,107.15983455423903,3.7415823542774618e-06,0.0012131652144856675,3.1857712948066803,-0.023864003671620004
155,97.4069022619183,0.0027665004728998355,-27.236698672123357,15.59534182553357,109.04825910850809,-2.9580965464931497e-05,-0.003269878380057434,-0.9267658370155831,-0.02447062731606997
156,88.75669874872239,0.08880483120114324,-35.58623594066454,13.077935184218843,111.26499950516809,-6.895885237340194e-05,0.001191430962047546,0.3067294476093507,-0.024052934471878062
157,83.38862868132055,0.06048073151750821,-40.75689231584831,11.428531836073754,112.71698916109511,-9.47647940352514e-05,0.0037869295698952365,0.46346358280351196,-0.02285071136838579
158,86.18944989630323,-0.03358756774483429,-37.967712811764365,11.446999224555759,112.71016348351185,-9.44581397847033e-05,0.0005557287942424827,0.36959670621408014,-0.021468990680785005
159,97.0743489837315,-0.12629038821484717,-27.302562764624483,13.095165898807739,111.28174584954824,-6.860655202325927e-05,-0.008462965318073112,-0.32089766508888573,-0.020575167245227677
160,97.38093411093624,-0.003158250664716089,-27.32040438038154,15.533840101957981,109.16749838935979,-3.033802430316146e-05,-0.0033234777100120683,5.7573787280268265,-0.02057781507402834
161,97.63642610318307,-0.0026236346424421964,-27.34267532624455,17.55291938327611,107.42618204615151,1.3780445231315053e-06,0.0009255164909820479,2.1890727375981758,-0.021441268027780236
162,97.7164957683227,-0.0008200798445348045,-27.368805060086014,18.174278224893936,106.9110226035148,1.119577431885066e-05,0.0022285485204791566,2.201904600399589,-0.022719532507735174
163,97.58503370962183,0.0013453415174911054,-27.395600836406278,17.12806053958007,107.85257400644804,-5.120363283150908e-06,2.4384699121027253e-05,6.080840825437515,-0.023785228827563953
164,97.31065175985476,0.0028117216271454915,-27.418985709279685,14.97098558990389,109.75865187923056,-3.884791375927121e-05,-0.004509559153563103,-0.34203679953174615,-0.024136760239181987
165,86.3516560286371,0.11261866540841292,-38.11701586081761,12.794933611729109,111.6737382777256,-7.28884361211879e-05,0.003426240723667706,0.34613846696931805,-0.0236336575213556
166,83.40266475329923,0.03415095217583175,-40.9344408415076,11.677313322057705,112.65979227274913,-9.036959538455402e-05,0.004380669253229885,0.43701773591892823,-0.02255005625234796
167,90.56089245167931,-0.08582732601594611,-33.84573992853673,12.150365934192854,112.25626644602318,-8.293889508115271e-05,-0.0029362471134095625,0.27286628140158153,-0.02142760736291227
168,97.16677887273052,-0.07294414003899008,-27.48023075664725,13.951439882087742,110.69556974729004,-5.468363887820016e-05,-0.0065974846672808285,-0.8722385186744319,-0.020805885783087952
169,97.44631332987753,-0.002876852154512166,-27.49867954004216,16.17055023887095,108.77444263104874,-1.9849907386904064e-05,-0.0019211694185107264,4.046062808880325,-0.020963985173299893
170,97.64183881710044,-0.002006494453627994,-27.52099740703766,17.71263446964848,107.45020175448961,4.390278792509861e-06,0.0013246974090761476,2.266173872632104,-0.021796592317052
171,97.65917731964285,-0.00017757247049488,-27.54596763599821,17.840085947376203,107.36505900826485,6.462435336973549e-06,0.0015906114016505102,2.5850800859016907,-0.022878918808070914
172,97.49329121255232,0.0016986228191087083,-27.570327569644448,16.527773948336364,108.53584483386041,-1.4030587177721321e-05,-0.0011707315498374893,-15.400176094765353,-0.023682404271776925
173,96.07711032382485,0.014525931693494032,-28.743220149334487,14.459989138970561,110.36034133418877,-4.636760726728362e-05,-0.004168712823790499,-0.06497567062779197,-0.02383215084014445
174,86.3202263867928,0.10155263729463548,-38.28661081830181,12.677699233762098,111.92913797133251,-7.424749796253183e-05,0.00324815604628792,0.363531653984697,-0.02328099214343582
175,86.23765819249286,0.0009565335698954458,-38.29992100557223,12.057322763306313,112.48025643475877,-8.394225306621039e-05,0.0019567419518804474,0.3952556018951493,-0.022319790205953982
176,95.86633310756056,-0.11165278738872231,-28.785865963004504,12.882583710271383,111.76961536029367,-7.098977849440136e-05,-0.007449030052105399,0.13556471747658272,-0.021425207599802487
177,97.24898712778692,-0.014422727723141682,-27.64895223586541,14.718904542064154,110.17903482158817,-4.217573363143878e-05,-0.004921678767174975,-1.9844629780915914,-0.021024092206311407
178,97.4918869479717,-0.002497710540322773,-27.667582866851898,16.644503700594907,108.51496611422868,-1.1939004364303063e-05,-0.0008639472132138115,3.479181316346715,-0.021290557364151086
179,97.62794409472933,-0.0013955740422815222,-27.689458101071686,17.715303249993053,107.60209894580798,4.912231883147378e-06,0.0013906533852533487,2.4323222105171087,-0.022071827451566328
180,97.59266553937431,0.0003613571470969523,-27.712938596420475,17.42977724738939,107.87582688840541,5.068635503813201e-07,0.0007893745519891304,3.4252131595747306,-0.02297367287039287
181,97.40692115871568,0.0019032616809068204,-27.734938769473924,15.965728628485651,109.17613129970394,-2.2369988509379768e-05,-0.002289083267811076,-2.283917367006483,-0.023558581640830134
182,94.65716401078733,0.02822958692481281,-30.261334469525337,14.07737242020553,110.84112606010713,-5.190273379507282e-05,-0.0033235013074034425,0.08612675118511814,-0.023557375597381025
183,88.66036564755728,0.06335282095020967,-36.09579010500605,12.710310825062525,112.04584492750082,-7.328352906982305e-05,0.0006240886548275482,0.362878429200694,-0.022992153359153944
184,88.63407689917948,0.00029651071463321355,-36.10854219392201,12.530677844667261,112.21194124843424,-7.607453717453638e-05,0.00025787175580138655,0.33533989411706044,-0.022154848082392542
185,97.09550074277058,-0.09546468062408886,-27.793600287384727,13.603463739629014,111.28563729052628,-5.923955556200178e-05,-0.007218960991756562,-0.06142365948532724,-0.02145711765554159
186,97.31804944451737,-0.0022920598796474234,-27.809171981945315,15.375300815686973,109.7519206107757,-3.143131221852724e-05,-0.003482346295163641,-4.956921253105202,-0.02122840523143532
187,97.51839407245433,-0.0020586584819621834,-27.827607651009174,16.96213326662831,108.38386845683519,-6.5036930727013775e-06,-0.00013827399893706627,3.301210403047101,-0.02156093998198383
188,97.59866954644274,-0.0008231828954112785,-27.848630659797067,17.592288007027683,107.85501219921213,3.437273938811103e-06,0.0011894687125151293,2.74608643881807,-0.022274261174398013
189,97.52206760553027,0.0007848666510359426,-27.87039846324255,16.983609789690973,108.40885627908185,-6.03773570936883e-06,-9.028451554482508e-05,6.350542302977713,-0.02301187558782769
190,97.32965710937037,0.0019729944297138813,-27.890202531782176,15.47101731011703,109.7488423310355,-2.9680640779378153e-05,-0.0032692463808888794,-0.9059730605006848,-0.023418803914064368
191,93.60492063013152,0.03826928594902301,-31.420484844944287,13.82703796335075,111.19836751172505,-5.539034824003641e-05,-0.0026127103942382712,0.17198723573800712,-0.02331180861832327
192,88.66612540918234,0.05276213245737604,-36.248207534878674,12.870339796198312,112.04399314786271,-7.034621726684231e-05,0.0010210264913267375,0.3458762212705029,-0.022760874616384097
193,92.22480495683128,-0.040135728624952405,-32.72308613410913,13.060619501695026,111.88727158924539,-6.734113471126846e-05,-0.002711540485353603,0.25284887705334036,-0.022046189250265247
194,97.167689411896,-0.05359604129689832,-27.94580233977649,14.280734860511732,110.83275689116076,-4.8193409231039874e-05,-0.005737114571272239,-0.34977371072307784,-0.021515965174149
195,97.37239271284899,-0.002106701334486205,-27.961267931606653,15.908938596853217,109.42472204760243,-2.2633272117739134e-05,-0.0023040331525371327,-25.545500004166083,-0.02141700912264799
196,97.5275906920718,-0.0015938601784233342,-27.979199326484252,17.137794117156684,108.36899590139936,-3.3179594464138873e-06,0.0002861033108549904,3.359637892927328,-0.021780250275733826
197,97.55815047301398,-0.00031334497987001164,-27.999060545217194,17.376399406280377,108.1808116119508,4.815118477830005e-07,0.0007902845309722961,3.373531778627881,-0.022414012367323988
198,97.45181094851519,0.001090011690291437,-28.019006207436963,16.53627910339562,108.93453805255655,-1.2625558933304637e-05,-0.0009752282732969908,-27.085731808096753,-0.023004216828042434
199,97.26401365328192,0.0019270785571392501,-28.03683782281674,15.063089431689544,110.2377620444091,-3.5655920065102986e-05,-0.004070122012616251,-0.3992758345231817,-0.02326946949861841
200,93.57537922477987,0.03792393805226846,-31.5657050127771,13.70403019895255,111.43705403860442,-5.690635823382695e-05,-0.0028139813534200364,0.21814723723903928,-0.02309460618956516
201,90.63329267373608,0.03144081889293249,-34.44519237400201,13.131627582298107,111.94685746543999,-6.584387195007757e-05,-0.0006542108074276687,0.3126546195569354,-0.022579505313692128
202,96.34208269996631,-0.06298778139707295,-28.807293321930374,13.613459799742468,111.53591622215421,-5.8268980959702565e-05,-0.00624152380930354,0.14136752115752171,-0.021983042275871112
203,97.23213562799295,-0.00923846467797973,-28.09037748602307,14.890253185495498,110.43225992852051,-3.8229409660361924e-05,-0.004400731063187502,-0.7827481209464706,-0.021593088258382798
204,97.41158998628968,-0.0018456280646073076,-28.10557317376238,16.317125991753553,109.20003716829851,-1.582342020331473e-05,-0.0013923374728400661,19.84414379223007,-0.021587652136606295
205,97.52192161177591,-0.0011326334525672,-28.1227622779256,17.191225747680306,108.4534581420212,-2.071277331594512e-06,0.00045079245255452705,3.665052482351891,-0.02195395964647262
206,97.51043400615812,0.00011779511137521848,-28.14126002424604,17.09964250561612,108.55205152478803,-3.4516964750874735e-06,0.00026053959699556817,4.95916494322746,-0.022501952589551788
207,97.38551525469063,0.0012810808683264563,-28.15938359435602,16.116031258603222,109.42886759044343,-1.8812140080010087e-05,-0.001805917057724149,-3.0568259818459387,-0.02296209274825589
208,97.21138667452911,0.0017880336691357135,-28.175502902562357,14.752627001742663,110.6342625753488,-4.012673138595324e-05,-0.004669072058304913,-0.14930426627797666,-0.0231173753921452
209,93.56130135091647,0.03754791952339287,-31.703324715595688,13.696704409509067,111.56792165700308,-5.663153994672765e-05,-0.0027752706362675905,0.23674706120672295,-0.02290501797018485
210,93.52968597450979,0.000337910823707932,-31.715801436430063,13.466656299558013,111.77883111138183,-6.020627778921539e-05,-0.003251227350427932,0.2621117838393632,-0.022440359013848
211,97.12935427076827,-0.03848690668371879,-28.214245228142165,14.159997439064004,111.18360205984644,-4.931494753124266e-05,-0.00589277859895132,-0.007991501147882829,-0.02195464357653054
212,97.28669045665292,-0.0016198623687546654,-28.227615559043212,15.41581161216947,110.09849440352667,-2.9601296032882862e-05,-0.0032437808254616174,-1.449417924968913,-0.021679906089571155
213,97.43615293906359,-0.0015363096607470261,-28.242398808907478,16.604525310913765,109.07402643705728,-1.0928154128397871e-05,-0.0007373671009915927,10.587747334979698,-0.021738105811705433
214,97.50423565812842,-0.0006987418633761511,-28.258674422711803,17.145304618141644,108.61760546269859,-2.403901011693854e-06,0.0004040134178157073,4.393718564055627,-0.022087323046553475
215,97.45925272192792,0.0004613434062312738,-28.275710071131563,16.791481202480043,108.94348159057945,-7.899010101730664e-06,-0.0003376886022761205,14.299448146242211,-0.02254842492375575
216,97.32593101521476,0.0013679738248512097,-28.29210464628133,15.74427396790069,109.8737616935954,-2.4260425075139924e-05,-0.002537217720388396,-1.279946043277436,-0.02289619840903323
217,97.17218646385288,0.0015796874456597276,-28.3067855820365,14.5426573929735,110.93631465291587,-4.30440552875444e-05,-0.005059568450426433,-0.011238327848313245,-0.02296876370243539
218,94.56634411662719,0.02681675119243132,-30.828100314815735,13.788752133748753,111.60569229769418,-5.481985213623419e-05,-0.0037069197047672198,0.23382620235076323,-0.022742221775016613
219,95.92771240073182,-0.014395906882322507,-29.48452904319243,13.848463667703056,111.56377777622119,-5.3854707042833017e-05,-0.005159068027887126,0.19208417537078337,-0.022336311051031732
220,97.18316485444574,-0.013087484547419814,-28.34460005275066,14.676386141734199,110.8513787654622,-4.0852133047802885e-05,-0.004756948162072172,-0.20685940655157498,-0.021951261992656956
221,97.3301534729265,-0.001512490550198864,-28.35780281881273,15.848572810542363,109.83938348119686,-2.2447233016503754e-05,-0.0022847327829293995,-2.48766156580915,-0.021768898366354206
222,97.44732243573212,-0.0012038300426415738,-28.372050287414215,16.78147841260372,109.0378943105426,-7.78468349044159e-06,-0.00031726432575007735,9.469234852874889,-0.021866702669526283
223,97.47754410116544,-0.0003101333590078692,-28.38730121313852,17.02411998754828,108.84072532675567,-3.9370715040343285e-06,0.00019654112964129222,6.291334830095908,-0.022185309541592035
224,97.40786663299085,0.0007148053309824487,-28.402865576713896,16.477619752872418,109.33311245683232,-1.245620288251037e-05,-0.000950246382589004,-8.745490116406364,-0.02256267275642898
225,97.2749415410476,0.0013646237879746392,-28.41769238766549,15.435648860270993,110.25698506844209,-2.873958813087718e-05,-0.0031382415907672545,-0.6488582981200368,-0.022815751386346728
226,97.14599886313428,0.0013255487576818714,-28.43120140333565,14.42984926511303,111.14735100135691,-4.445863588453669e-05,-0.005248462896673023,0.06634855450818566,-0.022828678435806937
227,95.35130060976189,0.018474237481472477,-30.177217157538863,13.961047347570748,111.56747041973001,-5.176955885180523e-05,-0.004202187806399249,0.21224931037641726,-0.022605046975553877
228,97.11999590495626,-0.01854925191249346,-28.45587689818533,14.252110199544203,111.32376260359737,-4.717893387276573e-05,-0.005609011680153708,0.09949389168406442,-0.022260936196812908
229,97.23151061201914,-0.001148215730692792,-28.468296318883834,15.14450948113888,110.5552974497641,-3.316391301810828e-05,-0.0037253349957127035,-0.4688788144298319,-0.021964622245423726
230,97.36216154798008,-0.0013437098234776457,-28.481227878321977,16.186200290950854,109.65718913535122,-1.680336880399702e-05,-0.0015283766801110765,-4.045750746944744,-0.021854092625368526
231,97.44686179583776,-0.0008699503637861206,-28.494835711586088,16.862359119018762,109.07933838840508,-6.166875167940011e-06,-0.00010167714420983298,11.19061264196033,-0.02197268062112423
232,97.44482044139622,2.0948385652697077e-05,-28.509004199903444,16.85138222543956,109.1024424158601,-6.297998552451389e-06,-0.0001216486190879218,16.238276037131374,-0.02225269540635555
233,97.35896590430522,0.0008810579844275024,-28.523159365713262,16.17925428123402,109.70287098878445,-1.6789862391231036e-05,-0.0015324740244636592,-2.656693101189619,-0.022552697375717967
234,97.23361676826352,0.001287494529932709,-28.536620130559562,15.19847962847603,110.57175727034706,-3.2117953164850777e-05,-0.003591393240313545,-0.33960435366392927,-0.022728221160682294
235,97.13176333321431,0.0010475125623677917,-28.549198688083642,14.405909293304859,111.27505272799308,-4.4499093935890244e-05,-0.005253047928994503,0.10593016662900145,-0.022700699518860334
236,97.10332574761112,0.00029277328679433445,-28.561282941262622,14.193276473877585,111.47133221499615,-4.779771776838859e-05,-0.005694092512445348,0.17305575387736516,-0.0224918094758344
237,97.1605204266708,-0.0005890084466142476,-28.57335151440821,14.655728820628923,111.07814312045008,-4.052076743241151e-05,-0.004715042733971719,-0.019355712881797382,-0.022208473272904428
238,97.27275976477709,-0.001155194904405521,-28.585626248201127,15.551946559815674,110.30643945316253,-2.6444420899662813e-05,-0.0028239143324989557,-0.8060621471528095,-0.021987967762892913
239,97.38305116285869,-0.0011338364239721344,-28.59818192734695,16.431786542636438,109.54944654756919,-1.2620624224884969e-05,-0.0009680771276774358,-6.010770404991251,-0.0219311668625799
240,97.43686049421878,-0.0005525533521240078,-28.611068147028693,16.8640195581203,109.18390908312718,-5.809652453309111e-06,-5.50345635847993e-05,21.217573335449593,-0.022056276372542927
241,97.40884088306652,0.0002875668510883278,-28.624143731983946,16.649166487976593,109.38381812707388,-9.139574455335753e-06,-0.0005040251671158957,-13.709451425338148,-0.022294128532875934
242,97.31462525700671,0.0009672184291045216,-28.637003430917392,15.912729969415587,110.0388987185085,-2.064272214988283e-05,-0.0020499211861166877,-1.3189681808867615,-0.022525299246152874
243,97.20230459948777,0.0011542012027718762,-28.649314679567212,15.035494826882333,110.81612445217266,-3.4351623987821656e-05,-0.0038908442626178763,-0.1671251207974742,-0.022639359545875815
244,97.12795484689119,0.0007648970145608391,-28.661167324705428,14.458989998885132,111.3301321727115,-4.334986853848921e-05,-0.005098096323207346,0.1185478897250265,-0.022586962841329328
245,97.12752111068089,4.465616629034663e-06,-28.672932108030533,14.465318026191404,111.33513519252001,-4.321856608599517e-05,-0.005078898568921741,0.11619694325585928,-0.02240030563149209
246,97.19934231837732,-0.0007394526996584716,-28.68484238027932,15.041194347147679,110.84299035150896,-3.4163522318275685e-05,-0.0038617067563126994,-0.16807154028326887,-0.022173773590057122
247,97.30596669420402,-0.001096966021410406,-28.696874182385905,15.891619392865104,110.11122148372482,-2.080403477036641e-05,-0.002067433231788929,-1.2187957944941106,-0.02201596054992483
248,97.39370776794881,-0.0009017029142779354,-28.708957002625215,16.592678399135533,109.50998637143849,-9.783123118944914e-06,-0.0005882467698726801,-7.443291773464004,-0.021997327074970485
249,97.41955635565468,-0.0002654030562985188,-28.721064495979643,16.8043925266993,109.33622832493502,-6.430953975899989e-06,-0.0001394928585795041,-44.21443201874654,-0.022118631267166622
250,97.37206522455223,0.00048749073470488735,-28.733077464679596,16.43698753771106,109.66815515152076,-1.2154885937670779e-05,-0.0009094501816978573,-3.8830657332307172,-0.02231411465944788
251,97.27630142227738,0.0009834833230044637,-28.744787976988725,15.68953634846978,110.33155305079632,-2.383369960484716e-05,-0.002478351905995768,-0.7509649835528809,-0.022486168343247126
252,97.18074622994392,0.0009823070052660254,-28.756160185671266,14.944727405028999,110.99217901058618,-3.547036322790187e-05,-0.004040638626119142,-0.06691259189148235,-0.022553370968035447
253,97.13275786676225,0.000493805255087465,-28.767448676985016,14.575028513689862,111.3251780300574,-4.123024098612316e-05,-0.004813046958330736,0.10997566375863177,-0.02248834219160356
254,97.15498057527303,-0.00022878696125627762,-28.778933879927187,14.758347832975778,111.17556662222444,-3.832618547625066e-05,-0.004421887910448508,0.04107418362104287,-0.02232792219323332
255,97.23463443697582,-0.0008198639043635048,-28.790624636551378,15.394455501408107,110.63080357211909,-2.8326768749253883e-05,-0.003078413395639301,-0.3486531443944747,-0.022152280281614756
256,97.3307955821048,-0.0009889598051742166,-28.802316705218846,16.161208147615408,109.97190413970824,-1.6278519145901393e-05,-0.0014606371589523937,-1.6768044720397701,-0.02204452838638904
257,97.3954135450859,-0.0006639004910484747,-28.81384406122341,16.67928696278059,109.52997064352873,-8.126879194242376e-06,-0.0003668531264389152,-7.156210207627904,-0.022051084013518407
258,97.39718267238892,-1.816438001145393e-05,-28.82514273346686,16.701297470394017,109.52102793546175,-7.750493223823707e-06,-0.00031745240264591246,-8.057331167054588,-0.022161597688483248
259,97.3365570433275,0.0006224577282214483,-28.836156649893514,16.231191120839153,109.94152257238187,-1.5086754477061648e-05,-0.001303457219228088,-1.9542781638321904,-0.022316946034192098
260,97.24486528971234,0.0009420073649650806,-28.846879579396344,15.516572862473993,110.57517200663469,-2.625370863029719e-05,-0.0028031826399257387,-0.4495750568691268,-0.022439974880994473
261,97.16820369628303,0.0007883356432334399,-28.857502267835418,14.920504178464286,111.10520178565415,-3.556207767141384e-05,-0.004052611360976566,-0.01086697856972374,-0.022473130157521615
262,97.14422341847673,0.00024679140803363087,-28.868345063133162,14.738953621711838,111.27361485989805,-3.837541937146138e-05,-0.004429467535162823,0.08332212268816941,-0.02240469761124375
263,97.18354116439187,-0.00040473580961974953,-28.879556947119923,15.055661630706942,111.00743648080484,-3.338158213117559e-05,-0.003758055283206274,-0.05289000415691114,-0.022271801416618775
264,97.26509598506931,-0.0008391834635814721,-28.890958339133686,15.705577281336334,110.45047704286667,-2.316562373633202e-05,-0.002385929103647655,-0.5587422954607151,-0.022140032433155543
265,97.34742549985191,-0.000846444595039797,-28.902223002920348,16.36241316756665,109.88723533520562,-1.2840583547613083e-05,-0.0009998205109347236,-2.0997714256418827,-0.02207070424113411
266,97.38970249856702,-0.00043428984894067213,-28.913131342475626,16.70395297247971,109.59888086856293,-7.457617096112701e-06,-0.00027780912172081784,-5.61552054078333,-0.02209200154537716
267,97.37184418072665,0.00018336967238008484,-28.923618511205966,16.571478112979914,109.72398457895271,-9.504873673016334e-06,-0.0005535845621499336,-3.7797862814046264,-0.022187513776608547
268,97.30394056511179,0.000697363967851139,-28.933721764385293,16.044635792852745,110.19302653664434,-1.773271785246444e-05,-0.0016589195149393499,-1.156169276725464,-0.022306608612476575
269,97.22066054384845,0.0008558751144062127,-28.943619559269965,15.396618193498044,110.76766190962039,-2.7858289919496793e-05,-0.003018493553298973,-0.27281919731414495,-0.022390453547044276
270,97.16358990539968,0.0005870217105039544,-28.953652307606696,14.954452390501602,111.16278982250476,-3.475704561045623e-05,-0.003944272955862527,0.015015468679052346,-0.02240040501880669
271,97.16040332582112,3.279602556527372e-05,-28.96412804535077,14.93571839032013,111.18881298085176,-3.502035058217112e-05,-0.003978883510340814,0.04033331825201547,-0.022335133276058627
272,97.2113807293394,-0.0005246726214929165,-28.975049721416482,15.343222822603266,110.84320762815263,-2.860406724813913e-05,-0.0031167998762959837,-0.16548102325313363,-0.022229014325501062
273,97.28992730887084,-0.0008079977770312219,-28.986091844489337,15.968546329902921,110.30747282345726,-1.8773765318919056e-05,-0.0017967819314929079,-0.7876984875044808,-0.022133674606347187
274,97.3564455824469,-0.0006837118231661776,-28.99685538075227,16.50013363540475,109.85316732779441,-1.0412759844785624e-05,-0.0006745540751231793,-2.3704973119242627,-0.022092470572133927
275,97.37822929001644,-0.00022375208379088463,-29.007102960508085,16.679919675695363,109.70541257482915,-7.566904616868042e-06,-0.0002931365025876653,-4.013668809091457,-0.022120451915754513
276,97.34542350333658,0.00033689035957062963,-29.016801663347774,16.42988198612588,109.93234318055848,-1.1458898695387854e-05,-0.0008163482628427143,-2.198188582614432,-0.022198986864610193
277,97.27539008389029,0.0007194320690780964,-29.026098482632367,15.886628615059362,110.41485995146328,-1.994603021301944e-05,-0.0019561836185464365,-0.7345615018762008,-0.02228669612237999
278,97.20358072650554,0.0007382068303486422,-29.03532321610357,15.328939327101642,110.90996461550745,-2.8658060871628033e-05,-0.003125747234634546,-0.16537342224872398,-0.02234048745271755
279,97.16559337880196,0.00039080193774398975,-29.04489182412144,15.036464866413617,111.17402033650977,-3.321279670659427e-05,-0.0037367816705098367,0.018379786141361598,-0.022336068848546997
280,97.17945842494352,-0.00014269501846730925,-29.055045285681096,15.151134673774225,111.08336903685041,-3.138663085752724e-05,-0.00349102329004225,-0.017800683600811773,-0.022278236782746985
281,97.2370559233796,-0.0005926921117858086,-29.06564563525328,15.609956831569757,110.69274472706311,-2.416660852713748e-05,-0.0025213024603105705,-0.2946266970170348,-0.022196715096030717
282,97.30878178238866,-0.0007376391472153632,-29.076264273576154,16.180894127712204,110.20415192825261,-1.518931385652289e-05,-0.001316050770180377,-1.013155797388725,-0.022130456797921028
283,97.35874761361649,-0.0005134771015793405,-29.086469741205526,16.581622937499105,109.86359441732291,-8.880652730441918e-06,-0.0004694620167332575,-2.40524786878451,-0.022108609830527426
284,97.36265623612515,-4.014659806594878e-05,-29.096037547376202,16.620449237559733,109.83824454594162,-8.246027613151297e-06,-0.0003848261542762632,-2.809175208430253,-0.022137392355958463
285,97.3195175668445,0.0004430720252335263,-29.10499292483705,16.28917597063965,110.1353345210419,-1.3413171372544941e-05,-0.001079008465694975,-1.4064992531690672,-0.022198704947945735
286,97.25164666497939,0.0006974027775927816,-29.11359455324952,15.763071031684232,110.60217018654468,-2.16333686624548e-05,-0.0021827610533929898,-0.48424390646915194,-0.02226034581739733
287,97.19315716143417,0.0006014243002662178,-29.122280124959158,15.309981493686331,111.00545579270698,-2.870790445752558e-05,-0.003132338568041737,-0.10136696259682743,-0.022292196405913733
288,97.17279182765334,0.0002095346460141423,-29.131476778125034,15.155579133938454,111.14868947183993,-3.1100338957396056e-05,-0.003453096684603363,0.003738332093327301,-0.02228029622235983
289,97.19973976036673,-0.0002773197332970323,-29.14132597424862,15.372501135310184,110.96856459930515,-2.7672647037013665e-05,-0.002992496615913831,-0.08980312668202983,-0.022232287775888926
290,97.25951164753764,-0.0006149387572258469,-29.15156686306588,15.847823857506324,110.56325465309719,-2.0194658824745915e-05,-0.001988369185984662,-0.4351195759202038,-0.022172264272168896
291,97.32170168975247,-0.0006394237556961446,-29.16170721074549,16.34319273133873,110.14021616915923,-1.2402722738669159e-05,-0.000942424113507645,-1.2021369463214273,-0.022128217630567937
292,97.35542215537085,-0.00034648454592245415,-29.171315853959175,16.615671080735353,109.91106692859465,-8.105769785188288e-06,-0.0003659425513465875,-2.220542676840312,-0.022118561240635604
293,97.34456106825229,0.00011156119379995832,-29.180206833086896,16.538103682972867,109.98666421836633,-9.297277509950908e-06,-0.0005263513510512796,-1.981648782017475,-0.02214416886171211
294,97.29540188182237,0.0005050018808493428,-29.188481072851605,16.15947964578165,110.32440330889234,-1.5208273422745444e-05,-0.0013201954872055222,-0.9479727378623226,-0.0221892838584119
295,97.23305616620736,0.0006407878934580058,-29.196497809239503,15.676767256181751,110.75278671926512,-2.2749995337856266e-05,-0.0023326786636420627,-0.32671128516063086,-0.022230201788230097
296,97.18865081694905,0.0004566898440631073,-29.204755406956053,15.334085873183831,111.05932035072128,-2.8095726087251638e-05,-0.003050086652757633,-0.06716332564858041,-0.02224703116165183
297,97.18375041230695,5.0421572898806666e-05,-29.213641628184885,15.30073888304545,111.09665315744637,-2.859222574266851e-05,-0.0031163780140693875,-0.02595630839271723,-0.022232739974636484
298,97.2198436194595,-0.00037139137972586056,-29.223184977056906,15.589030271646836,110.85399832486956,-2.4046864895960196e-05,-0.002505895465719221,-0.17369447950930605,-0.022195431542153532
299,97.27806702007396,-0.0005988839155344206,-29.23302684349215,16.051708409596603,110.4593854539695,-1.676786336402003e-05,-0.0015286615172448448,-0.5775732609307354,-0.022153317350653845
300,97.32904461181555,-0.000524039933185172,-29.242645803437004,16.458474915897376,110.11321549935518,-1.036586367014758e-05,-0.0006694191312925923,-1.3207541836096741,-0.022125349690614637
301,97.3476630381823,-0.00019129363121783705,-29.251637325359685,16.611853503782253,109.98744685975974,-7.937310873284975e-06,-0.00034374897875810717,-1.9099790686297995,-0.022122285037603495
302,97.3253664689279,0.00022904062160844507,-29.25987414472892,16.444198137021335,110.14104247663549,-1.0542530467838596e-05,-0.0006938175210073894,-1.4195199234469706,-0.02214234923718994
303,97.2740194425537,0.0005275811254262797,-29.2675406404089,16.048289769960725,110.49327031300186,-1.6725944991718977e-05,-0.0015240624249476253,-0.6595152603710659,-0.022173151609341968
304,97.21962246022073,0.0005592138851122641,-29.275075312008227,15.627847349324092,110.86685042290486,-2.329312485579993e-05,-0.002405588515216883,-0.22562393272158765,-0.022198405483504713
305,97.18914223298837,0.00031351929230993836,-29.282991717897836,15.39419037778947,111.07794357309673,-2.6931475877151057e-05,-0.0028937624849075805,-0.05489260100915638,-0.022205872094419377
306,97.19710223067108,-8.190212918668394e-05,-29.291602983686264,15.461418670908403,111.02728654344894,-2.5852761413758252e-05,-0.0027486738229373087,-0.0684105911907289,-0.022192687763112895
307,97.23864246806008,-0.0004273814387019126,-29.30082591502419,15.79208921928908,110.74737916379519,-2.0644035587158438e-05,-0.0020492863023345853,-0.2661939194657099,-0.022165817143614985
308,97.29238320209309,-0.0005526684933994108,-29.310231927843013,16.21916657539873,110.38344855453738,-1.3924004511001176e-05,-0.0011472262397598243,-0.7085157768242107,-0.02213787974243897
309,97.33140607935249,-0.00040108871809985125,-29.319299383073986,16.531624777929533,110.11908068449694,-9.001581699613626e-06,-0.00048666337714831087,-1.3496584668621572,-0.022120749069060253
310,97.33668376135448,-5.422383395647934e-05,-29.32767124582954,16.57987490206565,110.08448010511837,-8.22246588216835e-06,-0.0003823702793842587,-1.5692682255303487,-0.022120136024455617
311,97.30629115716927,0.00031224203466517775,-29.335292908488583,16.348423976078497,110.29316008957936,-1.1829157410409019e-05,-0.0008667538721335299,-1.0324501337497152,-0.022133585724526172
312,97.25599022835696,0.0005169339845773058,-29.34243031083795,15.960563768988932,110.63785677020599,-1.788777150574239e-05,-0.001680107983716983,-0.4691154053385864,-0.022152468048981966
313,97.2110699897878,0.0004618763169620399,-29.349573498465627,15.614259800265957,110.94638368798746,-2.3294204726742596e-05,-0.0024057316921360927,-0.16192985007407223,-0.022166610286985078
314,97.1936148378564,0.00017955930259005992,-29.3572116636605,15.482478125753769,111.06834837576314,-2.5336988833446483e-05,-0.002679726267792115,-0.05960597763224107,-0.022169129074798066
315,97.21160995524372,-0.00018514711503780923,-29.36556275939693,15.628103205051788,110.94906950958887,-2.3030481927227564e-05,-0.002369912454480483,-0.12138416376455674,-0.022159196708620987
316,97.25529480222598,-0.0004493789065149745,-29.374443383327673,15.975276691629187,110.65446149392447,-1.756397224025874e-05,-0.0016360470018036422,-0.36226409036128016,-0.02214170120732928
317,97.30241836702754,-0.00048453469703013674,-29.38338240555808,16.350072135558573,110.33572863702705,-1.1664539401573526e-05,-0.0008442388103789833,-0.8125921393824609,-0.022124331562654476
318,97.3295434506242,-0.00027877090880035205,-29.39188169764801,16.568778428516108,110.1526467197561,-8.21309578868945e-06,-0.0003811558732076392,-1.2935900134369516,-0.022113753104157086
319,97.32364814332827,6.057058408903693e-05,-29.399647559855097,16.529026587482555,110.1942691157008,-8.814929360556611e-06,-0.0004621726276118343,-1.2557424149954728,-0.022112748879561828
320,97.2883211862947,0.00036298430759140743,-29.406705273840114,16.258630615890457,110.43639584424436,-1.3033443726023775e-05,-0.0010285712840176764,-0.7609516941648491,-0.02211950680965491
321,97.2416368727507,0.0004798552691087643,-29.413392008491776,15.898927144942013,110.75610173630047,-1.8651929110852228e-05,-0.001782738783992266,-0.34038339843157495,-0.022129076807239967
322,97.20691035108649,0.0003571157662601854,-29.42021911341441,15.632293068680095,110.99483639582081,-2.2810742997730893e-05,-0.002340841986509412,-0.12468490468623528,-0.02213601590980585
323,97.20102820927596,6.051156023045845e-05,-29.427620362033164,15.590947444141042,111.03770112716808,-2.3437051918234753e-05,-0.0024247297398644063,-0.07784914394481346,-0.022136839651930584
324,97.22620882452684,-0.0002590570873042264,-29.435710793302285,15.792622281116246,110.86929733671286,-2.0252895130551396e-05,-0.001997197858668809,-0.1822407464839011,-0.02213120608342245
325,97.26923742701038,-0.0004425617639911561,-29.444224513659957,16.13436267953957,110.57909926113078,-1.4872480899319473e-05,-0.0012749926593416117,-0.455056477003023,-0.022121520514541082
326,97.30837476011057,-0.00040236085051592596,-29.452673093965004,16.44620039045981,110.31484746361575,-9.961119907919702e-06,-0.0006158786702595842,-0.876851126019514,-0.02211142692531909
327,97.32430493103286,-0.00016370811825372478,-29.46060082251637,16.57676594166796,110.20813981188127,-7.892753895677451e-06,-0.00033844144564665335,-1.1766229596052353,-0.02210407029244954
328,97.30961636533851,0.0001509239208516977,-29.467788254164006,16.467766070308986,110.30963854919352,-9.581495772070792e-06,-0.0005652835166288783,-0.9912305120892377,-0.022100936447007724
329,97.27219926141488,0.00038451599462829833,-29.474340976814844,16.18074797437719,110.56579226385253,-1.4061802109055499e-05,-0.0011667238682282477,-0.5675101444602739,-0.022101635899777206
330,97.231022095631,0.00042331895543157305,-29.480650667844134,15.863970547734304,110.84770221574084,-1.900852620415061e-05,-0.001830644218254407,-0.25309709417072557,-0.022104484603016283
331,97.2065083627946,0.0002521184320402048,-29.487220689216716,15.677091538794906,111.01663751321642,-2.1918223376937718e-05,-0.0022210611296576976,-0.10709659851083875,-0.022107417452915668
332,97.21037903698692,-3.98190847250568e-05,-29.494407941670133,15.711886337228307,110.99290064142875,-2.135196527214278e-05,-0.0021449186599595826,-0.10685756433576565,-0.02210876227956704
333,97.24003215504183,-0.00030504065871017616,-29.502226947115375,15.94834992504989,110.79390917710732,-1.762334840868518e-05,-0.0016443903044472963,-0.24764050794901205,-0.022107628288073
334,97.28016396584265,-0.0004127087364267368,-29.5103500368778,16.267120165718296,110.52339383700216,-1.2603988093329299e-05,-0.0009707287651601337,-0.5365508921067201,-0.022103936872215346
335,97.31064223847389,-0.00031330408367669094,-29.518293604304734,16.51078435733221,110.31815148544642,-8.762549956548016e-06,-0.00045526274854479354,-0.8952319686840915,-0.022098273030616067
336,97.31656667464743,-6.088168814089023e-05,-29.525658826175356,16.562617927662114,110.27960757316067,-7.929774502396514e-06,-0.0003436488824327677,-1.0286252630871857,-0.022091706865379424
337,97.29550654628744,0.00021640846034376438,-29.53230647270264,16.403419378967026,110.42439364002304,-1.0406727862150023e-05,-0.000676217158226522,-0.7778010554824877,-0.022085602606572996
338,97.25842940209105,0.00038107766239703356,-29.538416543025622,16.11882812709146,110.6780178180252,-1.4850116672765479e-05,-0.0012726203814560355,-0.4283707406153796,-0.022081334803144115
339,97.22399352812401,0.0003540657008214154,-29.54441458916084,15.854602647295632,110.91380546998921,-1.897407163811704e-05,-0.0018260534934820827,-0.19516868265610698,-0.02207986319551436
340,97.20914399753703,0.000152735246188751,-29.55077034382252,15.743138398515793,111.01677594284376,-2.0702537689570866e-05,-0.0020579236636750764,-0.10460435362915566,-0.02208126397606147
341,97.22074872780294,-0.00011937899860736678,-29.55775182350281,15.83824320826026,110.94025734304549,-1.9191726853440283e-05,-0.0018550532577761292,-0.14405916434018828,-0.022084461799109834
342,97.25242126908947,-0.00032577964787328106,-29.565282740697857,16.09028206980873,110.72742193997858,-1.5219800643562209e-05,-0.0013219422951680215,-0.31343475359408735,-0.022087419054436896
343,97.28799339767042,-0.00036577113573899034,-29.572994977810144,16.37307846301856,110.48790991246202,-1.0765400923429258e-05,-0.000724169820686571,-0.598980901573442,-0.022087858619298517
344,97.30974206094656,-0.00022354930466339518,-29.580428363628876,16.548073192209564,110.34209723236586,-8.001710480820545e-06,-0.00035337468470131306,-0.8704735606289238,-0.02208429451176941
345,97.30717991475996,2.6329801439461953e-05,-29.587251257971154,16.53315188281006,110.36127928992106,-8.21673610551521e-06,-0.000382361059702907,-0.8742368984196507,-0.022076894046010986
346,97.28207109782745,0.00025803663156720447,-29.59340567755625,16.34199965203181,110.5334771233519,-1.119580038505541e-05,-0.0007822552234348912,-0.6096153735413294,-0.022067670179112264
347,97.24729378414378,0.00035748944580649145,-29.5991348793163,16.07518109591992,110.77124756754016,-1.5361611997138924e-05,-0.0013413374905312248,-0.3281785427680657,-0.022059768743680763
348,97.22023210363288,0.0002782769520658368,-29.604876262530336,15.868429398713232,110.95667896744997,-1.8585529972275916e-05,-0.0017739380696046858,-0.15891094836890818,-0.022056068635810222
349,97.21406749729005,6.34086774886633e-05,-29.611045698500014,15.8246850409694,111.00042815482065,-1.925325490745311e-05,-0.001863454322448943,-0.1138525235918324,-0.022057721826235444
350,97.23133752570742,-0.00017764947874288062,-29.61781871219585,15.963892795013596,110.88526344288965,-1.7051857714861507e-05,-0.0015679490135001029,-0.18676414876744496,-0.022063385156696036
351,97.26292225738416,-0.00032484106956154335,-29.625042579864502,16.21501125100994,110.67295358623872,-1.3095209882796333e-05,-0.0010369513897345861,-0.374852995406479,-0.022069628604188818
352,97.2928321644939,-0.0003075160237382413,-29.632329067105516,16.453225906560178,110.47193532503924,-9.340764454357497e-06,-0.000533164319199475,-0.6366794305285746,-0.022072443323296387
353,97.30627389299289,-0.0001381574387335771,-29.639256451206563,16.56291634110643,110.38261400309302,-7.6020820825584146e-06,-0.00029993960864782565,-0.8122781245199306,-0.022069188296826248
354,97.29692917995366,9.603402396740623e-05,-29.645566538059693,16.494646404307684,110.44784931370567,-8.654687584846998e-06,-0.0004413001754282053,-0.7290431312266619,-0.022060019268911546
355,97.26988649355953,0.0002779397728382982,-29.651278956950307,16.288130767425468,110.63303468308438,-1.1875696208724085e-05,-0.0008736068129751029,-0.4789430956480849,-0.022048023903082248
356,97.2388786699961,0.00031878132771834267,-29.65668525968377,16.050580481299473,110.84498344838039,-1.558362814493841e-05,-0.001371186765911525,-0.25673683374468115,-0.022037889729209947
357,97.21930062266856,0.00020133970686753155,-29.66221352312065,15.902133699961416,110.9793804458278,-1.7894370651361236e-05,-0.0016812131128594032,-0.1391339389984343,-0.022033672969374196
358,97.22054583739767,-1.2808307827016918e-05,-29.66821176701622,15.916113029804048,110.97264457460984,-1.7657945459326196e-05,-0.0016494068548913443,-0.1320966349083461,-0.022036738567950298
359,97.24148574162005,-0.00021538558585554313,-29.67476625859719,16.083801694064462,110.83245030615278,-1.5010800392289969e-05,-0.0012941279942132455,-0.23201091266096796,-0.022044925898158096
360,97.27127219723026,-0.00030631427916838483,-29.681664657889254,16.32061868831076,110.63231816680876,-1.1279218088799947e-05,-0.0007933868887191053,-0.4270281605812496,-0.022053435478612382
361,97.29493318648363,-0.0002432474534248552,-29.688516942894594,16.509688272554776,110.47376185682346,-8.296302159871427e-06,-0.0003931715172961203,-0.6475541336621649,-0.022057085650399655
362,97.30086840178039,-6.100230610561752e-05,-29.694951294328813,16.560392133676334,110.43542756243288,-7.483570996003053e-06,-0.00028420573338061583,-0.733261751254279,-0.022052873288817443
363,97.28650183373477,0.00014765097456570508,-29.700785333844156,16.452604804797154,110.53468236278178,-9.156855531877728e-06,-0.0005088244598557834,-0.6007321699157002,-0.022041564105613975
364,97.25935449103335,0.0002790453165623097,-29.706108547797164,16.245060208363327,110.7204028304672,-1.239500320321385e-05,-0.0009433803133932495,-0.37855725175716737,-0.022027468091364133
365,97.2331062235321,0.0002698791045714355,-29.711243672265425,16.044514043019877,110.89983585277766,-1.552369181215263e-05,-0.001363186997404564,-0.207063280325543,-0.022016434958932685
366,97.22068976167111,0.00012769788339828114,-29.71659090775954,15.951834559845222,110.98544610958542,-1.6960937863352843e-05,-0.001555982181973059,-0.13209846313454943,-0.02201300384112148
367,97.22789963282823,-7.415984369996131e-05,-29.722422707159556,16.012221625105543,110.93810071488225,-1.5997670859135837e-05,-0.0014266593153859919,-0.15684746252681103,-0.022018103885839135
368,97.25068343277754,-0.00023433397240246734,-29.728744409136546,16.194103821831487,110.78532402008258,-1.3128729153266683e-05,-0.001041659996050992,-0.27657731308381406,-0.022028476463845426
369,97.27737757317689,-0.00027448794658413433,-29.735301577836587,16.406505102858766,110.60617404815471,-9.780798471997754e-06,-0.0005924451795866759,-0.465777965240491,-0.02203816533673497
370,97.29465452432709,-0.00017760502576447124,-29.74171817880364,16.545404501697824,110.4909682014329,-7.585500258922018e-06,-0.00029794344309197474,-0.6334493101348473,-0.022041394784981128
371,97.29414692704572,5.217113764888204e-06,-29.74768027922712,16.545492501301133,110.49633470497169,-7.567454585188926e-06,-0.000295607656569552,-0.6452210236525115,-0.02203543908742933
372,97.27646853511743,0.00018170046695142883,-29.75307998773151,16.41160455572655,110.61794396712239,-9.651004915373074e-06,-0.0005752443040414335,-0.4917881364702734,-0.022022050812563254
373,97.25071270212453,0.00026476940806707816,-29.758065615774544,16.2147444815378,110.7940338363613,-1.272257391607412e-05,-0.000987403287740829,-0.3024267798842617,-0.02200669796405119
374,97.22976943058562,0.00021535339903433481,-29.762973462064295,16.055457667993934,110.93728522465597,-1.5205221290004456e-05,-0.0013204878941779352,-0.17420693816472466,-0.021995937057855075
375,97.22385945242925,6.078362821360095e-05,-29.76816108568133,16.013409860003033,110.97861067810756,-1.584939024310006e-05,-0.0014068585303547154,-0.13490477286278346,-0.02199418823454491
376,97.23553019363459,-0.00012003988805897592,-29.77382337592288,16.10843862409374,110.90091494546373,-1.4343674366784631e-05,-0.0012047705711575318,-0.18567055423944723,-0.022001505080091466
377,97.2585700826017,-0.00023694928100059798,-29.77989646156868,16.292097692996936,110.74636885117343,-1.1447586578672286e-05,-0.0008161679518704501,-0.31716578098391834,-0.022013468466905772
378,97.28128753420187,-0.0002335778901629837,-29.786100767849636,16.473181035584,110.5942072664675,-8.591539690350203e-06,-0.00043299104557426027,-0.4884030162972821,-0.02202329709679307
379,97.29242003792119,-0.00011443622922246988,-29.792087190709285,16.563818357283477,110.520688871347,-7.153943062054857e-06,-0.0002401737682876659,-0.5992617605101604,-0.022025164833133548
380,97.28668911761625,5.8904078063859444e-05,-29.7976043219703,16.522870628873893,110.56142281071264,-7.78033936799094e-06,-0.0003242967363829008,-0.5571267703996516,-0.02201709663113327
381,97.26727369044163,0.00019956920469510475,-29.80261407206231,16.37522504788699,110.69466271461694,-1.0080571278270334e-05,-0.0006329738465074009,-0.4018442891278602,-0.022001998426723457
382,97.24405215965453,0.0002387394023296574,-29.80731029889365,16.19798858270352,110.85337387584468,-1.2845338303396625e-05,-0.001003928392891984,-0.24573436708285334,-0.021986283153915487
383,97.22856758759316,0.00015923413018570365,-29.81202619041141,16.081153166637176,110.95944061136738,-1.4663171466561264e-05,-0.0012477856474278903,-0.1545106902116653,-0.021976742869193266
384,97.22827421610765,3.0173383480658345e-06,-29.81706627238194,16.082771891882352,110.96256859660724,-1.4623379919947999e-05,-0.0012423855167287279,-0.14512202544352704,-0.021977196916322717
385,97.24293712971314,-0.00015080915221110658,-29.822550659297775,16.200957561603648,110.86453022740727,-1.2755225528293668e-05,-0.0009916916462223702,-0.21611011485778597,-0.021986575170396705
386,97.26492622670662,-0.00022612538907740287,-29.82835986158238,16.37618064769976,110.71710544058925,-9.992109717193998e-06,-0.000620966066401718,-0.35073701249240075,-0.02199940117305066
387,97.28316437728618,-0.00018751004382644432,-29.834204713924603,16.522035374081057,110.59533371712973,-7.689273264416263e-06,-0.00031204443962074,-0.494191158809242,-0.022008458834027023
388,97.28868377123648,-5.67353455824815e-05,-29.83977305148265,16.568599634471365,110.55985718824776,-6.943685252724929e-06,-0.00021208420564211572,-0.5513577792094002,-0.022008341460178826
389,97.27900888047706,9.944518092330767e-05,-29.844877449405526,16.4966540845084,110.62723224537417,-8.057091694962937e-06,-0.0003615342185051551,-0.47476064091608583,-0.02199813315818644
390,97.25923456267826,0.0002032742523425668,-29.84954209611077,16.346042829870584,110.76273382891843,-1.040473477192938e-05,-0.0006765402530589659,-0.3292266266958159,-0.02198188898896425
391,97.23933966864294,0.0002045553219164331,-29.853991993715425,16.194622205034044,110.89870945732433,-1.276554077001002e-05,-0.0009932626698117009,-0.20467806401183153,-0.02196666190534291
392,97.22914028684895,0.000104889459644264,-29.85854263482354,16.11887394989191,110.96880897178058,-1.3939868544837752e-05,-0.0011507639158723215,-0.14513988140400258,-0.021959038218305693
393,97.23343163165498,-4.413640595180013e-05,-29.8634395569176,16.15608934229667,110.94078184627591,-1.3342570200858272e-05,-0.00107056974164077,-0.16056617854714217,-0.021961887217571974
394,97.24972727012887,-0.00016759295851676015,-29.8687345668073,16.286807103507147,110.83165473342903,-1.1278527698027618e-05,-0.0007936193877824405,-0.24572399589991156,-0.02197293268139955
395,97.26965895515455,-0.00020495363416617174,-29.874266788405777,16.445735146341345,110.698190597219,-8.771608951380072e-06,-0.0004572988295388214,-0.37491047743607453,-0.021985859339568314
396,97.28325339895912,-0.00013976037287055654,-29.879751057390337,16.555099018121243,110.60790543822822,-7.041778306293711e-06,-0.00022527760508928019,-0.4844209574185583,-0.02199341591328441
397,97.28389936361698,-6.640039629468575e-06,-29.884919244940054,16.56340506575399,110.60541354280303,-6.897001654376789e-06,-0.00020592760419979594,-0.49605211730004406,-0.02199098737299887
398,97.27153837306437,0.00012706101043924445,-29.889646440775643,16.47032115791449,110.69086365592551,-8.342776815745134e-06,-0.00039995081892252315,-0.4012542685143514,-0.021978873056838433
399,97.25254751569452,0.00019523549938127438,-29.894009402063972,16.325682375784467,110.82087454197402,-1.0597623605612672e-05,-0.0007024765352068307,-0.2718161828988803,-0.021962143464419492
400,97.236442756909,0.00016559729484644237,-29.89824985055939,16.20369576508397,110.93099684238442,-1.2497666702859789e-05,-0.0009573546149539425,-0.17623677171342478,-0.021948143879247706
401,97.23109833316688,5.4963176259748e-05,-29.902653844354052,16.165666503311837,110.96808567420909,-1.3081223713712342e-05,-0.001035586026098434,-0.1437764215457309,-0.021942875855151645
402,97.23888366119235,-8.007034949653047e-05,-29.90740609543784,16.229953576583263,110.91633618004691,-1.2060025869925495e-05,-0.0008985312020066694,-0.17918242749935454,-0.021948042145986113
403,97.2556160744816,-0.0001720753330278768,-29.912499113666858,16.363861830169533,110.80425335797892,-9.946544790501166e-06,-0.000614973705507893,-0.27221330656079856,-0.02196021278830229
404,97.27278323856207,-0.0001765159152076201,-29.9177445553263,16.500982321543304,110.68954547234506,-7.782261400440804e-06,-0.0003246489465187352,-0.388306820236731,-0.02197252169308639
405,97.2818538604616,-9.324933036292116e-05,-29.922872590068707,16.574817460733726,110.62990898979658,-6.610347127733451e-06,-0.00016749363177326337,-0.4618875436720604,-0.02197805369699868
406,97.27849515209266,3.452553827509863e-05,-29.927663405651646,16.55168416107917,110.65447439666512,-6.959432156783407e-06,-0.000214396143526141,-0.43862572976819925,-0.021973248863449202
407,97.2646194565799,0.00014263887913834594,-29.932050557116437,16.446635589087773,110.75003442460856,-8.593682089830246e-06,-0.00043368382743114164,-0.33787969666116013,-0.02195964546969309
408,97.24729971233374,0.0001780682877589035,-29.93615224550133,16.314909097145478,110.86854286068959,-1.0646855301527092e-05,-0.0007091255575346622,-0.22747168138636287,-0.021943106662450473
409,97.23515544449742,0.00012488025757251275,-29.940213416558887,16.223682352489785,110.95168650856652,-1.2065276119826995e-05,-0.0008993694338056413,-0.1579619998875379,-0.021930919681243832
410,97.23405044051752,1.1364243465705748e-05,-29.944482195490963,16.218558835411443,110.95997380059704,-1.2133464012215045e-05,-0.0009084564934485062,-0.14842175967750415,-0.021928204556963315
411,97.24425098953753,-0.0001049071695953252,-29.94908414717281,16.3014904212853,110.89184471542505,-1.0820457582494392e-05,-0.0007322679788506203,-0.199010042921004,-0.02193540452921061
412,97.26042284221698,-0.00016630137529860534,-29.953963001532077,16.430804509493417,110.78358133425563,-8.779589208474103e-06,-0.00045847687837208273,-0.2936123935080919,-0.02194808992365327
413,97.2744008790959,-0.00014371762398757149,-29.95891586218144,16.542816959530434,110.69049978174691,-7.009696486037775e-06,-0.00022108463253589505,-0.3907123265754746,-0.021959161583579245
414,97.2792924228685,-5.02860334106181e-05,-29.963697171637836,16.583842910379094,110.65914668412724,-6.353044776780115e-06,-0.0001330636262100171,-0.4301747331162551,-0.021962356885691703
415,97.27285531010122,6.617145958764947e-05,-29.968137066255117,16.53653251104336,110.70445986531297,-7.082082129294953e-06,-0.00023092973733218614,-0.38294969464764184,-0.021955324936560272
416,97.25850167397624,0.00014756055098019694,-29.97222139256723,16.427632279870384,110.8030907866731,-8.777540670551476e-06,-0.000458406687897428,-0.28474972542812726,-0.021940759026024548
417,97.24348462313867,0.00015440347711614955,-29.97609804704128,16.313751735518224,110.90583093466172,-1.055161742330446e-05,-0.0006963822132848296,-0.19420487808443987,-0.021925040193078393
418,97.23522322793981,8.495577087641593e-05,-29.98000338532269,16.252673296559717,110.9625533167028,-1.149793720417458e-05,-0.0008232775861090058,-0.14781164714192907,-0.02191507523835967
419,97.23762505112501,-2.4701163893636746e-05,-29.984142393195068,16.274730780937514,110.94703666338256,-1.114046070341268e-05,-0.000775262624534867,-0.15727752406319429,-0.021914897562170355
420,97.2492309318559,-0.00011935586379041574,-29.988585950048964,16.3684217626551,110.86939511924977,-9.659252997284984e-06,-0.0005765266084881704,-0.21821412437152077,-0.02192370539103372
421,97.2640611375317,-0.0001524968941521987,-29.99324013136721,16.48705096033883,110.77025030856007,-7.786497026845973e-06,-0.00032531130945601117,-0.30848559454293945,-0.021936292462724438
422,97.27467862835519,-0.00010916150014006476,-29.99789893617693,16.572636082569357,110.69994148196277,-6.431682577745512e-06,-0.00014361992841205318,-0.38300861449672485,-0.02194564142522637
423,97.27590005726374,-1.2556493897086796e-05,-30.002347602425356,16.58485385743066,110.69339380225843,-6.227538339648175e-06,-0.00011630632888448567,-0.3929477406102415,-0.021946387312261173
424,97.26730692863677,8.833769332283747e-05,-30.00646545153719,16.520591760589713,110.75318061958424,-7.223190786831424e-06,-0.0002499262713802075,-0.3315358754628963,-0.021937440153851462
425,97.25334567890395,0.0001435348646288137,-30.01028285260043,16.414645423633104,110.84898310787128,-8.873090073607814e-06,-0.00047126942872610655,-0.24132468295910026,-0.021922483535297577
426,97.24101978946256,0.00012674000421630804,-30.01396578549054,16.321642026506524,110.93334354844657,-1.0320477573516618e-05,-0.0006653994198363433,-0.17022991731156578,-0.02190812197422365
427,97.23636604599376,4.785782254101978e-05,-30.017732390900267,16.28855774325681,110.96554069363722,-1.0828410221791485e-05,-0.0007334768499969169,-0.14402588637821112,-0.021900609153785666
428,97.24148698124473,-5.266481522503419e-05,-30.021742386444945,16.331643913170144,110.93158545451954,-1.0141690509390955e-05,-0.0006413011827985926,-0.1686859555429392,-0.021902778946161883
429,97.25359965720932,-0.00012456284185491384,-30.026018433887177,16.42908271196144,110.85053537913505,-8.602204734364793e-06,-0.0004347658304046931,-0.23516537747491806,-0.021912686407187687
430,97.26652587564341,-0.0001329124935185444,-30.0304399686518,16.532648796409948,110.76431704788526,-6.966213431158774e-06,-0.00021533263918405154,-0.31607018547144605,-0.021924610561162794
431,97.2738268807948,-7.50618476981213e-05,-30.034807578638993,16.592172119226444,110.71646234020736,-6.020742214396524e-06,-8.856584807570567e-05,-0.36690171951138595,-0.02193190280498225
432,97.27199301804197,1.885258153855318e-05,-30.03894147758624,16.580406652283294,110.7305278433449,-6.1934242546191065e-06,-0.0001118002101692106,-0.3534485873333444,-0.021930262049433713
433,97.26211261946025,0.00010157495775675596,-30.04276733469241,16.505992796992327,110.79888715716032,-7.349021792169008e-06,-0.00026686085793026226,-0.28579176350738056,-0.021919822212346673
434,97.24923090323286,0.0001324433109713974,-30.04635126297248,16.40836955731631,110.88721260888903,-8.869114581283588e-06,-0.0004707701699234734,-0.20673760097463934,-0.021905038369618657
435,97.23976543515805,9.733206100337455e-05,-30.04986650448995,16.3375607231639,110.9520712164841,-9.969093630657344e-06,-0.0006182808938430817,-0.1539550791566524,-0.02189245116208771
436,97.23829835531055,1.5087241736377877e-05,-30.05350580979429,16.329179575629027,110.96262458947581,-1.0090186312872174e-05,-0.0006344622423477553,-0.14504134926238477,-0.02188745153400684
437,97.24534896173242,-7.250853358331533e-05,-30.057384179065572,16.38713160469919,110.9156015360988,-9.170821436532695e-06,-0.0005110890011601477,-0.1811180935819423,-0.0218916469229411
438,97.25720967571021,-0.00012196690231891516,-30.061483788768307,16.482401790818223,110.83629167366028,-7.665818494567711e-06,-0.00030919815428709363,-0.24854224820715487,-0.02190211626606997
439,97.26787835441161,-0.00010969550470307787,-30.06566779001881,16.56816014793064,110.76538599649979,-6.309630013495715e-06,-0.0001273162611705736,-0.3163187230018354,-0.02191289797633611
440,97.27207994485364,-4.319607369995815e-05,-30.069751150735478,16.603338585905995,110.73849250968313,-5.746571449360971e-06,-5.185494054182893e-05,-0.34454977255708386,-0.0219179534767866
441,97.26785817875407,4.3401622561778375e-05,-30.073591052931178,16.57282140139432,110.76862783029094,-6.2140174159064365e-06,-0.00011462336246237381,-0.3142422877266222,-0.021914132609740955
442,97.25746804732302,0.00010681978225479671,-30.077154982218172,16.494337485488973,110.84028554405222,-7.434149350282748e-06,-0.0002783239874842858,-0.2463202520403862,-0.021902684003865858
443,97.2461662545649,0.00011620488364583181,-30.080535596319773,16.408944041274868,110.9177578096098,-8.763120347948794e-06,-0.0004565770134214997,-0.1799849477328026,-0.021888586390798048
444,97.23954275478017,6.811065196532518e-05,-30.08390388916689,16.360180851799587,110.96326579214748,-9.517967241884362e-06,-0.0005577795559450482,-0.14395357765382966,-0.021878056783730004
445,97.240745761765,-1.2371582082337795e-05,-30.08742252969719,16.372467343692232,110.95570094776997,-9.315449134544851e-06,-0.0005305526172852959,-0.1494391614296502,-0.021875482814379676
446,97.24897838167219,-8.466224567382774e-05,-30.091164523268525,16.439451590098955,110.90069131484175,-8.254886465997036e-06,-0.0003882520628224473,-0.19319819953397976,-0.021881293476001096
447,97.2599836241318,-0.00011316563569874205,-30.095079900947376,16.527852155932425,110.82721136914675,-6.858075678795039e-06,-0.000200892295174393,-0.25742438184532435,-0.021891801610377293
448,97.26823047228214,-8.479179044718066e-05,-30.099024834593234,16.594538083706315,110.77271722316907,-5.8015213515449915e-06,-5.9217251294763074e-05,-0.3098276393197512,-0.021901069317654454
449,97.26967868655701,-1.4888872428731048e-05,-30.10283452140768,16.608094505621914,110.76441870234278,-5.5781655459163915e-06,-2.9326242595995033e-05,-0.3182008855442964,-0.02190385289646879
450,97.26374272396647,6.1025827068572625e-05,-30.106403132603038,16.564102001721725,110.80604385484779,-6.257604888842971e-06,-0.00012052159966968734,-0.2771667174904908,-0.02189816647737164
451,97.25350360057446,0.00010527173955332536,-30.10973418390732,16.486712642699732,110.87652514178204,-7.461238795497538e-06,-0.00028199192639921655,-0.21318258110598887,-0.021886210640566173
452,97.24410269272772,9.66639503842126e-05,-30.112937801154693,16.416052023136047,110.94098847074636,-8.559783406553167e-06,-0.00042931967240256164,-0.16002955925080542,-0.021873232924179753
453,97.24015093439769,4.063751138227989e-05,-30.116174881360525,16.388000938575065,110.96832487718315,-8.990354373739073e-06,-0.0004870173421455126,-0.13893218413365793,-0.02186490900661142
454,97.2434579184761,-3.400842189793529e-05,-30.119575661863706,16.416535011368016,110.94649856897178,-8.533493817325377e-06,-0.0004256786764096354,-0.15592221977375553,-0.021864551616152417
455,97.25219978798852,-8.989673649573149e-05,-30.123175500150772,16.48730539301667,110.88806989512264,-7.4139768803105355e-06,-0.0002754848303191393,-0.20375088964079713,-0.02187151994851555
456,97.26190536877789,-9.979805917526008e-05,-30.126900676932312,16.565381885317997,110.8234241603922,-6.179524766780631e-06,-0.00010991987385067237,-0.26134853922385415,-0.02188159288588354
457,97.26772911250063,-5.987692407072309e-05,-30.13060838199446,16.61300442221791,110.78533307227718,-5.422460182091804e-06,-8.427486378193016e-06,-0.2976752521163373,-0.021889093754895672
458,97.26685606628959,8.975702620039883e-06,-30.134157998502545,16.60833158595411,110.79268247883803,-5.485587853265583e-06,-1.6962878599202647e-05,-0.28991826032195034,-0.02188969745251801
459,97.25984791171389,7.205079776539947e-05,-30.137479009685748,16.555888093058904,110.84143882834074,-6.298199071219646e-06,-0.00012600923477446013,-0.24340563008664695,-0.021882531597472887
460,97.25028931973527,9.827891142999423e-05,-30.140604373174696,16.483729332196923,110.90716436071305,-7.420430129634337e-06,-0.00027654377846553224,-0.18609802601892045,-0.021870551076641487
461,97.24294666107703,7.550269217304617e-05,-30.143653207106862,16.429025875958487,110.9575739922254,-8.269296110308133e-06,-0.0003903677717612686,-0.14585133155070906,-0.021859028642966294
462,97.24138219889275,1.6088181590601103e-05,-30.146770300663086,16.419462694841137,110.9686898047147,-8.410419312238071e-06,-0.000409237376437388,-0.13770677183237146,-0.021852931778815643
463,97.24621770439353,-4.9726828140750357e-05,-30.150053180594295,16.45975362699941,110.9365172579884,-7.76960166695706e-06,-0.0003232320234081154,-0.1633167434126599,-0.021854490781338054
464,97.2548937703405,-8.921751561952185e-05,-30.153504989347944,16.52982949109201,110.87856926859644,-6.661378920941319e-06,-0.00017456834318074765,-0.21185451384818643,-0.02186214864321223
465,97.2630094377825,-8.3447394032099e-05,-30.157036271839846,16.595331224529914,110.82471448509244,-5.6245775678365195e-06,-3.552944430385008e-05,-0.26030886590360525,-0.021871386047595642
466,97.26654154525747,-3.6315013234533566e-05,-30.16051178017984,16.624935611905293,110.80211771353201,-5.150606292830817e-06,2.798441013285302e-05,-0.28121625881415047,-0.021876986451292435
467,97.2638257962325,2.7920690731209064e-05,-30.163817264003363,16.605785931966757,110.8218571282691,-5.441353966351148e-06,-1.1077438252016236e-05,-0.26141905000064436,-0.021875606282584004
468,97.25632654492503,7.710216255707447e-05,-30.166914464129064,16.549435993486757,110.87380501556734,-6.31583635091193e-06,-0.00012840908894518055,-0.2136143739135592,-0.02186738392116072
469,97.24784223135612,8.723662377896346e-05,-30.169858833740825,16.485580852105677,110.93212021299126,-7.308428474100959e-06,-0.0002615393509858288,-0.16458287970538965,-0.021855813636324717
470,97.24257342135277,5.417919701289353e-05,-30.17277097897825,16.44695171691352,110.96839268341752,-7.905727894969017e-06,-0.00034161052173553585,-0.13646930493807696,-0.021845975225733394
471,97.24303443666896,-4.74087943125312e-06,-30.175775446053425,16.453049733032653,110.96576014968973,-7.801685900088451e-06,-0.00032759642914304,-0.13918891242546683,-0.021842015622410615
472,97.24884687610371,-5.9772295963655964e-05,-30.178938481389533,16.500795442952015,110.92698991454122,-7.044346808537938e-06,-0.00022597248570599415,-0.17059138542827212,-0.02184513091566309
473,97.25699302446239,-8.376601492310343e-05,-30.182237041172176,16.566564448837738,110.87266561679682,-6.004056162189908e-06,-8.643552800535748e-05,-0.21688432017796866,-0.02185303049654075
474,97.26336962755589,-6.55644688902779e-05,-30.185573242342816,16.618343428719264,110.83059944117944,-5.182906228695661e-06,2.366617461613263e-05,-0.25469951713484296,-0.021861120868906347
475,97.26484241050427,-1.5142215964880634e-05,-30.188824437387748,16.631761069506446,110.82190577838557,-4.963300225646616e-06,5.3059277549949435e-05,-0.26188201615862505,-0.02186479866047253
476,97.26077415459824,4.182658199203271e-05,-30.191903324517533,16.601974487047382,110.8507029920684,-5.4214281247078056e-06,-8.445536608392423e-06,-0.23401471099729254,-0.021861708458276174
477,97.25328356604234,7.701551443539678e-05,-30.19479981703973,16.545623966771423,110.90245941631063,-6.296494225732641e-06,-0.00012584132222170918,-0.18805173742099046,-0.021852858233755823
478,97.24613524308427,7.350212451406879e-05,-30.1975849730486,16.492112751440576,110.95160746469229,-7.127405897977557e-06,-0.00023727186799749056,-0.14804148373970816,-0.021842065141993272
479,97.24283965922089,3.388909857593436e-05,-30.20037460448015,16.468768148468897,110.97444611523213,-7.4854765026721726e-06,-0.00028524913269900587,-0.13095087002761163,-0.021834033157689614
480,97.24492115495447,-2.1405131122032017e-05,-30.20327065891357,16.4873653706264,110.96082644324164,-7.185816504051701e-06,-0.00024500098034130335,-0.14238415334647625,-0.021832030178382533
481,97.25120850564831,-6.46547975891032e-05,-30.206310853681938,16.53865289565146,110.91886646367878,-6.373297056272431e-06,-0.00013598776754608632,-0.17688527232464657,-0.02183631145164089
482,97.25847625397701,-7.4731701954045e-05,-30.209452158958594,16.597407149119633,110.87052126381599,-5.443397175147746e-06,-1.1271277581381689e-05,-0.21853104486064745,-0.021844049345592698
483,97.26308761791053,-4.741349146231144e-05,-30.212594641201463,16.635275740982156,110.84040651812983,-4.84083837712368e-06,6.950247237735852e-05,-0.24521433503897994,-0.021850776604593447
484,97.26280275583314,2.9287788858578523e-06,-30.215631804175224,16.63487770508744,110.84355685492093,-4.838403243889733e-06,6.976766788246991e-05,-0.24102223346670115,-0.021852607357873532
485,97.25785486759223,5.0871331081503435e-05,-30.21850250143757,16.598155547013324,110.87820182201648,-5.4058421129210554e-06,-6.388957332070788e-06,-0.20862269045119985,-0.021848131985395147
486,97.25077915542101,7.275208959567347e-05,-30.22122005734727,16.544977037815457,110.92702217495284,-6.231701889319874e-06,-0.0001171708490318446,-0.16669476022026686,-0.021839062151035593
487,97.24510676715258,5.832743262013107e-05,-30.223864649469252,16.502898411385505,110.96607300523632,-6.883815940189608e-06,-0.00020460861664106655,-0.13582327677427153,-0.021829332785576527
488,97.24359473353725,1.554868584741076e-05,-30.22654237941693,16.493354273011626,110.97678283994256,-7.025887261313812e-06,-0.00022361165845585784,-0.12841665612701725,-0.021823130414534653
489,97.24687872936451,-3.3770818903322564e-05,-30.22933183189512,16.521189268094055,110.95502129316557,-6.581722770654386e-06,-0.0001639881885537875,-0.1464006319676916,-0.02182283531468676
490,97.25320674212401,-6.507162843871761e-05,-30.232245872629857,16.572636690049606,110.91281592470425,-5.7670425471223474e-06,-5.469779110722772e-05,-0.1815361882061728,-0.02182788871609631
491,97.25936071682497,-6.327785897353166e-05,-30.235227509322787,16.622552479258303,110.87203574688945,-4.976128814754288e-06,5.136485507173383e-05,-0.21678844628501137,-0.02183512314323477
492,97.26228216179256,-3.0037673968363876e-05,-30.238180065551013,16.647114909687375,110.8533473176562,-4.582681286835477e-06,0.00010408564408581622,-0.23272626312396794,-0.021840366003891054
493,97.2605812918621,1.7487456521192435e-05,-30.241015351304082,16.635581844604943,110.86601479856124,-4.7553645439457615e-06,8.086666499307338e-05,-0.219802202405476,-0.021840505306782942
494,97.25518668439236,5.546550717761001e-05,-30.24369645491155,16.59531028286274,110.90357285644117,-5.378984722609337e-06,-2.8141213136434473e-06,-0.18581663335418885,-0.021834995105297628
495,97.24883373118269,6.53225131352908e-05,-30.246255017932636,16.547706517169022,110.9473822319463,-6.117920171383462e-06,-0.00010192422438681792,-0.14932930617893714,-0.021826073031691262
496,97.24467047941613,4.281030020425458e-05,-30.24877454066183,16.517315604349733,110.97612941572824,-6.587192734580638e-06,-0.00016482987776811342,-0.12725855167443423,-0.02181760823077239
497,97.24469023124632,-2.0311478365897528e-07,-30.251347888047906,16.519604459223743,110.9764336600705,-6.54407996755757e-06,-0.00015899532386787207,-0.12804627906393873,-0.021813171673224607
