Solid (struc), E0 (eV/atom), E0 error
Li (bcc), 1.5652868574583882, -0.10471314254161168
Na (bcc), 1.1023235392801651, -0.017676460719834974
K (bcc), 0.866424354584403, -0.07357564541559691
Rb (bcc), 0.7627022574967661, -0.09729774250323386
Cs (bcc), 0.688532623903086, -0.12146737609691405
Ca (fcc), 2.0759956108942514, 0.20599561089425134
Sr (fcc), 1.8075766869386776, 0.07757668693867759
Ba (bcc), 2.0269918328185668, 0.11699183281856684
Al (fcc), 3.599826853228791, 0.16982685322879076
Cu (fcc), 3.885125082399993, 0.3751250823999932
Rh (fcc), 5.852151130728991, 0.07215113072899104
Pd (fcc), 4.366739670232217, 0.43673967023221705
Ag (fcc), 2.884992674939408, -0.07500732506059204
C (ds), 7.498683454925659, -0.051316545074341136
SiC (zb), 6.44296805430489, -0.03703194569511048
Si (ds), 4.708673398238968, 0.028673398238968417
Ge (ds), 4.136244282235655, 0.24624428223565475
GaAs (zb), 3.368875625177777, 0.02887562517777731
LiF (rs), 4.393879648037274, -0.06612035196272625
LiCl (rs), 3.4882599768596965, -0.10174002314030339
NaF (rs), 4.010636126861659, 0.04063612686165863
NaCl (rs), 3.298534813439497, -0.04146518656050269
MgO (rs), 5.2615514483766805, 0.06155144837668036
====
ME (metals), 0.07420532114643878
MAE (metals), 0.14954958150609782
====
ME (alkalis), -0.0829460734554383
MAE (alkalis), 0.0829460734554383
====
ME (insulators), 0.010830682845775551
MAE (insulators), 0.07036549333237234
====
ME (total), 0.04665113058093303
MAE (total), 0.11512171708273891
====
ME (LC20), 0.06826583836886023
MAE (LC20), 0.11777293644436251