SCF iter., E[n] (hartree), E[n_i]/E[n_(i-1)]-1, T, V_ext, U_H, Ex, Ec, Virial Theorem 
0,-126.23024362402636,-1.0,106.62382522084773,-275.42634243431866,52.520990047539634,-9.267626141467101,-0.6810903166279647,-2.1838840274447877
1,-128.0687129413185,0.014564412335034138,126.88201080801367,-310.97812791069805,67.96624261643021,-11.18706474334752,-0.7517737117168038,-2.0093528004935264
2,-128.16629061835738,0.0007619165899137581,125.94380154959379,-308.075357005194,65.63618461670956,-10.930410132438938,-0.7405096470277908,-2.017646672892341
3,-128.17626993981034,7.786229440531756e-05,126.93736841078686,-309.1585971509919,65.74176315084222,-10.95643885756334,-0.7403654928841775,-2.0097599433841595
4,-128.17824010801274,1.5370771854428256e-05,127.29824415700638,-309.49099623416726,65.71353494204222,-10.959048037245585,-0.7399749356484915,-2.0069128679412187
5,-128.17862143061774,2.9749402448153717e-06,127.4805679793026,-309.67534367177893,65.71839415129739,-10.962359316858182,-0.7398805725806087,-2.005475763580128
6,-128.17869350806697,5.623203653826181e-07,127.55922957530736,-309.7523831414575,65.71780829294758,-10.963520291573836,-0.739827943290562,-2.0048562846829827
