SCF iter., E[n] (hartree), E[n_i]/E[n_(i-1)]-1, T, V_ext, U_H, Ex, Ec, Virial Theorem 
0,-2.9970201858733674,-1.0,3.6313489940066406,-386.07969130531677,189.05340580049068,-7.381090868452854,-2.3889914984357796,-1.8253186875785872
1,-5.429245358968103,0.811547811576036,3.4665577574944146,-395.9377864718472,196.67684184595473,-7.405579168840954,-2.397278013563818,-2.566177672139027
2,-6.136880773030924,0.1303377112795132,3.390555336033171,-400.9274578890616,201.04353773596068,-7.411268121168651,-2.4002465266292283,-2.809992807907058
3,-6.248883208119366,0.01825071061843775,3.3478445417800775,-401.7904444303675,201.80786097169775,-7.386185850167519,-2.3959571328969016,-2.8665392404382075
4,-6.287241774936945,0.006138467553328253,3.3117432595938996,-401.47478342911893,201.45051229159256,-7.352916876930138,-2.3897957119090587,-2.8984689579191425
5,-6.307583938842043,0.003235467098814171,3.2832719249301165,-401.1076105956009,201.05859243057665,-7.325223080929755,-2.3846133096528632,-2.921127485953292
6,-6.319483421482943,0.0018865357569992636,3.2611572565830436,-400.8323789084033,200.7678774987746,-7.303588480769221,-2.3805494795027498,-2.9378039524853605
7,-6.326952954457369,0.0011819847408782724,3.2437751926618668,-400.6341028330212,200.5592961100727,-7.286573408014813,-2.3773467079906174,-2.9504905792393785
8,-6.331881716403586,0.0007790103675016091,3.2299259513039744,-400.48903314665756,200.40700839384604,-7.272994442406611,-2.374787164324158,-2.9603798390013623
9,-6.335234354533327,0.0005294852746624557,3.2187665626820143,-400.3800696094642,200.2928037539429,-7.2620176672637635,-2.3727160862649375,-2.9682180211461286
10,-6.3375540019557945,0.00036615021523367375,3.2096952825365914,-400.2960849172531,200.204917373744,-7.253056220056547,-2.371024212761433,-2.9745033232398654
11,-6.339174027594225,0.0002556231691170918,3.2022719985669386,-400.22992353901,200.1357983016912,-7.245686871123443,-2.3696326095536246,-2.979586378181196
12,-6.3403119592415464,0.00017950787316567407,3.1961666850162427,-400.17692665205703,200.08052695966006,-7.239595126624438,-2.3684825170710595,-2.983723811703932
13,-6.3411146609787465,0.00012660287732857434,3.191126578401559,-400.1339505804798,200.0357804841257,-7.2345408710206085,-2.367528963840314,-2.987108472568025
14,-6.3416831535258495,8.965183213005545e-05,3.186954447539706,-400.0988008802713,199.99923774026541,-7.230336454017222,-2.3667366988771485,-2.989888232767683
15,-6.342087546901723,6.376751504033606e-05,3.1834940476497193,-400.069898499012,199.96922843857132,-7.226832631629112,-2.3660775943163164,-2.9921782330907405
16,-6.342376603587809,4.557753010314691e-05,3.1806198771772527,-400.04602152618634,199.94446372977112,-7.223908577060604,-2.3655287991239557,-2.994069347644455
17,-6.342584436848227,3.276898762227809e-05,3.1782306442730315,-400.0262836825528,199.92400806342513,-7.221466406847886,-2.3650717469803957,-2.995633780788417
18,-6.342734812698609,2.3708923685417105e-05,3.176243383051206,-400.00993171336245,199.90707111523574,-7.219425239719471,-2.364691049738326,-2.9969297209855412
19,-6.342844392003258,1.7276349695283244e-05,3.174589680347568,-399.9963490129445,199.89300791759433,-7.217717791103854,-2.364373877731501,-2.9980044763797125
20,-6.342924880017108,1.2689577242541716e-05,3.173213853549803,-399.9850933137528,199.88135508246347,-7.2162894051117945,-2.364109789000413,-2.998896126374028
21,-6.34298448776039,9.397516825382368e-06,3.172069302009007,-399.9757457675517,199.87167706693916,-7.215093844714738,-2.363889936276803,-2.9996361629750865
22,-6.343029029956654,7.0222773442818465e-06,3.1711177142175067,-399.9680010994039,199.86365587042434,-7.2140931567577,-2.3637070502715747,-3.0002502592439555
23,-6.34306261257268,5.294413105705331e-06,3.170327159680947,-399.96158256082276,199.8570047042857,-7.213255568206545,-2.3635550393447367,-3.0007596355484765
24,-6.343088176139844,4.030161567802892e-06,3.1696707604057117,-399.9562660958215,199.85149135344832,-7.212554144526008,-2.3634287414810986,-3.0011820329654526
25,-6.343107811673718,3.095579523604286e-06,3.169126405385411,-399.95185863035925,199.8469164481394,-7.211966804789237,-2.3633239218847404,-3.0015319682088375
26,-6.343123035087302,2.3999928797646675e-06,3.168675684266547,-399.9482164964291,199.84313129486088,-7.211475154241219,-2.3632370553790887,-3.0018214759506137
27,-6.343134942398251,1.877200061173312e-06,3.1683030220371093,-399.9452007962179,199.8399928007905,-7.211063520248793,-2.363165140593884,-3.0020606925153928
28,-6.343144336885899,1.481048051754641e-06,3.1679958468467437,-399.9427346470566,199.8374210378333,-7.2107194683902485,-2.363105797953781,-3.0022577817453637
29,-6.343151807737996,1.1777837143345238e-06,3.1677427651831596,-399.9406843611996,199.83527915614437,-7.210431271151912,-2.3630567885486986,-3.00242010729405
30,-6.343157792918419,9.435656915801616e-07,3.1675355127385405,-399.9390291265655,199.83354467754174,-7.2101909589508475,-2.3630165895170334,-3.002553015556991
