SCF iter., E[n] (hartree), E[n_i]/E[n_(i-1)]-1, T, V_ext, U_H, Ex, Ec, Virial Theorem 
0,-0.11881212750207243,-1.0,0.07169375700845032,-0.6776393622322812,0.3449173029870038,-0.14783626283924461,-0.04889440626262705,-2.657217203557467
1,-0.11895887825378038,0.0012351495995674977,0.0705085273650399,-0.6755016446796578,0.34254590742594765,-0.14678155738310888,-0.048676954818627424,-2.687155904390133
2,-0.11904148196141179,0.0006943887572241625,0.06961294210712768,-0.6738231573498081,0.34069174214313636,-0.1459614247485828,-0.04850842794991104,-2.7100481370004186
3,-0.11908574660266069,0.000371842155520552,0.06896000929848652,-0.6725819339979537,0.33933432895765203,-0.14536051326048421,-0.04838448143698752,-2.726881243406014
4,-0.11910899176348727,0.0001951968349673816,0.06849413210301174,-0.6716957138165776,0.3383766897723897,-0.14493487114359954,-0.04829607251533778,-2.738966362612687
5,-0.1191212045711098,0.00010253472421961618,0.06816541318879474,-0.6710755679553884,0.3377152542332995,-0.14463907169958815,-0.04823407617485379,-2.747531467918856
6,-0.11912770639245235,5.458156141013859e-05,0.06793445893816372,-0.6706462266529217,0.3372637393941861,-0.14443555769369187,-0.04819096421481476,-2.7535681928502074
7,-0.11913123671220172,2.9634749600049304e-05,0.06777211628517217,-0.6703502597409913,0.33695721686389907,-0.1442960942079036,-0.048161059749004316,-2.757820815435661
8,-0.11913319525878002,1.6440243821413958e-05,0.06765757065496633,-0.6701461850984717,0.33674935065746925,-0.14420049246778952,-0.0481402828415806,-2.7608257894201396
9,-0.11913430396426283,9.306436215439362e-06,0.06757626046020108,-0.6700049711692116,0.3366080721117661,-0.14413472819896966,-0.04812578100467487,-2.762960885271636
10,-0.11913494247161555,5.359559182016582e-06,0.0675181087622444,-0.6699066713462531,0.33651159054344976,-0.14408922319920764,-0.04811559106847511,-2.7644887372531795
11,-0.11913531526650445,3.129181759486954e-06,0.06747617345969188,-0.6698377191650206,0.33644525642962597,-0.14405749697245004,-0.04810837285497795,-2.7655908620495815
12,-0.11913553520662745,1.8461370796529764e-06,0.06744567195283932,-0.669788928337027,0.3363992744984657,-0.14403518309347738,-0.048103214064054385,-2.766392590616219
13,-0.11913566596685476,1.0975753546027534e-06,0.0674232983105012,-0.669754080297688,0.3363671056432375,-0.14401934044695625,-0.048099493012575455,-2.7669806869756677
14,-0.11913574413887007,6.561596368470646e-07,0.06740675402738582,-0.6697289534297726,0.33634437847572507,-0.14400798268114107,-0.04809678436769354,-2.767415533619494
