SCF iter., E[n] (hartree), E[n_i]/E[n_(i-1)]-1, T, V_ext, U_H, Ex, Ec, Virial Theorem 
0,0.23775083881915293,-1.0,4.881541420926601,-428.21875635345,209.99558570672357,-8.7769961215026,-2.6324543435006693,-0.951295949717867
1,-5.818003789689698,-25.47101267270484,4.311091215911937,-447.6907265545426,223.48371532320184,-8.345125295618196,-2.5657890082648582,-2.3495431894866456
2,-6.40641946901016,0.10113703953978437,4.207353234119997,-452.3754774943933,227.6321446519887,-8.299643783985973,-2.559626606361806,-2.5226721201007294
3,-6.475006495073387,0.010705984270153346,4.144749282490432,-451.2400722907095,226.42286905258888,-8.241764221695963,-2.5496188473693966,-2.5622191003029187
4,-6.5100794604575185,0.005416668757138199,4.101527338363984,-450.63422272792565,225.77962323472175,-8.20296733703456,-2.5428704982052968,-2.587232980154724
5,-6.529317127324163,0.0029550586876081475,4.069458198894335,-450.2308533389139,225.3553462273995,-8.174253033324016,-2.5378457110022925,-2.604468410339777
6,-6.540536809967051,0.0017183546799919291,4.044860371073151,-449.94459086493833,225.05652923528137,-8.152196556788532,-2.5339695242168983,-2.61699940416775
7,-6.547491365261607,0.0010633003829223497,4.025622126422484,-449.73705259702785,224.84094939815654,-8.134916821148538,-2.530924001286454,-2.6264545353838926
8,-6.552017951683354,0.0006913466806177659,4.010358915390819,-449.583812353619,224.68228158807273,-8.121178835228315,-2.5284977959218233,-2.633773457666912
9,-6.555064703404923,0.00046500967244567093,3.998109711314092,-449.4682938029964,224.5629554286122,-8.110123908863649,-2.526542661093397,-2.639540977291091
10,-6.557158901762733,0.00031947790793318553,3.9881874195013873,-449.3793637351278,224.4712795154108,-8.101140230482397,-2.5249524006869417,-2.6441451245996177
11,-6.558616652112761,0.0002223143242168213,3.9800914382231043,-449.309655291401,224.39955107658906,-8.093784609590355,-2.52364979555581,-2.6478557726404475
12,-6.559639319655588,0.00015592732386604524,3.9734466929243393,-449.2541142135341,224.34250036040675,-8.087725758107391,-2.522576930967395,-2.6508688367045536
13,-6.5603607399370105,0.00010997865069506396,3.967968968822819,-449.2093551731114,224.29659820837244,-8.082713368290637,-2.5216899053524786,-2.6533296483624795
14,-6.560871958315346,7.792534566331e-05,3.963437580267032,-449.1729453341968,224.25931228411733,-8.078552595587189,-2.520954422537953,-2.6553488797149996
15,-6.5612357885998165,5.5454562561507714e-05,3.95967972821133,-449.1431422917774,224.22883043308423,-8.075090690466501,-2.520343497273683,-2.6570117380588343
16,-6.56149596617891,3.9653746257029e-05,3.9565567402159774,-449.1186124676697,224.2037686625005,-8.07220418655876,-2.519835244289151,-2.658385408576443
17,-6.561682979454645,2.850162168788195e-05,3.9539583097086655,-449.0983793991185,224.1831145626052,-8.069794801577691,-2.519412180694467,-2.659522550691257
18,-6.561818217606714,2.061028435718093e-05,3.951793037336892,-449.08161383559354,224.16601198001598,-8.067780286047025,-2.5190596429412255,-2.66046606075016
19,-6.561916623665752,1.4996767020214463e-05,3.9499883629605135,-449.0677206680594,224.15184658917144,-8.06609546675315,-2.5187659706073995,-2.6612496090362185
20,-6.561988775630766,1.0995562600424336e-05,3.9484837802245294,-449.0562243678767,224.14012838199574,-8.064685720204576,-2.5185213793919567,-2.6619009070002093
21,-6.562042076073908,8.12260504612361e-06,3.9472287864048705,-449.0466770057734,224.13039838533598,-8.06350514018741,-2.518317631476184,-2.6624428000411413
22,-6.5620817756746135,6.0498851188750535e-06,3.946181813577456,-449.0387357605142,224.12230535734878,-8.062515800224382,-2.5181479154845006,-2.662893927770071
23,-6.562111602628391,4.545349295836942e-06,3.945309237664339,-449.03216057223494,224.11560324831382,-8.061687286572152,-2.51800675942167,-2.6632692666984
24,-6.562134219160242,3.4465326437249644e-06,3.9445820601381407,-449.0267172742176,224.110052876871,-8.060993024729923,-2.517889386844086,-2.6635816213519092
25,-6.5621515149376535,2.635693942432127e-06,3.9439760319953283,-449.02218039107964,224.10542484385417,-8.060410737449931,-2.517791791879785,-2.663841631313801
26,-6.562164863732988,2.034210167867201e-06,3.9434722102071955,-449.0184488346098,224.10161548171894,-8.059923350258089,-2.517710900413453,-2.6640575903508577
27,-6.562175255502666,1.5835886317816517e-06,3.943052976985907,-449.0153388440864,224.0984383131533,-8.059514459951908,-2.5176437712257838,-2.6642371517206414
28,-6.562183412906961,1.2430945497410306e-06,3.9427050596232607,-449.0127743233325,224.0958156374426,-8.059172069189986,-2.5175882470725552,-2.6643860785097644
29,-6.562189868189705,9.837095884535074e-07,3.9424169705636856,-449.0106749506913,224.0936656754284,-8.058885652187232,-2.517542440925492,-2.6645093396225548
