Solid, OFR2, R2SCAN, PE, PS, SCAN
HfOs, -0.742952499999987, -0.8472737499999994, -0.7145890000000001, -0.707885000000001, -0.900717499999999
ScPt, -1.1925375000000003, -1.3009619999999984, -1.2142680500000003, -1.2035551499999997, -1.4611125000000058
VPt2, -0.570483700000004, -0.5923819999999935, -0.5480563666666667, -0.5657227000000002, -0.7121163333333342
